Name,State,BodyweightKg,WeightClassKg,Sex,Division,AgeRange,Best3SquatKg,Best3BenchKg,Best3DeadliftKg,TotalKg,Equipment,Event,Place
T. Hackett,,,81.5,M,Teen,,,102.06,,102.06,Single-ply,B,1
T. Johnson,,,67.5,M,Open,,,129.27,,129.27,Single-ply,B,1
T. Huska,,,75,M,Open,,,124.74,,124.74,Single-ply,B,1
J. Johnson,,,82.5,M,Open,,,170.1,,170.1,Single-ply,B,1
D. Charron,,,82.5,M,Open,,,161.03,,161.03,Single-ply,B,2
J. Blindauer,,,82.5,M,Open,,,156.49,,156.49,Single-ply,B,3
M. Dowling,,,90,M,Open,,,172.37,,172.37,Single-ply,B,1
B. Blauw,,,90,M,Open,,,156.49,,156.49,Single-ply,B,2
J. Hubbard,,,110,M,Open,,,235.87,,235.87,Single-ply,B,1
