Place,Name,Team,BodyweightKg,WeightClassKg,Squat1Kg,Squat2Kg,Squat3Kg,Best3SquatKg,Bench1Kg,Bench2Kg,Bench3Kg,Best3BenchKg,Deadlift1Kg,Deadlift2Kg,Deadlift3Kg,Best3DeadliftKg,TotalKg,Event,Equipment,Sex,Division,BirthDate
1,Aleksandra Blajer,UR Rzeszów,52,52,125,132.5,-136,132.5,70,77.5,-80,77.5,135,142.5,-147.5,142.5,352.5,SBD,Raw,F,Seniorki,
2,Paulina Szymanel,PG Gdańsk,51.5,52,100,107.5,115,115,70,75,80.5,80.5,130,140,150,150,345.5,SBD,Raw,F,Seniorki,
3,Magdalena Frącek,AWF Warszawa Filia w Białej Podlaskiej,51.1,52,107.5,115,120,120,57.5,60,62.5,62.5,125,132.5,-137.5,132.5,315,SBD,Raw,F,Seniorki,
4,Alicja Lipka,UPr Lublin,51.3,52,80,90,97.5,97.5,45,52.5,55,55,100,110,120,120,272.5,SBD,Raw,F,Seniorki,
5,Julia Rozmus,UME Wrocław,45.5,52,98,101,104,104,47.5,50.5,-53,50.5,116,117.5,-120.5,117.5,272,SBD,Raw,F,Seniorki,
6,Agata Szewczuk,UPr Wrocław,51.4,52,90,-95,-95,90,52.5,57.5,-62.5,57.5,115,-120,-120,115,262.5,SBD,Raw,F,Seniorki,
7,Teresa Kornacka,UPr Wrocław,51,52,90,95,97.5,97.5,42.5,47.5,-52.5,47.5,95,102.5,107.5,107.5,252.5,SBD,Raw,F,Seniorki,
8,Sylwia Chrzanowska,UŁ Łódź,51.9,52,60,70,-80,70,42.5,47.5,50,50,70,85,92.5,92.5,212.5,SBD,Raw,F,Seniorki,
9,Paulina Pogorzelska,PP Poznań,50.7,52,65,70,75,75,35,37.5,40,40,75,80,85,85,200,SBD,Raw,F,Seniorki,
10,Agata Hajduk,AHE Łódź,45.7,52,47.5,55,-60,55,37.5,42.5,45,45,55,-60,-60,55,155,SBD,Raw,F,Seniorki,
11,Natalia Działkowska,UE Katowice,49.5,52,30,35,-50,35,25,27.5,30,30,45,52.5,60,60,125,SBD,Raw,F,Seniorki,
1,Gabriela Blajer,UR Rzeszów,57,57,-141,141,-146,141,70,-75,75,75,145,150,-152.5,150,366,SBD,Raw,F,Seniorki,
2,Patrycja Tomczyk,UO Opole,56.9,57,110,115,120,120,65,67.5,70,70,140,147.5,-152.5,147.5,337.5,SBD,Raw,F,Seniorki,
3,Agata Markowska,UME Łódź,54.1,57,97.5,102.5,105,105,62.5,65,67.5,67.5,125,132.5,140,140,312.5,SBD,Raw,F,Seniorki,
4,Karolina Kulińska,AWF Katowice,56,57,110,-115,-115,110,70,77.5,-82.5,77.5,110,117.5,125,125,312.5,SBD,Raw,F,Seniorki,
5,Dominika Mazur,GUM Gdańsk,55.6,57,110,115,-120,115,60,-62.5,62.5,62.5,130,-135,-135,130,307.5,SBD,Raw,F,Seniorki,
6,Kinga Kostrzewa,PB Białystok,56,57,100,105,-110,105,65,67.5,70,70,107.5,115,122.5,122.5,297.5,SBD,Raw,F,Seniorki,
7,Sandra Bogucka,UWM Olsztyn,56,57,90,97.5,105,105,55,57.5,60,60,112.5,122.5,130,130,295,SBD,Raw,F,Seniorki,
8,Andżelika Cyngot,SGGW Warszawa,55.4,57,-90,90,102.5,102.5,50,55,60,60,107.5,115,-122.5,115,277.5,SBD,Raw,F,Seniorki,
9,Paulina Pizoń,UMCS Lublin,56.1,57,97.5,105,-110,105,42.5,47.5,-50,47.5,120,-130,-130,120,272.5,SBD,Raw,F,Seniorki,
10,Zuzanna Marczak,AWFiS Gdańsk,53.1,57,100,105,-110,105,47.5,52.5,-57.5,52.5,100,107.5,112.5,112.5,270,SBD,Raw,F,Seniorki,
11,Paulina Markiewicz,PO Opole,55.5,57,90,-95,-95,90,67.5,72.5,-75,72.5,105,-110,-110,105,267.5,SBD,Raw,F,Seniorki,
12,Zuzanna Skrok,AWF Kraków,56.8,57,-92.5,97.5,102.5,102.5,50,52.5,55,55,95,100,105,105,262.5,SBD,Raw,F,Seniorki,
13,Natalia Wcisło,PW Wrocław,56.7,57,-92.5,92.5,-97.5,92.5,45,-47.5,-47.5,45,107.5,112.5,122.5,122.5,260,SBD,Raw,F,Seniorki,
14,Aleksandra Banasiak,PŁ Łódź,56,57,-95,95,100,100,50,-55,-55,50,100,-107.5,-107.5,100,250,SBD,Raw,F,Seniorki,
15,Klaudia Wawrzycka,UPr Lublin,56.9,57,-75,80,87.5,87.5,47.5,50,-52.5,50,105,-110,-110,105,242.5,SBD,Raw,F,Seniorki,
16,Zuzanna Browarek,UAM Poznań,55.5,57,85,90,-92.5,90,37.5,40,-42.5,40,97.5,102.5,107.5,107.5,237.5,SBD,Raw,F,Seniorki,
17,Aleksandra Romblewska,ANS Konin,57,57,-80,-80,80,80,-40,40,42.5,42.5,95,100,115,115,237.5,SBD,Raw,F,Seniorki,
18,Agnieszka Rojek,UG Gdańsk,57,57,75,80,-87.5,80,45,-50,50,50,-90,95,102.5,102.5,232.5,SBD,Raw,F,Seniorki,
19,Kamila Wiatrzyk,KUL Lublin,56.5,57,-77.5,82.5,87.5,87.5,30,35,-40,35,95,102.5,-107.5,102.5,225,SBD,Raw,F,Seniorki,
20,Oliwia Dang,SGH Warszawa,57,57,-90,95,-100,95,30,37.5,-40,37.5,85,90,,90,222.5,SBD,Raw,F,Seniorki,
21,Zuzanna Kmiecik,UE Poznań,55.6,57,60,70,-75,70,35,-40,-40,35,100,105,110,110,215,SBD,Raw,F,Seniorki,
22,Angelika Ziomkowska,UMK Toruń,56.4,57,65,67.5,70,70,40,-42.5,42.5,42.5,-80,80,82.5,82.5,195,SBD,Raw,F,Seniorki,
23,Karolina Hurek,UO Opole,57,57,50,57.5,65,65,37.5,40,42.5,42.5,70,80,87.5,87.5,195,SBD,Raw,F,Seniorki,
24,Oliwia Kołodziejczyk,UE Katowice,55.6,57,55,65,-70,65,30,-35,35,35,80,92.5,-100,92.5,192.5,SBD,Raw,F,Seniorki,
25,Martyna Kosakowska,UŚ Katowice,54.8,57,40,50,57.5,57.5,30,35,-37.5,35,55,65,75,75,167.5,SBD,Raw,F,Seniorki,
26,Aleksandra Kubicius,UŚ Katowice,54.9,57,45,50,55,55,-30,35,40,40,60,65,72.5,72.5,167.5,SBD,Raw,F,Seniorki,
27,Wiktoria Baran,UME Lublin,55.6,57,45,50,55,55,25,27.5,-30,27.5,77.5,82.5,-90,82.5,165,SBD,Raw,F,Seniorki,
28,Oliwia Królicka,UŚ Katowice,55.5,57,50,55,-65,55,27.5,30,-32.5,30,50,57.5,65,65,150,SBD,Raw,F,Seniorki,
NS,Julia Lachowicz,PO Opole,,57,,,,,,,,,,,,,,SBD,Raw,F,Seniorki,
DQ,Oliwia Adamczyk,PWSZ Koszalin,56.1,57,-127.5,-127.5,-127.5,,60,65,-70,65,130,-140,-140,130,,SBD,Raw,F,Seniorki,
1,Martyna Wystemp,AWF Katowice,62.4,63,130,135,-140,135,60,62.5,65,65,140,152.5,160,160,360,SBD,Raw,F,Seniorki,
2,Aleksandra Ciach,PŚ Gliwice,62.3,63,127.5,-132.5,-132.5,127.5,70,72.5,75,75,137.5,-145,145,145,347.5,SBD,Raw,F,Seniorki,
3,Julia Broź,UJ Kraków,60.5,63,120,125,-130,125,65,70,-72.5,70,130,140,147.5,147.5,342.5,SBD,Raw,F,Seniorki,
4,Patrycja Panasiuk,UJ Kraków,63,63,102.5,-110,112.5,112.5,52.5,57.5,60,60,130,140,152.5,152.5,325,SBD,Raw,F,Seniorki,
5,Julia Gejdel,WSH Wrocław,62.1,63,105,110,-115,110,55,57.5,-60,57.5,137.5,145,150,150,317.5,SBD,Raw,F,Seniorki,
6,Anna Sikora,UW Warszawa,62.7,63,105,110,-115,110,-60,60,65,65,130,140,-152.5,140,315,SBD,Raw,F,Seniorki,
7,Wiktoria Pieniążek,UP Kraków,62.3,63,122.5,127.5,130,130,50,52.5,55,55,122.5,127.5,-130,127.5,312.5,SBD,Raw,F,Seniorki,
8,Aneta Sagan,GWSH Katowice,62.3,63,100,105,-110,105,57.5,60,-62.5,60,130,140,142.5,142.5,307.5,SBD,Raw,F,Seniorki,
9,Zuzanna Pawlicz,UE Poznań,61.8,63,90,102.5,110,110,52.5,60,-67.5,60,120,130,135,135,305,SBD,Raw,F,Seniorki,
10,Pietraszek Gabriela,UWM Olsztyn,57.9,63,85,95,105,105,60,65,70,70,105,120,127.5,127.5,302.5,SBD,Raw,F,Seniorki,
11,Katarzyna Rzemieniak,WAT Warszawa,59.9,63,107.5,-115,-115,107.5,57.5,60,-62.5,60,120,130,-132.5,130,297.5,SBD,Raw,F,Seniorki,
12,Julia Cebula,AWF Kraków,60,63,100,107.5,-115,107.5,45,47.5,-52.5,47.5,130,137.5,142.5,142.5,297.5,SBD,Raw,F,Seniorki,
13,Magdalena Aleksiejuk,SGH Warszawa,61.6,63,-100,100,-107.5,100,65,-67.5,-67.5,65,130,-135,-135,130,295,SBD,Raw,F,Seniorki,
14,Joanna Wiśniewska,WSZ Gdańsk,61.7,63,95,100,-105,100,50,-52.5,-52.5,50,135,142.5,-150,142.5,292.5,SBD,Raw,F,Seniorki,
15,Aleksandra Adamik,AWF Kraków,62.6,63,90,95,105,105,47.5,52.5,57.5,57.5,110,115,127.5,127.5,290,SBD,Raw,F,Seniorki,
16,Dominika Groń,AWF Kraków,61.8,63,90,100,-107.5,100,52.5,57.5,-60,57.5,120,130,-137.5,130,287.5,SBD,Raw,F,Seniorki,
17,Weronika Kawa,UJ Kraków,61.9,63,100,107.5,-110,107.5,42.5,45,47.5,47.5,110,122.5,132.5,132.5,287.5,SBD,Raw,F,Seniorki,
18,Agnieszka Gawrońska,UG Gdańsk,61.6,63,95,100,105,105,47.5,50,52.5,52.5,120,125,-127.5,125,282.5,SBD,Raw,F,Seniorki,
19,Daria Caputa,Akademia WSB Dąbrowa Górnicza,62.5,63,97.5,-102.5,-102.5,97.5,55,-57.5,-57.5,55,120,130,-132.5,130,282.5,SBD,Raw,F,Seniorki,
20,Justyna Tokarz,WSAiB Gdańsk,62.7,63,-90,92.5,97.5,97.5,47.5,52.5,-55,52.5,125,127.5,-132.5,127.5,277.5,SBD,Raw,F,Seniorki,
21,Julia Miszczuk,ZUT Szczecin,61.2,63,-110,-110,110,110,50,-55,-55,50,100,107.5,115,115,275,SBD,Raw,F,Seniorki,
22,Paulina Nowak,UE Poznań,60,63,80,-87.5,87.5,87.5,50,52.5,55,55,120,130,-140,130,272.5,SBD,Raw,F,Seniorki,
23,Katarzyna Tessmer,PG Gdańsk,60,63,85,92.5,100,100,50,52.5,-55,52.5,107.5,112.5,120,120,272.5,SBD,Raw,F,Seniorki,
24,Paulina Wojdyła,AWFiS Gdańsk,61,63,75,80,85,85,55,60,-62.5,60,115,120,127.5,127.5,272.5,SBD,Raw,F,Seniorki,
25,Anna Elsner,SGH Warszawa,61.3,63,95,100,107.5,107.5,50,55,-60,55,105,110,-117.5,110,272.5,SBD,Raw,F,Seniorki,
26,Julia Brejwo,UAM Poznań,61.4,63,87.5,-92.5,-92.5,87.5,52.5,55,57.5,57.5,115,120,-125,120,265,SBD,Raw,F,Seniorki,
27,Zuzanna Zakrzewska,PG Gdańsk,60.9,63,87.5,92.5,-95,92.5,45,47.5,-50,47.5,110,117.5,-122.5,117.5,257.5,SBD,Raw,F,Seniorki,
28,Agata Krzykała,UE Katowice,61.4,63,87.5,92.5,-95,92.5,50,52.5,55,55,100,105,110,110,257.5,SBD,Raw,F,Seniorki,
29,Katarzyna Dziechcierewicz,KUL Lublin,61.6,63,72.5,80,87.5,87.5,40,45,47.5,47.5,90,100,105,105,240,SBD,Raw,F,Seniorki,
30,Kamila Matuszak,UPr Wrocław,62,63,85,87.5,-90,87.5,40,42.5,45,45,90,95,102.5,102.5,235,SBD,Raw,F,Seniorki,
31,Magdalena Jaszczyszyn,PK Kraków,61.8,63,67.5,75,80,80,37.5,-42.5,-45,37.5,95,102.5,110,110,227.5,SBD,Raw,F,Seniorki,
32,Krystyna Miklusiak,AGH Kraków,59.6,63,60,70,80,80,40,45,-50,45,70,80,90,90,215,SBD,Raw,F,Seniorki,
33,Dominika Budzeń,UME Lublin,59.8,63,75,82.5,85,85,35,37.5,-42.5,37.5,80,-90,90,90,212.5,SBD,Raw,F,Seniorki,
34,Urszula Kurzajewska,UPr Lublin,61.7,63,65,72.5,-80,72.5,35,-37.5,-37.5,35,-95,100,105,105,212.5,SBD,Raw,F,Seniorki,
35,Aleksandra Zajdel,UR Rzeszów,62.5,63,50,65,75,75,35,-42.5,-42.5,35,80,90,100,100,210,SBD,Raw,F,Seniorki,
36,Wiktoria Owsiak,UMo Gdynia,61.5,63,60,67.5,-75,67.5,32.5,35,-37.5,35,92.5,100,105,105,207.5,SBD,Raw,F,Seniorki,
37,Malwina Plak,PŁ Łódź,63,63,60,67.5,72.5,72.5,47.5,52.5,55,55,65,72.5,77.5,77.5,205,SBD,Raw,F,Seniorki,
38,Emilia Matrejek,SGH Warszawa,59.8,63,55,62.5,67.5,67.5,27.5,32.5,35,35,80,90,97.5,97.5,200,SBD,Raw,F,Seniorki,
39,Alicja Pabis,AGH Kraków,62.1,63,55,62.5,67.5,67.5,30,35,40,40,70,77.5,82.5,82.5,190,SBD,Raw,F,Seniorki,
40,Weronika Zakrzewska,AGH Kraków,59.9,63,55,62.5,-67.5,62.5,30,35,40,40,55,70,80,80,182.5,SBD,Raw,F,Seniorki,
41,Aleksandra Nawalaniec,PWSZ Nysa,61,63,55,62.5,70,70,25,30,-37.5,30,70,77.5,82.5,82.5,182.5,SBD,Raw,F,Seniorki,
42,Alicja Kosakowska,UŚ Katowice,59.5,63,30,40,47.5,47.5,25,30,-35,30,65,77.5,85,85,162.5,SBD,Raw,F,Seniorki,
43,Paulina Zabawska,AGH Kraków,61.3,63,30,40,50,50,25,30,32.5,32.5,55,65,75,75,157.5,SBD,Raw,F,Seniorki,
44,Zuzanna Rykiel,UR Rzeszów,62.4,63,30,50,60,60,25,-35,-35,25,55,60,70,70,155,SBD,Raw,F,Seniorki,
NS,Żaneta Przybyłek,PP Poznań,,63,,,,,,,,,,,,,,SBD,Raw,F,Seniorki,
NS,Wiktoria Mętel,PO Opole,,63,,,,,,,,,,,,,,SBD,Raw,F,Seniorki,
DQ,Paulina Adamska,UO Opole,62,63,-105,-105,-105,,-55,-55,-55,,110,115,120,120,,SBD,Raw,F,Seniorki,
1,Aleksandra Łukasik,AWF Kraków,67.8,69,-130,135,-137.5,135,-65,67.5,70,70,155,165,-170,165,370,SBD,Raw,F,Seniorki,
2,Joanna Lenart,UE Kraków,67.7,69,127.5,132.5,137.5,137.5,70,72.5,75,75,145,150,-157.5,150,362.5,SBD,Raw,F,Seniorki,
3,Julia Kulczycka,PG Gdańsk,69,69,127.5,132.5,135,135,67.5,72.5,-75,72.5,137.5,145,-155,145,352.5,SBD,Raw,F,Seniorki,
4,Julia Bilicka,UG Gdańsk,68.2,69,100,107.5,115,115,65,70,-72.5,70,145,155,-170,155,340,SBD,Raw,F,Seniorki,
5,Patrycja Buczyńska,AWF Wrocław,68.4,69,110,115,-120,115,77.5,82.5,-85,82.5,125,-132.5,-132.5,125,322.5,SBD,Raw,F,Seniorki,
6,Magdalena Knak,PG Gdańsk,67.9,69,112.5,117.5,-120,117.5,47.5,50,-52.5,50,132.5,137.5,142.5,142.5,310,SBD,Raw,F,Seniorki,
7,Julia Kuberska,AWF Katowice,73.2,76,-105,-107.5,107.5,107.5,62.5,67.5,-70,67.5,117.5,125,130,130,305,SBD,Raw,F,Seniorki,
8,Magdalena Jagnicka,UG Gdańsk,68.2,69,95,102.5,107.5,107.5,50,55,-57.5,55,112.5,125,135,135,297.5,SBD,Raw,F,Seniorki,
9,Amelia Stanicka,UME Lublin,67,69,100,-115,-117.5,100,47.5,55,-57.5,55,110,130,140,140,295,SBD,Raw,F,Seniorki,
10,Sandra Kieszkowska,UŁ Łódź,68.1,69,107.5,112.5,117.5,117.5,55,-57.5,-57.5,55,110,117.5,122.5,122.5,295,SBD,Raw,F,Seniorki,
11,Kinga Kaczmarska,UE Kraków,67.7,69,-100,100,110,110,-47.5,50,-52.5,50,115,-125,130,130,290,SBD,Raw,F,Seniorki,
12,Joanna Kapelańczyk,AWF Wrocław,67.8,69,90,97.5,-102.5,97.5,52.5,55,-57.5,55,115,120,-122.5,120,272.5,SBD,Raw,F,Seniorki,
13,Kinga Głuchowska,UW Warszawa,67,69,80,90,95,95,30,35,37.5,37.5,100,110,115,115,247.5,SBD,Raw,F,Seniorki,
14,Anna Satuła Małgorzata,UW Warszawa,68.5,69,75,-90,90,90,42.5,47.5,50,50,95,102.5,-105,102.5,242.5,SBD,Raw,F,Seniorki,
15,Oliwia Lesiewicz,UME Lublin,65.4,69,70,77.5,-82.5,77.5,37.5,40,42.5,42.5,95,102.5,107.5,107.5,227.5,SBD,Raw,F,Seniorki,
16,Aleksandra Kubacka,PWSZ Nysa,63.6,69,55,60,67.5,67.5,40,47.5,-52.5,47.5,80,95,105,105,220,SBD,Raw,F,Seniorki,
17,Klaudia Kozdrój,UMCS Lublin,65.1,69,72.5,77.5,82.5,82.5,42.5,-47.5,-47.5,42.5,75,80,-85,80,205,SBD,Raw,F,Seniorki,
18,Katarzyna Kolbuch,PŚ Gliwice,64,69,60,-65,67.5,67.5,40,42.5,-45,42.5,75,80,85,85,195,SBD,Raw,F,Seniorki,
19,Olimpia Głowacka,ANS Konin,67.7,69,45,-55,55,55,45,50,-52.5,50,80,90,-95,90,195,SBD,Raw,F,Seniorki,
20,Aurelia Bogdanowicz,UŚ Katowice,67,69,55,60,67.5,67.5,30,35,-37.5,35,55,60,-65,60,162.5,SBD,Raw,F,Seniorki,
1,Agata Sitko,PŚ Gliwice,75.9,76,187.5,-192.5,192.5,192.5,130,137.5,145,145,220,230,,230,567.5,SBD,Raw,F,Seniorki,
2,Magdalena Ziętek,UTH Radom,72.9,76,140,145,150,150,65,-67.5,-67.5,65,160,165,-170,165,380,SBD,Raw,F,Seniorki,
3,Agata Latocha,AWF Katowice,75.5,76,120,-125,127.5,127.5,70,72.5,75,75,155,165,170,170,372.5,SBD,Raw,F,Seniorki,
4,Katarzyna Kapuśniak,UKW Warszawa,73.7,76,-125,-125,125,125,70,-75,-75,70,155,160,165,165,360,SBD,Raw,F,Seniorki,
5,Magdalena Czerw,Akademia WSB Dąbrowa Górnicza,70.8,76,105,112.5,117.5,117.5,72.5,75,-80,75,135,140,145,145,337.5,SBD,Raw,F,Seniorki,
6,Natalia Kufel,PL Lublin,70.7,76,110,120,130,130,67.5,72.5,75,75,130,-140,-140,130,335,SBD,Raw,F,Seniorki,
7,Agata Ceranowska,UME Łódź,74,76,-115,115,-125,115,72.5,77.5,-80,77.5,125,-132.5,-132.5,125,317.5,SBD,Raw,F,Seniorki,
8,Aleksandra Orzechowska,PG Gdańsk,69.2,76,105,112.5,-120,112.5,47.5,50,-52.5,50,130,140,150,150,312.5,SBD,Raw,F,Seniorki,
9,Kinga Kuryło,UPr Lublin,69.7,76,95,102.5,-107.5,102.5,65,70,-72.5,70,120,130,140,140,312.5,SBD,Raw,F,Seniorki,
10,Julianna Łągiewka,UME Łódź,73.2,76,100,107.5,-112.5,107.5,60,-62.5,-62.5,60,130,137.5,142.5,142.5,310,SBD,Raw,F,Seniorki,
11,Justyna Moczadło,UWM Olsztyn,74.1,76,-95,95,110,110,57.5,62.5,-67.5,62.5,120,130,137.5,137.5,310,SBD,Raw,F,Seniorki,
12,Katarzyna Nowak,UME Lublin,74.5,76,100,107.5,-115,107.5,60,-65,-65,60,120,130,140,140,307.5,SBD,Raw,F,Seniorki,
13,Karolina Wysocka,PŁ Łódź,70.4,76,115,120,-127.5,120,55,-60,-60,55,117.5,122.5,127.5,127.5,302.5,SBD,Raw,F,Seniorki,
14,Julia Dyndesz,PG Gdańsk,71.9,76,110,117.5,-122.5,117.5,47.5,-50,-50,47.5,105,110,117.5,117.5,282.5,SBD,Raw,F,Seniorki,
15,Martyna Kopania,UJ Kraków,74.5,76,95,100,105,105,40,45,-47.5,45,115,125,132.5,132.5,282.5,SBD,Raw,F,Seniorki,
16,Martyna Sulima,UPr Lublin,72.4,76,100,107.5,110,110,50,55,-57.5,55,110,115,-120,115,280,SBD,Raw,F,Seniorki,
17,Magdalena Szymkowiak,PW Wrocław,74.6,76,105,110,115,115,45,50,,50,107.5,112.5,-115,112.5,277.5,SBD,Raw,F,Seniorki,
18,Paulina Priebe,GUM Gdańsk,69.6,76,82.5,-90,90,90,35,42.5,-45,42.5,92.5,102.5,-107.5,102.5,235,SBD,Raw,F,Seniorki,
19,Anna Iwan,PL Lublin,72.4,76,70,80,85,85,35,37.5,-42.5,37.5,100,-110,112.5,112.5,235,SBD,Raw,F,Seniorki,
20,Marta Kreczmer,AGH Kraków,69.3,76,75,82.5,87.5,87.5,40,45,-52.5,45,90,100,-105,100,232.5,SBD,Raw,F,Seniorki,
21,Marcelina Piecuch,PWSZ Nysa,75.9,76,70,72.5,-77.5,72.5,25,30,35,35,85,95,-110,95,202.5,SBD,Raw,F,Seniorki,
22,Agnieszka Półgęsek,PP Poznań,70,76,45,50,55,55,30,32.5,35,35,65,70,75,75,165,SBD,Raw,F,Seniorki,
DQ,Justyna Kacprzyk,UMK Toruń,73.6,76,62.5,67.5,-75,67.5,-40,-40,-40,,85,92.5,105,105,,SBD,Raw,F,Seniorki,
NS,Sara Nowacka,PP Poznań,,76,,,,,,,,,,,,,,SBD,Raw,F,Seniorki,
NS,Anna Niestroj,AWF Katowice,,76,,,,,,,,,,,,,,SBD,Raw,F,Seniorki,
1,Joanna Sałek,UJ Kraków,80.3,84,162.5,170.5,175.5,175.5,92.5,97,100,100,190,205.5,213,213,488.5,SBD,Raw,F,Seniorki,
2,Abigail McLean,SGGW Warszawa,82.1,84,155,165,-171,165,82.5,87.5,90,90,175,190,-202.5,190,445,SBD,Raw,F,Seniorki,
3,Wiktoria Kluska,UO Opole,81.5,84,130,137.5,145,145,72.5,77.5,80,80,135,145,150,150,375,SBD,Raw,F,Seniorki,
4,Noemi Nogaczewska,PG Gdańsk,78,84,125,130,137.5,137.5,82.5,85,-87.5,85,137.5,142.5,145,145,367.5,SBD,Raw,F,Seniorki,
5,Julita Kalita,UMK Toruń,79.5,84,115,125,130,130,65,-72.5,72.5,72.5,135,145,-155,145,347.5,SBD,Raw,F,Seniorki,
6,Hanna Dobrowolska,UW Wrocław,97.5,84+,130,140,-150,140,57.5,60,62.5,62.5,125,135,142.5,142.5,345,SBD,Raw,F,Seniorki,
7,Victoria Daniels,AWFiS Gdańsk,80.9,84,77.5,82.5,90,90,50,-55,-55,50,115,125,135,135,275,SBD,Raw,F,Seniorki,
1,Agata Kwiatkowska,CH Rzeszów,113.3,84+,175,-182.5,182.5,182.5,90,,,90,175,,,175,447.5,SBD,Raw,F,Seniorki,
2,Agata Kaliciak,AWF Wrocław,95.8,84+,150,157.5,-165,157.5,90,95,-97.5,95,165,175,-181,175,427.5,SBD,Raw,F,Seniorki,
3,Kinga Świderska,UAM Poznań,117.8,84+,155,162.5,167.5,167.5,82.5,87.5,-92.5,87.5,160,167.5,-175,167.5,422.5,SBD,Raw,F,Seniorki,
4,Andżelika Płótnicka,UG Gdańsk,114.5,84+,140,150,170,170,60,65,-70,65,140,155,-170,155,390,SBD,Raw,F,Seniorki,
5,Marlena Wronka,UME Łódź,119.4,84+,127.5,135,142.5,142.5,70,-75,-75,70,135,142.5,-150,142.5,355,SBD,Raw,F,Seniorki,
DQ,Marta Tsirigotis-Maniecka,PW Wrocław,118.6,84+,70,75,-80,75,40,42.5,-45,42.5,-95,-95,-95,,,SBD,Raw,F,Seniorki,
1,Shamte Ndiaye,AGH Kraków,59,59,105,115,120,120,70,75,80,80,142.5,152.5,157.5,157.5,357.5,SBD,Raw,M,Seniorki,
2,Dawid Leśniak,PO Opole,57.4,59,100,107.5,-115,107.5,62.5,67.5,-72.5,67.5,130,140,-150,140,315,SBD,Raw,M,Seniorki,
3,Bartosz Kubinka,PŚ Gliwice,58.7,59,95,-105,105,105,-70,-75,75,75,100,115,125,125,305,SBD,Raw,M,Seniorki,
4,Mateusz Kaczmarski,PŁ Łódź,57,59,80,90,100,100,67.5,72.5,77.5,77.5,100,115,120,120,297.5,SBD,Raw,M,Seniorki,
DQ,Kacper Furtas,UG Gdańsk,57.4,59,105,110,115,115,80,85,-90,85,-145,-145,-145,,,SBD,Raw,M,Seniorki,
G,Marek Kubacki,SGGW Warszawa,61.4,66,80,90,100,100,75,80,-82.5,80,115,122.5,127.5,127.5,307.5,SBD,Raw,M,Seniorki,
NS,Adrian Szymański,UPr Lublin,,59,,,,,,,,,,,,,,SBD,Raw,M,Seniorki,
1,Michał Jasak,PW Warszawa,65.8,66,175,182.5,187.5,187.5,122.5,127.5,-130,127.5,225,240,-253,240,555,SBD,Raw,M,Seniorki,
2,Przemysław Stec,PK Kraków,63.5,66,165,170,-175,170,115,-120,-120,115,210,220,-235,220,505,SBD,Raw,M,Seniorki,
3,Antoni Winiarek,WAT Warszawa,65.6,66,140,155,-162.5,155,100,107.5,-112.5,107.5,180,195,207.5,207.5,470,SBD,Raw,M,Seniorki,
4,Błażej Tkacz,UJK Kielce,65.5,66,160,167.5,-172.5,167.5,-97.5,97.5,-102.5,97.5,190,200,-207.5,200,465,SBD,Raw,M,Seniorki,
5,Łukasz Darczuk,PL Lublin,65.2,66,145,152.5,157.5,157.5,115,-120,-120,115,175,-180,180,180,452.5,SBD,Raw,M,Seniorki,
6,Filip Gołębiowski,KUL Lublin,65.3,66,150,-157.5,160,160,85,90,-95,90,180,187.5,192.5,192.5,442.5,SBD,Raw,M,Seniorki,
7,Damian Oracz,PŁ Łódź,63.8,66,125,135,145,145,85,90,-95,90,170,180,190,190,425,SBD,Raw,M,Seniorki,
8,Kornel Zych,AWFiS Gdańsk,64.9,66,110,120,130,130,110,115,-120,115,170,180,-190,180,425,SBD,Raw,M,Seniorki,
9,Marcin Lata,UŚ Katowice,65.7,66,130,135,150,150,100,-105,,100,150,165,-170,165,415,SBD,Raw,M,Seniorki,
10,Dominik Kamecki,AWF Wrocław,65.6,66,130,140,-145,140,100,-105,105,105,140,155,165,165,410,SBD,Raw,M,Seniorki,
11,Jakub Jakubik,UŚ Katowice,64.7,66,120,135,-140,135,85,-90,-90,85,130,145,-155,145,365,SBD,Raw,M,Seniorki,
12,Paweł Bożek,UW Warszawa,65.6,66,100,120,130,130,80,90,-97.5,90,120,130,140,140,360,SBD,Raw,M,Seniorki,
13,Alexander Baldauf,UMo Gdynia,64.4,66,100,107.5,117.5,117.5,82.5,87.5,-92.5,87.5,130,140,147.5,147.5,352.5,SBD,Raw,M,Seniorki,
14,Mateusz Wiese,PB Bydgoszcz,64.2,66,100,110,120,120,80,90,-95,90,100,115,120,120,330,SBD,Raw,M,Seniorki,
15,Tomisław Biernat,UE Katowice,64.9,66,-70,70,-80,70,70,-80,-80,70,100,130,140,140,280,SBD,Raw,M,Seniorki,
DQ,Michał Kmiećkowiak,SGH Warszawa,64.9,66,-140,-150,150,150,-100,-100,-100,,150,165,-175,165,,SBD,Raw,M,Seniorki,
NS,Modest Ivashchenko,PL Lublin,,66,,,,,,,,,,,,,,SBD,Raw,M,Seniorki,
1,Kamil Linstedt,PG Gdańsk,73.8,74,232.5,240,253,253,125,-130,,125,265,275,-281.5,275,653,SBD,Raw,M,Seniorki,
2,Kamil Światły,UAM Poznań,74,74,215,222.5,-230,222.5,130,135,140,140,240,247.5,255,255,617.5,SBD,Raw,M,Seniorki,
3,Dawid Natorski,PW Warszawa,71.2,74,185,192.5,200,200,125,130,-135,130,230,245,-255,245,575,SBD,Raw,M,Seniorki,
4,Stanisław Chodorowski,UE Kraków,73.8,74,200,210,215,215,115,120,-122.5,120,230,240,-250,240,575,SBD,Raw,M,Seniorki,
5,Dominik Nowogórski,UJ Kraków,73.7,74,180,190,197.5,197.5,115,120,122.5,122.5,200,212.5,217.5,217.5,537.5,SBD,Raw,M,Seniorki,
6,Sebastian Komorek,UWM Olsztyn,74,74,185,195,,195,100,-107.5,-107.5,100,220,235,-245,235,530,SBD,Raw,M,Seniorki,
7,Kamil Sacharczuk,KUL Lublin,72.2,74,160,170,180,180,100,105,107.5,107.5,220,230,-240,230,517.5,SBD,Raw,M,Seniorki,
8,Mateusz Stermolewski,WSB Poznań,73.5,74,170,185,195,195,-105,105,-112.5,105,200,217.5,-227.5,217.5,517.5,SBD,Raw,M,Seniorki,
9,Dominik Mały,WAT Warszawa,73.5,74,180,-200,200,200,110,117.5,-120,117.5,180,200,-210,200,517.5,SBD,Raw,M,Seniorki,
10,Igor Tomasik,PK Kraków,73.9,74,150,160,-170,160,130,-140,145,145,200,210,-220,210,515,SBD,Raw,M,Seniorki,
11,Krzysztof Żurakowski,AWF Wrocław,73.8,74,180,185,190,190,110,115,-120,115,195,207.5,-220,207.5,512.5,SBD,Raw,M,Seniorki,
12,Bartosz Świstak,AWF Warszawa,74,74,185,192.5,200,200,110,115,-120,115,195,-205,-205,195,510,SBD,Raw,M,Seniorki,
13,Wiktor Bigos,KPU Krosno,71.8,74,180,192.5,-200,192.5,102.5,-110,-110,102.5,185,200,210,210,505,SBD,Raw,M,Seniorki,
14,Bartosz Kucharczyk,UJK Kielce,70.9,74,160,167.5,177.5,177.5,117.5,122.5,-127.5,122.5,-200,-200,200,200,500,SBD,Raw,M,Seniorki,
15,Mariusz Jaroszek,UPr Lublin,74,74,160,170,180,180,100,-105,105,105,200,215,-225,215,500,SBD,Raw,M,Seniorki,
16,Patryk Gruza,UME Lublin,72.6,74,140,155,160,160,100,110,-120,110,190,210,225,225,495,SBD,Raw,M,Seniorki,
17,Szymon Miśkowiec,PWSZ Nowy Sącz,73.3,74,165,175,-177.5,175,-110,110,-115,110,-190,195,207.5,207.5,492.5,SBD,Raw,M,Seniorki,
18,Kacper Bożek,AGH Kraków,71.7,74,157.5,165,172.5,172.5,100,-102.5,-102.5,100,210,217.5,-225,217.5,490,SBD,Raw,M,Seniorki,
19,Piotr Szachowski,UŁ Łódź,73.2,74,160,170,175,175,95,-100,-100,95,200,215,-220,215,485,SBD,Raw,M,Seniorki,
20,Jakub Knobloch,ŚUM Katowice,73.4,74,165,175,182.5,182.5,105,-110,-110,105,190,-200,-200,190,477.5,SBD,Raw,M,Seniorki,
21,Denis Szpyra,WSB Toruń,73.9,74,142.5,155,-165,155,107.5,112.5,-117.5,112.5,190,205,-215,205,472.5,SBD,Raw,M,Seniorki,
22,Piotr Jaworski,UAM Poznań,71,74,162.5,170,175,175,87.5,92.5,95,95,185,-195,200,200,470,SBD,Raw,M,Seniorki,
25,Wiktor Borysiewicz,UW Warszawa,72.8,74,145,155,160,160,100,105,-107.5,105,177.5,190,200,200,465,SBD,Raw,M,Seniorki,
23,Piotr Zalewski,PW Wrocław,73.8,74,157.5,167.5,175,175,100,105,,105,160,172.5,185,185,465,SBD,Raw,M,Seniorki,
24,Dawid Pesta,UMo Gdynia,73.4,74,155,165,-175,165,105,110,112.5,112.5,165,180,-187.5,180,457.5,SBD,Raw,M,Seniorki,
26,Tomasz Łogisz,PW Wrocław,69.4,74,155,162.5,-170,162.5,90,97.5,-102.5,97.5,180,190,-200,190,450,SBD,Raw,M,Seniorki,
27,Mikołaj Jęsiak,AWFiS Gdańsk,71.2,74,147.5,155,162.5,162.5,90,95,-100,95,180,-192.5,192.5,192.5,450,SBD,Raw,M,Seniorki,
28,Maciej Martenka,PB Bydgoszcz,73,74,140,150,-155,150,105,112.5,-117.5,112.5,170,-187.5,187.5,187.5,450,SBD,Raw,M,Seniorki,
29,Kacper Wach,UWM Olsztyn,72.5,74,145,155,162.5,162.5,100,107.5,-117.5,107.5,165,175,-190,175,445,SBD,Raw,M,Seniorki,
30,Dominik Zieliński,SGH Warszawa,72.8,74,130,140,,140,-100,100,-105,100,165,-175,-175,165,405,SBD,Raw,M,Seniorki,
31,Daniel Foks,PŚ Gliwice,73,74,130,140,145,145,100,105,-110,105,135,145,155,155,405,SBD,Raw,M,Seniorki,
32,Dawid Kłokosiński,PWSZ Nysa,72.2,74,117.5,125,137.5,137.5,-90,90,-100,90,165,170,175,175,402.5,SBD,Raw,M,Seniorki,
33,Piotr Zybała,UMo Gdynia,72.5,74,105,115,-120,115,100,105,-110,105,162.5,172.5,180,180,400,SBD,Raw,M,Seniorki,
34,Franciszek Spyra,UE Katowice,73.3,74,135,142.5,-150,142.5,80,85,-90,85,150,160,172.5,172.5,400,SBD,Raw,M,Seniorki,
35,Piotr Kosman,SGH Warszawa,72.3,74,122.5,135,-140,135,85,92.5,95,95,147.5,160,-165,160,390,SBD,Raw,M,Seniorki,
36,Piotr Litwiński,UG Gdańsk,72.6,74,115,120,125,125,95,-102.5,-102.5,95,140,145,-152.5,145,365,SBD,Raw,M,Seniorki,
37,Adam Kłak,PO Opole,72.8,74,100,-110,-110,100,80,-90,-90,80,140,155,167.5,167.5,347.5,SBD,Raw,M,Seniorki,
38,Kamil Patora,UE Poznań,72.9,74,-85,90,-95,90,70,75,80,80,90,105,120,120,290,SBD,Raw,M,Seniorki,
39,Uladzimir Khramiankou,UMCS Lublin,71.8,74,80,90,100,100,-70,70,72.5,72.5,80,95,110,110,282.5,SBD,Raw,M,Seniorki,
G,Bartłomiej Pomietło,AGH Kraków,74.4,83,157.5,165,170,170,115,-120,-120,115,210,220,-225,220,505,SBD,Raw,M,Seniorki,
G,Przemysław Mroczek,PL Lublin,74.8,83,140,150,-170,150,-90,90,-95,90,200,-210,215,215,455,SBD,Raw,M,Seniorki,
G,Piotr Strenkowski,UWM Olsztyn,81.3,83,125,130,-140,130,110,120,-130,120,155,180,190,190,440,SBD,Raw,M,Seniorki,
NS,Michał Kimbar,PW Wrocław,,74,,,,,,,,,,,,,,SBD,Raw,M,Seniorki,
DQ,Aleksander Tokarek,ANS Konin,68.1,74,-50,-60,70,70,-80,-80,-80,,80,95,120,120,,SBD,Raw,M,Seniorki,
NS,Maciej Olczak,UE Katowice,,74,,,,,,,,,,,,,,SBD,Raw,M,Seniorki,
DQ,Paweł Płaskoń,UZ Zielonagóra,72.2,74,125,135,-142.5,135,-105,-105,-105,,150,170,-190,170,,SBD,Raw,M,Seniorki,
NS,Adam Gołębiewski,SGGW Warszawa,74,74,-170,-170,-170,,-115,,,,,,,,,SBD,Raw,M,Seniorki,
1,Miron Dembski,UW Warszawa,82.5,83,215,230,242.5,242.5,117.5,125,130,130,250,-260,270,270,642.5,SBD,Raw,M,Seniorki,
2,Rafał Łazicki,WAT Warszawa,76.6,83,210,220,230,230,140,147.5,150,150,235,250,-270,250,630,SBD,Raw,M,Seniorki,
3,Wojciech Rokowski,AGH Kraków,80.8,83,210,220,-230,220,125,135,140,140,230,-250,255,255,615,SBD,Raw,M,Seniorki,
4,Karol Budziwół,UR Rzeszów,82.8,83,210,220,-230,220,145,150,155,155,230,240,-250,240,615,SBD,Raw,M,Seniorki,
5,Daniel Przybysz,PG Gdańsk,82,83,215,225,230,230,127.5,132.5,135,135,225,235,240,240,605,SBD,Raw,M,Seniorki,
6,Sebastian Bojdo,PK Kraków,82.7,83,195,205,-212.5,205,125,132.5,140,140,230,240,255,255,600,SBD,Raw,M,Seniorki,
7,Piotr Burzawa,UJK Kielce,82.2,83,205,215,-220,215,130,137.5,-142.5,137.5,230,242.5,-247.5,242.5,595,SBD,Raw,M,Seniorki,
8,Wiktor Kubis,UŚ Katowice,80.7,83,190,197.5,-205,197.5,115,122.5,125,125,240,260,270,270,592.5,SBD,Raw,M,Seniorki,
9,Michał Bielski,AWF Wrocław,81.8,83,205,215,222.5,222.5,120,-125,127.5,127.5,220,237.5,-250,237.5,587.5,SBD,Raw,M,Seniorki,
10,Mateusz Tchorek,ANS Piła,82.6,83,200,215,-225,215,150,-160,-160,150,200,215,-235,215,580,SBD,Raw,M,Seniorki,
11,Maciej Mazur,AGH Kraków,81,83,195,205,-215,205,127.5,135,-142.5,135,-220,225,235,235,575,SBD,Raw,M,Seniorki,
12,Jakub Grycman,AWF Wrocław,81.4,83,205,215,-222.5,215,125,132.5,-135,132.5,205,225,-242.5,225,572.5,SBD,Raw,M,Seniorki,
13,Mateusz Szajewski,UPr Lublin,82,83,185,195,-200,195,125,-130,-130,125,240,250,-260,250,570,SBD,Raw,M,Seniorki,
14,Rafał Zaremba,UJ Kraków,82.7,83,192.5,202.5,-210,202.5,142.5,-147.5,-147.5,142.5,210,220,-237.5,220,565,SBD,Raw,M,Seniorki,
15,Dawid Kuczkowski,UR Rzeszów,82.8,83,195,205,210,210,112.5,-117.5,117.5,117.5,215,225,232.5,232.5,560,SBD,Raw,M,Seniorki,
16,Paweł Kasperkiewicz,UW Wrocław,81.4,83,190,200,-205,200,102.5,107.5,-112.5,107.5,235,250,-260,250,557.5,SBD,Raw,M,Seniorki,
17,Kamil Ciszewski,PŁ Łódź,81.6,83,200,-215,-215,200,142.5,-145,-145,142.5,205,215,-220,215,557.5,SBD,Raw,M,Seniorki,
18,Wojciech Łukasik,UJ Kraków,82.2,83,175,185,192.5,192.5,110,115,-117.5,115,225,240,250,250,557.5,SBD,Raw,M,Seniorki,
19,Jakub Jamróz,AGH Kraków,81.3,83,170,-175,182.5,182.5,110,115,125,125,220,240,-255,240,547.5,SBD,Raw,M,Seniorki,
20,Piotr Szewczyk,UPr Lublin,81.7,83,175,187.5,-192.5,187.5,130,135,-140,135,200,215,225,225,547.5,SBD,Raw,M,Seniorki,
21,Adrian Rosa,AWF Wrocław,82.9,83,192.5,202.5,207.5,207.5,110,117.5,120,120,200,220,-235,220,547.5,SBD,Raw,M,Seniorki,
22,Jan Kazak,PK Kraków,81.2,83,200,215,222.5,222.5,110,117.5,-120,117.5,-205,205,-220,205,545,SBD,Raw,M,Seniorki,
23,Szymon Wiatrowski,UMo Gdynia,82.2,83,200,-210,-210,200,-125,125,-130,125,220,-235,-235,220,545,SBD,Raw,M,Seniorki,
24,Fionn Staiger,SGGW Warszawa,81.6,83,170,185,-195,185,110,117.5,127.5,127.5,190,210,225,225,537.5,SBD,Raw,M,Seniorki,
25,Dominik Tumidajski,GWSH Katowice,80.3,83,180,190,-200,190,120,125,-130,125,200,210,220,220,535,SBD,Raw,M,Seniorki,
26,Dawid Szałas,UJK Kielce,81.2,83,175,185,-195,185,115,120,125,125,210,220,225,225,535,SBD,Raw,M,Seniorki,
27,Maciej Zastawny,PW Warszawa,82.8,83,-190,190,,190,120,-127.5,127.5,127.5,207.5,215,-220,215,532.5,SBD,Raw,M,Seniorki,
28,Łukasz Nawrocki,PP Poznań,78.3,83,170,180,-190,180,115,-120,-120,115,220,235,-250,235,530,SBD,Raw,M,Seniorki,
29,Mateusz Szostak,PW Warszawa,82.8,83,190,197.5,-202.5,197.5,125,130,-132.5,130,-190,190,200,200,527.5,SBD,Raw,M,Seniorki,
30,Szymon Karpiński,ZUT Szczecin,81.1,83,170,177.5,185,185,115,122.5,,122.5,200,212.5,217.5,217.5,525,SBD,Raw,M,Seniorki,
31,Paweł Błaszczyk,PG Gdańsk,81.9,83,170,180,187.5,187.5,125,130,132.5,132.5,190,200,205,205,525,SBD,Raw,M,Seniorki,
32,Przemysław Milczarczyk,WAT Warszawa,79.1,83,160,175,185,185,130,137.5,142.5,142.5,180,195,-200,195,522.5,SBD,Raw,M,Seniorki,
33,Patryk Gnat,AGH Kraków,81.3,83,165,-175,175,175,110,117.5,125,125,200,215,-225,215,515,SBD,Raw,M,Seniorki,
34,Piotr Gąsiorek,AGH Kraków,81.8,83,170,177.5,180,180,120,127.5,132.5,132.5,-200,200,-210,200,512.5,SBD,Raw,M,Seniorki,
35,Konrad Piwcewicz,PG Gdańsk,81.7,83,165,170,175,175,105,110,-115,110,215,-225,225,225,510,SBD,Raw,M,Seniorki,
36,Kazimierz Daszkiewicz,UMK Toruń,75.7,83,150,165,180,180,100,110,115,115,180,195,210,210,505,SBD,Raw,M,Seniorki,
37,Mikołaj Łukaszuk,AWF Warszawa Filia w Białej Podlaskiej,81.4,83,170,177.5,180,180,105,-110,110,110,205,215,-225,215,505,SBD,Raw,M,Seniorki,
38,Patryk Jabłoński,PL Lublin,82.3,83,160,170,-175,170,110,115,-120,115,220,-225,,220,505,SBD,Raw,M,Seniorki,
39,Michał Chrzanowski,UR Rzeszów,82.4,83,170,180,190,190,112.5,122.5,-130,122.5,180,190,-195,190,502.5,SBD,Raw,M,Seniorki,
40,Michał Gwoździk,UE Katowice,77.5,83,180,-190,190,190,105,-112.5,-112.5,105,190,205,-210,205,500,SBD,Raw,M,Seniorki,
41,Michał Mazurek,UME Lublin,80.3,83,165,180,-190,180,110,-115,-115,110,180,200,210,210,500,SBD,Raw,M,Seniorki,
42,Franciszek Witosz,PŚ Gliwice,82.1,83,170,180,-185,180,110,-117.5,-117.5,110,200,210,-215,210,500,SBD,Raw,M,Seniorki,
43,Błażej Guzikowski,UJK Kielce,82.3,83,160,170,-180,170,125,-130,130,130,180,190,200,200,500,SBD,Raw,M,Seniorki,
44,Jakub Mońka,AWF Kraków,78.7,83,165,175,-182.5,175,115,120,122.5,122.5,200,-210,-210,200,497.5,SBD,Raw,M,Seniorki,
45,Mateusz Dąbek,UME Lublin,81.8,83,155,165,-172.5,165,117.5,-125,-125,117.5,195,205,212.5,212.5,495,SBD,Raw,M,Seniorki,
46,Marcin Orzechowski,UMo Gdynia,82.2,83,170,185,,185,-115,-115,115,115,180,195,-205,195,495,SBD,Raw,M,Seniorki,
47,Szymon Ilczyszyn,WSH Wrocław,81.4,83,165,172.5,-177.5,172.5,-120,120,-125,120,190,200,,200,492.5,SBD,Raw,M,Seniorki,
48,Dawid Gajowiak,PL Lublin,81,83,160,170,-180,170,105,-115,-115,105,190,200,210,210,485,SBD,Raw,M,Seniorki,
49,Mateusz Scharmach,UW Warszawa,82.1,83,145,155,160,160,105,112.5,-120,112.5,185,195,205,205,477.5,SBD,Raw,M,Seniorki,
50,Jakub Urbańczyk,AWF Katowice,81.8,83,165,170,175,175,105,110,-112.5,110,-185,190,-200,190,475,SBD,Raw,M,Seniorki,
51,Mateusz Marzec,UŚ Katowice,82.2,83,165,170,-177.5,170,110,-115,115,115,180,190,-200,190,475,SBD,Raw,M,Seniorki,
52,Mateusz Gierat,AWF Katowice,83,83,-160,-160,165,165,102.5,107.5,-110,107.5,185,-200,200,200,472.5,SBD,Raw,M,Seniorki,
53,Marek Zalewski,UŚ Katowice,81.2,83,167.5,175,180,180,-87.5,-90,90,90,180,190,200,200,470,SBD,Raw,M,Seniorki,
54,Krzysztof Stępień,UE Poznań,81.4,83,-120,130,140,140,120,125,130,130,-180,180,200,200,470,SBD,Raw,M,Seniorki,
55,Piotr Fafuła,AWF Wrocław,81.7,83,165,172.5,-177.5,172.5,105,-110,-110,105,192.5,-197.5,,192.5,470,SBD,Raw,M,Seniorki,
56,Jakub Laska,UE Poznań,76.1,83,140,150,152.5,152.5,110,-115,-115,110,200,205,-207.5,205,467.5,SBD,Raw,M,Seniorki,
57,Jakub Pigulski,ANS Konin,82.4,83,160,165,-170,165,105,110,112.5,112.5,165,180,190,190,467.5,SBD,Raw,M,Seniorki,
58,Mateusz Dobies,UMK Toruń,80.6,83,160,-170,170,170,105,110,115,115,180,-190,-190,180,465,SBD,Raw,M,Seniorki,
59,Elias Doulan,UE Kraków,82.2,83,150,160,170,170,105,-110,-110,105,180,190,-200,190,465,SBD,Raw,M,Seniorki,
60,Paweł Zabrocki,UŁ Łódź,82.3,83,140,145,150,150,120,130,-135,130,160,170,185,185,465,SBD,Raw,M,Seniorki,
61,Maciej Micek,UJ Kraków,82.2,83,150,157.5,165,165,95,102.5,-107.5,102.5,175,185,192.5,192.5,460,SBD,Raw,M,Seniorki,
62,Daniel Charlak,PL Lublin,80.9,83,140,160,-175,160,95,105,110,110,165,185,-200,185,455,SBD,Raw,M,Seniorki,
63,Maks Betlejewski,PG Gdańsk,81.2,83,145,155,-165,155,100,-107.5,-107.5,100,180,190,200,200,455,SBD,Raw,M,Seniorki,
64,Mateusz Sysakiewicz,AWF Katowice,81.8,83,155,165,-177.5,165,-70,75,-80,75,170,190,-205,190,430,SBD,Raw,M,Seniorki,
65,Damian Laszczyk,UJK Kielce,80.1,83,132.5,140,150,150,-82.5,82.5,-87.5,82.5,185,-187.5,187.5,187.5,420,SBD,Raw,M,Seniorki,
66,Oleksandr Kucheriavyi,UG Gdańsk,81,83,140,-150,150,150,95,-100,100,100,140,150,165,165,415,SBD,Raw,M,Seniorki,
67,Eryk Witkowski,SGH Warszawa,81.7,83,140,150,160,160,90,-95,-95,90,150,-160,160,160,410,SBD,Raw,M,Seniorki,
68,Kamil Borowik,PB Białystok,81.9,83,120,125,130,130,90,95,-100,95,-160,170,175,175,400,SBD,Raw,M,Seniorki,
69,Kamil Rygielski,PB Bydgoszcz,75.9,83,135,140,147.5,147.5,80,85,-90,85,145,152.5,160,160,392.5,SBD,Raw,M,Seniorki,
70,Julian Łowicki,ZUT Szczecin,81.4,83,90,115,125,125,60,70,80,80,160,170,-185,170,375,SBD,Raw,M,Seniorki,
71,Stanisław Durski,UW Warszawa,81,83,-80,90,102.5,102.5,85,92.5,100,100,140,150,160,160,362.5,SBD,Raw,M,Seniorki,
72,Daniel Obłąk,AHE Łódź,78.8,83,105,115,127.5,127.5,60,67.5,-72.5,67.5,152.5,160,162.5,162.5,357.5,SBD,Raw,M,Seniorki,
73,Paweł Krzowski,UMCS Lublin,74.5,83,90,-100,105,105,90,95,-100,95,140,155,-170,155,355,SBD,Raw,M,Seniorki,
74,Paweł Jerczyński,UME Lublin,80.9,83,90,100,110,110,95,-102.5,-102.5,95,130,140,150,150,355,SBD,Raw,M,Seniorki,
75,Michał Mękarski,UW Wrocław,82.6,83,-95,102.5,-110,102.5,-75,75,-80,75,115,130,-140,130,307.5,SBD,Raw,M,Seniorki,
76,Przemysław Szyller,USZ Szczecin,82.3,83,70,75,100,100,70,75,77.5,77.5,70,75,77.5,77.5,255,SBD,Raw,M,Seniorki,
77,Adam Tymicz,ZUT Szczecin,80.2,83,60,70,-90,70,50,60,-70,60,80,100,120,120,250,SBD,Raw,M,Seniorki,
DQ,Paweł Kaszyński,UW Wrocław,82.4,83,140,-150,150,150,-122.5,-122.5,-122.5,,135,-142.5,142.5,142.5,,SBD,Raw,M,Seniorki,
DQ,Kacper Urbaniak,UW Wrocław,79.3,83,-165,-165,-165,,92.5,-97.5,-97.5,92.5,192.5,-200,210,210,,SBD,Raw,M,Seniorki,
DQ,Jakub Dobrowolski,CM UMK Bydgoszcz,81.9,83,-180,185,-200,185,-140,-145,-145,,-220,,,,,SBD,Raw,M,Seniorki,
DQ,Paweł Drzyzga,PK Kraków,81.3,83,180,-195,-195,180,120,125,-130,125,-225,-225,-225,,,SBD,Raw,M,Seniorki,
G,Mateusz Filipek,CH Rzeszów,84,93,140,160,172.5,172.5,115,125,-127.5,125,140,160,175,175,472.5,SBD,Raw,M,Seniorki,
NS,Jakub Rup,KUL Lublin,,83,,,,,,,,,,,,,,SBD,Raw,M,Seniorki,
NS,Marcin Ziółkowski,ANS Konin,,83,,,,,,,,,,,,,,SBD,Raw,M,Seniorki,
NS,Jakub Kostecki,PWSZ Nysa,,83,,,,,,,,,,,,,,SBD,Raw,M,Seniorki,
NS,Piotr Kuzak,ŚUM Katowice,,83,,,,,,,,,,,,,,SBD,Raw,M,Seniorki,
NS,Emilian Narożny,UWM Olsztyn,,83,,,,,,,,,,,,,,SBD,Raw,M,Seniorki,
NS,Mikołaj Faligowski,WAT Warszawa,,83,,,,,,,,,,,,,,SBD,Raw,M,Seniorki,
1,Jakub Brożek,UW Warszawa,151.3,120+,270,282.5,290,290,180,190,-195,190,275,290,300,300,780,SBD,Raw,M,Seniorki,
2,Mateusz Koralewicz,UME Łódź,129.7,120+,235,250,260,260,175,182.5,187.5,187.5,285,300,310,310,757.5,SBD,Raw,M,Seniorki,
3,Dominik Pawelec,UAM Poznań,120.2,120+,252.5,265,275,275,147.5,155,160,160,250,267.5,280,280,715,SBD,Raw,M,Seniorki,
4,Jaromir Wysocki,Collegium Witelona Uczelnia Państwowa w Legnicy,131.3,120+,230,237.5,242.5,242.5,145,150,-155,150,275,290,-295,290,682.5,SBD,Raw,M,Seniorki,
5,Maciej Juchimiuk,UMCS Lublin,145.2,120+,215,230,240,240,150,157.5,-162.5,157.5,255,270,277.5,277.5,675,SBD,Raw,M,Seniorki,
6,Bartłomiej Cieciura,WAT Warszawa,128.6,120+,225,240,250,250,160,170,-175,170,235,250,-255,250,670,SBD,Raw,M,Seniorki,
7,Jacek Kuszmar,ZUT Szczecin,125.5,120+,110,125,140,140,70,-85,-100,70,130,150,170,170,380,SBD,Raw,M,Seniorki,
G,Hubert Adamczyk,WSSP Lublin,94,105,125,137.5,150,150,110,-120,-120,110,180,195,-210,195,455,SBD,Raw,M,Seniorki,
G,Daniel Jurkowski,AGH Kraków,113.2,120,230,245,257.5,257.5,165,172.5,177.5,177.5,260,270,280,280,715,SBD,Raw,M,Seniorki,
G,Wiktor Wróbel,PK Kraków,108.5,120,70,,,70,145,-160,-170,145,75,,,75,290,SBD,Raw,M,Seniorki,
1,Mateusz Winnicki,KPU Krosno,91.3,93,250,260,-270.5,260,155,162.5,-167.5,162.5,270,280,-290,280,702.5,SBD,Raw,M,Seniorki,
2,Nikolas Stylianou,AWF Katowice,92.4,93,245,255,262.5,262.5,130,135,-140,135,275,-285,-285,275,672.5,SBD,Raw,M,Seniorki,
3,Jan Duma,WAT Warszawa,92.8,93,230,240,-250,240,150,155,157.5,157.5,250,262.5,270,270,667.5,SBD,Raw,M,Seniorki,
4,Sebastian Trybuś,WSB Poznań,92.2,93,220,230,,230,150,160,-165,160,250,275,-285,275,665,SBD,Raw,M,Seniorki,
5,Patryk Zaniewski,PW Warszawa,92.5,93,225,-235,235,235,152.5,160,162.5,162.5,250,260,-272.5,260,657.5,SBD,Raw,M,Seniorki,
6,Mateusz Szymański,WAT Warszawa,93,93,235,242.5,-250,242.5,137.5,142.5,-145,142.5,240,250,260,260,645,SBD,Raw,M,Seniorki,
7,Marceli Jerzyński,UAM Poznań,92.7,93,240,250,-257.5,250,142.5,-150,-150,142.5,240,250,-257.5,250,642.5,SBD,Raw,M,Seniorki,
8,Paweł Przybyła,AWF Katowice,90.7,93,220,230,235,235,150,160,-162.5,160,220,230,235,235,630,SBD,Raw,M,Seniorki,
9,Michał Łopata,UW Warszawa,91.1,93,-220,220,-225,220,135,142.5,145,145,-265,265,-272.5,265,630,SBD,Raw,M,Seniorki,
10,Mateusz Gajos,PG Gdańsk,91.3,93,200,-207.5,207.5,207.5,135,142.5,145,145,245,257.5,265,265,617.5,SBD,Raw,M,Seniorki,
11,Paweł Chrzanowski,UŁ Łódź,93,93,220,240,,240,115,125,-130,125,220,250,-252.5,250,615,SBD,Raw,M,Seniorki,
12,Hubert Furmankiewicz,UPr Poznań,92.6,93,210,220,225,225,-142.5,147.5,-155,147.5,210,-230,240,240,612.5,SBD,Raw,M,Seniorki,
13,Mikołaj Tyburcy,AWF Wrocław,92.2,93,212.5,222.5,227.5,227.5,135,142.5,147.5,147.5,220,230,-240,230,605,SBD,Raw,M,Seniorki,
14,Bartłomiej Balawender,WSB Poznań,91.5,93,180,195,210,210,155,-165,165,165,202.5,215,225,225,600,SBD,Raw,M,Seniorki,
15,Rafał Sarnecki,UPr Lublin,92.4,93,195,205,215,215,150,157.5,,157.5,210,225,-242.5,225,597.5,SBD,Raw,M,Seniorki,
16,Marek Kawczyk,UE Katowice,88.3,93,200,210,215,215,150,-160,-160,150,230,-240,-240,230,595,SBD,Raw,M,Seniorki,
17,Ernest Bil,KUL Lublin,90.5,93,215,230,-235,230,140,147.5,-152.5,147.5,215,-222.5,,215,592.5,SBD,Raw,M,Seniorki,
18,Michał Barut,PW Wrocław,92,93,225,232.5,237.5,237.5,115,-120,-120,115,230,240,-250,240,592.5,SBD,Raw,M,Seniorki,
19,Sebastian Szczerba,UAM Poznań,92.4,93,215,-220,,215,135,142.5,-150,142.5,230,-245,,230,587.5,SBD,Raw,M,Seniorki,
20,Mateusz Myśliwiec,PK Kraków,91.2,93,185,200,207.5,207.5,125,132.5,135,135,220,235,-250,235,577.5,SBD,Raw,M,Seniorki,
21,Danny O'Connor,UME Łódź,91.5,93,200,210,225,225,120,-125,125,125,220,225,-230,225,575,SBD,Raw,M,Seniorki,
22,Mateusz Gałuszka,AWF Kraków,85.8,93,205,215,217.5,217.5,130,-135,135,135,195,205,215,215,567.5,SBD,Raw,M,Seniorki,
23,Paweł Gruszecki,UAM Poznań,92.7,93,175,-185,185,185,137.5,142.5,-145,142.5,220,235,-240,235,562.5,SBD,Raw,M,Seniorki,
24,Dawid Sanecki,UMo Gdynia,90.9,93,170,180,-187.5,180,140,145,-150,145,220,230,-240,230,555,SBD,Raw,M,Seniorki,
25,Bartosz Rogal,PK Kraków,91.4,93,190,197.5,205,205,135,-140,-140,135,205,215,-225,215,555,SBD,Raw,M,Seniorki,
26,Sebastian Burczak,PG Gdańsk,92.2,93,175,190,200,200,120,127.5,-135,127.5,195,210,220,220,547.5,SBD,Raw,M,Seniorki,
27,Szymon Pawlak,AWF Poznań,91.7,93,172.5,182.5,190,190,125,130,135,135,197.5,210,220,220,545,SBD,Raw,M,Seniorki,
28,Filip Kowalczewski,PP Poznań,92.5,93,190,202.5,205,205,125,135,-140,135,180,190,202.5,202.5,542.5,SBD,Raw,M,Seniorki,
29,Marcin Wojtasik,PŁ Łódź,91.5,93,190,-200,200,200,120,125,130,130,200,210,-220,210,540,SBD,Raw,M,Seniorki,
30,Ignacy Gramatyka,AGH Kraków,92.9,93,175,185,-192.5,185,120,-127.5,-127.5,120,210,225,235,235,540,SBD,Raw,M,Seniorki,
31,Krystian Sawera,UME Łódź,91,93,180,187.5,-192.5,187.5,122.5,125,-127.5,125,210,217.5,225,225,537.5,SBD,Raw,M,Seniorki,
32,Łukasz Rudziński,UMK Toruń,91.1,93,190,200,210,210,105,110,-117.5,110,190,200,215,215,535,SBD,Raw,M,Seniorki,
33,Łukasz Szulborski,WSR Warszawa,91.5,93,170,180,190,190,135,140,145,145,180,190,200,200,535,SBD,Raw,M,Seniorki,
34,Damian Danowski,UB Białystok,91.6,93,170,185,-200,185,90,-105,110,110,210,230,240,240,535,SBD,Raw,M,Seniorki,
35,Jakub Kobuszewski,UW Warszawa,89.2,93,-197.5,197.5,205,205,112.5,117.5,122.5,122.5,200,-207.5,-207.5,200,527.5,SBD,Raw,M,Seniorki,
36,Patryk Kolan,SGH Warszawa,86.4,93,150,170,-190,170,120,135,-150,135,180,200,215,215,520,SBD,Raw,M,Seniorki,
37,Szymon Zduniak,ANS Piła,88.2,93,180,190,-195,190,115,122.5,130,130,190,200,-205,200,520,SBD,Raw,M,Seniorki,
38,Paweł Królak,UE Katowice,91,93,170,180,-185,180,130,-140,-140,130,200,210,-220,210,520,SBD,Raw,M,Seniorki,
39,Jakub Płowucha,PWSZ Nysa,87.3,93,190,200,-210,200,100,-110,-110,100,215,-225,-225,215,515,SBD,Raw,M,Seniorki,
40,Wojciech Pinkas,AWF Wrocław,91.6,93,175,185,192.5,192.5,105,110,-115,110,197.5,212.5,-220,212.5,515,SBD,Raw,M,Seniorki,
41,Mateusz Gołębiowski,UMo Gdynia,87,93,175,185,-195,185,110,117.5,122.5,122.5,-185,192.5,205,205,512.5,SBD,Raw,M,Seniorki,
42,Piotr Żarkowski,UE Kraków,90.7,93,160,167.5,175,175,100,105,-112.5,105,210,225,-240,225,505,SBD,Raw,M,Seniorki,
43,Paweł Babicz,AWF Kraków,84.3,93,140,150,160,160,105,115,-125,115,180,205,225,225,500,SBD,Raw,M,Seniorki,
44,Dominik Haładus,AWF Katowice,86.5,93,150,160,162.5,162.5,125,130,135,135,185,195,202.5,202.5,500,SBD,Raw,M,Seniorki,
45,Łukasz Szczepocki,PŁ Łódź,89.3,93,165,175,180,180,127.5,135,-140,135,160,175,185,185,500,SBD,Raw,M,Seniorki,
46,Piotr Wilczek,UE Kraków,88.3,93,155,165,175,175,100,105,110,110,-185,195,205,205,490,SBD,Raw,M,Seniorki,
47,Rafał Czarnecki,PL Lublin,92.3,93,160,170,180,180,100,110,-115,110,180,192.5,200,200,490,SBD,Raw,M,Seniorki,
48,Konrad Stanibuła,UPr Lublin,89.4,93,150,160,-170,160,105,110,-115,110,180,200,210,210,480,SBD,Raw,M,Seniorki,
49,Tomasz Kolasiński,AWFiS Gdańsk,86.8,93,150,160,-172.5,160,102.5,110,-115,110,177.5,187.5,200,200,470,SBD,Raw,M,Seniorki,
50,Daniel Kozik,UR Rzeszów,91.3,93,150,160,170,170,110,120,-125,120,170,180,-185,180,470,SBD,Raw,M,Seniorki,
51,Tomasz Szymaniuk,PL Białostocka,92.4,93,-145,145,-155,145,115,-120,-120,115,180,190,200,200,460,SBD,Raw,M,Seniorki,
52,Jakub Orzepowski,UG Gdańsk,91,93,140,145,150,150,120,125,-127.5,125,160,170,180,180,455,SBD,Raw,M,Seniorki,
53,Filip Nowak,UME Lublin,87.6,93,150,157.5,162.5,162.5,92.5,-97.5,-100,92.5,190,-200,-200,190,445,SBD,Raw,M,Seniorki,
54,Jan Kujawa,UE Poznań,87.9,93,-140,140,147.5,147.5,100,105,-110,105,-165,170,180,180,432.5,SBD,Raw,M,Seniorki,
55,Wiktor Taraszkiewicz,PP Poznań,89.7,93,132.5,145,-155,145,95,102.5,-110,102.5,155,170,180,180,427.5,SBD,Raw,M,Seniorki,
56,Tomasz Dorniak,USZ Szczecin,87.5,93,120,135,142.5,142.5,95,102.5,-110,102.5,-155,165,175,175,420,SBD,Raw,M,Seniorki,
57,Konrad Dziedzic,UPr Lublin,90.9,93,125,132.5,-140,132.5,97.5,105,107.5,107.5,150,160,-162.5,160,400,SBD,Raw,M,Seniorki,
58,Dominik Stasiak,ZUT Szczecin,91.5,93,-100,120,150,150,80,-102.5,-105,80,120,155,167.5,167.5,397.5,SBD,Raw,M,Seniorki,
59,Damian Ławrynowicz,USZ Szczecin,92.2,93,115,122.5,-132.5,122.5,92.5,97.5,-102.5,97.5,155,165,177.5,177.5,397.5,SBD,Raw,M,Seniorki,
60,Bartosz Szal,PB Bydgoszcz,89.7,93,90,102.5,110,110,95,100,-105,100,147.5,155,160,160,370,SBD,Raw,M,Seniorki,
61,Jakub Latos,PB Bydgoszcz,91.5,93,115,125,-130,125,85,92.5,-97.5,92.5,130,140,145,145,362.5,SBD,Raw,M,Seniorki,
62,Radosław Kurzątkowski,SGGW Warszawa,90.6,93,120,130,-135,130,47.5,52.5,-57.5,52.5,125,135,140,140,322.5,SBD,Raw,M,Seniorki,
G,Michał Soboń,UPr Poznań,95,105,-140,140,-155,140,150,160,-170,160,160,170,180,180,480,SBD,Raw,M,Seniorki,
G,Michał Pająk,UME Łódź,92.1,93,245,257.5,262.5,262.5,132.5,137.5,-140,137.5,295,-310.5,310.5,310.5,710.5,SBD,Raw,M,Seniorki,
NS,Kuba Kocielski,PO Opole,,93,,,,,,,,,,,,,,SBD,Raw,M,Seniorki,
NS,Kacper Kowalski,UE Poznań,,93,,,,,,,,,,,,,,SBD,Raw,M,Seniorki,
NS,Alan Szulc,PWSZ Nysa,,93,,,,,,,,,,,,,,SBD,Raw,M,Seniorki,
NS,Jakub Zych,UWM Olsztyn,,93,,,,,,,,,,,,,,SBD,Raw,M,Seniorki,
DQ,Andrzej Krawontka,AGH Kraków,86.4,93,235,-245,245,245,-150,-155,-155,,-250,,,,,SBD,Raw,M,Seniorki,
NS,Tomasz Małysz,PL Lublin,,93,,,,,,,,,,,,,,SBD,Raw,M,Seniorki,
NS,Krzysztof Mysiewicz,UWM Olsztyn,,93,,,,,,,,,,,,,,SBD,Raw,M,Seniorki,
NS,Michał Pasiorowski,PW Warszawa,,93,,,,,,,,,,,,,,SBD,Raw,M,Seniorki,
NS,Tymon Białostocki,AWFiS Gdańsk,,93,,,,,,,,,,,,,,SBD,Raw,M,Seniorki,
NS,Rafał Nowicki,PWSZ Nysa,,93,,,,,,,,,,,,,,SBD,Raw,M,Seniorki,
1,Marcin Statkiewicz,PG Gdańsk,104.3,105,260,272.5,280,280,160,167.5,175,175,305,317.5,322,322,777,SBD,Raw,M,Seniorki,
2,Konrad Kościńczyk,PCZ Częstochowa,102.9,105,260,270,-280,270,170,180,-185,180,295,305,315,315,765,SBD,Raw,M,Seniorki,
3,Marcin Bogacki,WAT Warszawa,104.8,105,270,280,-287.5,280,-190,190,-200,190,285,-297.5,-297.5,285,755,SBD,Raw,M,Seniorki,
4,Łukasz Topór,PP Poznań,102.2,105,250,-260,-260,250,180,190,-195,190,260,275,,275,715,SBD,Raw,M,Seniorki,
5,Mateusz Bagiński,UW Wrocław,104.5,105,235,250,262.5,262.5,137.5,-142.5,142.5,142.5,307.5,-322,-322.5,307.5,712.5,SBD,Raw,M,Seniorki,
6,Bartłomiej Bogdewicz,AWF Kraków,103.8,105,255,262.5,267.5,267.5,150,157.5,-162.5,157.5,265,-275,275,275,700,SBD,Raw,M,Seniorki,
7,Adrian Radoliński,PW Wrocław,104.5,105,230,240,250,250,-165,165,-170,165,260,-275,275,275,690,SBD,Raw,M,Seniorki,
8,Mariusz Świderski,UWM Olsztyn,99.2,105,220,232.5,237.5,237.5,145,157.5,162.5,162.5,265,285,-300,285,685,SBD,Raw,M,Seniorki,
9,Paweł Zadrożny,UG Gdańsk,100,105,215,230,240,240,140,150,-155,150,245,265,-275,265,655,SBD,Raw,M,Seniorki,
10,Jakub Pietrzak,WSR Warszawa,103.3,105,225,240,-250,240,130,-137.5,-140,130,260,-275,280,280,650,SBD,Raw,M,Seniorki,
11,Patryk Bartnicki,UAM Poznań,101,105,220,237.5,247.5,247.5,130,135,140,140,237.5,247.5,255,255,642.5,SBD,Raw,M,Seniorki,
12,Jakub Pałachniak,PŚ Gliwice,104,105,240,-255,-255,240,150,157.5,-160,157.5,220,235,242.5,242.5,640,SBD,Raw,M,Seniorki,
13,Miłosz Wróblewski,PG Gdańsk,102.7,105,215,227.5,235,235,130,137.5,-142.5,137.5,245,255,265,265,637.5,SBD,Raw,M,Seniorki,
14,Kamil Rzóska,UWM Olsztyn,103.7,105,235,250,255,255,127.5,132.5,-140,132.5,230,240,245,245,632.5,SBD,Raw,M,Seniorki,
15,Maciej Igras,UME Łódź,100.6,105,190,200,205,205,165,172.5,-177.5,172.5,210,220,232.5,232.5,610,SBD,Raw,M,Seniorki,
16,Mateusz Jankowski,UŚ Katowice,103.7,105,205,215,225,225,150,160,-165,160,220,-240,-240,220,605,SBD,Raw,M,Seniorki,
17,Jakub Mleczko,GWSH Katowice,99,105,195,205,210,210,120,125,127.5,127.5,240,255,262.5,262.5,600,SBD,Raw,M,Seniorki,
18,Jakub Sołoducha,PL Lublin,102.7,105,200,210,215,215,142.5,147.5,150,150,230,-235,-235,230,595,SBD,Raw,M,Seniorki,
19,Dawid Wróbel,PK Kraków,103.2,105,180,200,215,215,125,140,-150,140,195,220,-230,220,575,SBD,Raw,M,Seniorki,
20,Hubert Nowakowski,PP Poznań,98.9,105,190,200,210,210,145,147.5,-150,147.5,190,200,215,215,572.5,SBD,Raw,M,Seniorki,
21,Kamil Kurpanik,PŚ Gliwice,100.3,105,215,225,235,235,117.5,-125,-125,117.5,220,-235,-235,220,572.5,SBD,Raw,M,Seniorki,
22,Hubert Przybył,ANS Piła,93.8,105,-175,175,190,190,130,137.5,-142.5,137.5,210,230,240,240,567.5,SBD,Raw,M,Seniorki,
23,Jakub Szczur,AGH Kraków,103,105,175,190,200,200,-120,120,130,130,200,215,230,230,560,SBD,Raw,M,Seniorki,
24,Maciej Duda,AGH Kraków,103.4,105,195,202.5,-207.5,202.5,-110,115,120,120,200,215,222.5,222.5,545,SBD,Raw,M,Seniorki,
25,Michał Płachta,PO Opole,97.2,105,180,190,200,200,120,125,132.5,132.5,190,200,207.5,207.5,540,SBD,Raw,M,Seniorki,
26,Szymon Łysik,UJ Kraków,104,105,185,197.5,205,205,107.5,115,120,120,190,205,215,215,540,SBD,Raw,M,Seniorki,
27,Bartosz Lubczyński,PP Poznań,97,105,160,170,180,180,120,127.5,-130,127.5,205,215,222.5,222.5,530,SBD,Raw,M,Seniorki,
28,Rafał Monasterski,ZUT Szczecin,98,105,170,-190,-200,170,112.5,117.5,-122.5,117.5,-235,-235,235,235,522.5,SBD,Raw,M,Seniorki,
29,Filip Kulesza,WSEiT Poznań,99,105,185,190,195,195,115,122.5,-127.5,122.5,190,200,-207.5,200,517.5,SBD,Raw,M,Seniorki,
30,Paweł Regiewicz,UŚ Katowice,104.9,105,182.5,192.5,-200,192.5,102.5,-107.5,-107.5,102.5,220,-230,-230,220,515,SBD,Raw,M,Seniorki,
31,Jakub Malczewski,UMo Gdynia,97.9,105,160,170,-180,170,110,117.5,-120,117.5,205,225,-242.5,225,512.5,SBD,Raw,M,Seniorki,
32,Jakub Wieczorek,USZ Szczecin,98,105,175,185,-195,185,95,102.5,-107.5,102.5,215,225,-235,225,512.5,SBD,Raw,M,Seniorki,
33,Krzysztof Kawa,UME Lublin,101.5,105,200,-210,-210,200,110,115,-120,115,185,195,-202.5,195,510,SBD,Raw,M,Seniorki,
34,Kamil Cichoń,AGH Kraków,98.2,105,145,157.5,172.5,172.5,130,-140,-140,130,170,195,-205,195,497.5,SBD,Raw,M,Seniorki,
35,Adrian Mianowski,SGGW Warszawa,98.8,105,140,160,170,170,110,120,-125,120,180,-200,202.5,202.5,492.5,SBD,Raw,M,Seniorki,
36,Mikołaj Paziewski,UE Poznań,97.4,105,-160,160,165,165,110,115,120,120,180,195,205,205,490,SBD,Raw,M,Seniorki,
37,Dawid Gierczak,ŚUM Katowice,98.7,105,160,172.5,-180,172.5,100,107.5,-112.5,107.5,170,190,205,205,485,SBD,Raw,M,Seniorki,
38,Grzegorz Jóźwiak,PŁ Łódź,103.3,105,160,175,-185,175,115,120,-125,120,190,-205,-205,190,485,SBD,Raw,M,Seniorki,
39,Bartosz Kłonowski,PO Opole,100.1,105,150,160,-170,160,110,115,-117.5,115,190,200,-210,200,475,SBD,Raw,M,Seniorki,
40,Kacper Mazurkiewicz,UR Rzeszów,104.2,105,155,-165,165,165,-100,100,-105,100,190,200,210,210,475,SBD,Raw,M,Seniorki,
41,Konrad Kubiński,UMK Toruń,103.4,105,-180,-180,180,180,-110,110,-125,110,160,170,,170,460,SBD,Raw,M,Seniorki,
42,Tomasz Bielak,UPr Lublin,94.1,105,120,140,-160,140,90,100,-105,100,160,180,190,190,430,SBD,Raw,M,Seniorki,
43,Marcin Plichta,PŁ Łódź,102.6,105,120,130,140,140,100,110,-115,110,160,170,180,180,430,SBD,Raw,M,Seniorki,
44,Mateusz Mazurek,UPr Lublin,94.1,105,110,120,130,130,100,110,-115,110,130,140,150,150,390,SBD,Raw,M,Seniorki,
45,Piotr Kowalczyk,UE Poznań,98.6,105,100,110,115,115,80,-100,100,100,120,140,150,150,365,SBD,Raw,M,Seniorki,
NS,Jakub Jarczyk,UE Katowice,,105,,,,,,,,,,,,,,SBD,Raw,M,Seniorki,
NS,Wiktor Drygała,ANS Konin,,105,,,,,,,,,,,,,,SBD,Raw,M,Seniorki,
DQ,Nikodem Selech,UE Poznań,96,105,100,-120,130,130,-95,-95,-95,,150,-160,-160,150,,SBD,Raw,M,Seniorki,
DQ,Bazyli Kicia,UME Łódź,99.4,105,170,190,205,205,-150,-150,-150,,230,250,-265,250,,SBD,Raw,M,Seniorki,
DQ,Bartłomiej Cieplik,AWF Wrocław,97.3,105,200,210,220,220,-127.5,-127.5,-127.5,,215,230,-245,230,,SBD,Raw,M,Seniorki,
NS,Kamil Petkowski,PG Gdańsk,,105,,,,,,,,,,,,,,SBD,Raw,M,Seniorki,
1,Jędrzej Żukowski,UME Łódź,118.9,120,300,315,-325,315,175,180,185,185,310,320,331.5,331.5,831.5,SBD,Raw,M,Seniorki,
2,Piotr Konkol,PG Gdańsk,117.6,120,270,-280,,270,190,195,,195,315,331,-346,331,796,SBD,Raw,M,Seniorki,
3,Mateusz Kumański,UJK Kielce,116,120,250,262.5,267.5,267.5,155,162.5,170,170,245,260,267.5,267.5,705,SBD,Raw,M,Seniorki,
4,Kacper Pawlak,WSB Wrocław,113.5,120,230,240,250,250,130,140,145,145,265,285,307.5,307.5,702.5,SBD,Raw,M,Seniorki,
5,Tomasz Kolbusz,AGH Kraków,109.8,120,235,245,250,250,155,162.5,-165,162.5,270,287.5,-302.5,287.5,700,SBD,Raw,M,Seniorki,
6,Kacper Śpiewak,PW Warszawa,114.3,120,230,240,250,250,147.5,155,160,160,260,275,-295,275,685,SBD,Raw,M,Seniorki,
7,Michał Moliński,AWF Wrocław,111.4,120,230,240,245,245,-175,175,-180,175,235,-250,250,250,670,SBD,Raw,M,Seniorki,
8,Krzysztof Stangret,WAT Warszawa,116.2,120,235,250,255,255,-162.5,-162.5,162.5,162.5,250,-265,-265,250,667.5,SBD,Raw,M,Seniorki,
9,Gracjan Sobiesiak,PW Wrocław,111.2,120,240,250,257.5,257.5,145,-150,150,150,242.5,252.5,-260,252.5,660,SBD,Raw,M,Seniorki,
10,Szymon Kozłowski,WSB Poznań,114.9,120,230,245,252.5,252.5,135,145,152.5,152.5,230,250,-260,250,655,SBD,Raw,M,Seniorki,
11,Jakub Spendel,PŚ Gliwice,116.5,120,220,232.5,-245,232.5,160,165,170,170,220,230,240,240,642.5,SBD,Raw,M,Seniorki,
12,Filip Kuczma,UE Kraków,115.4,120,227.5,237.5,-242.5,237.5,160,-167.5,167.5,167.5,230,-240,-240,230,635,SBD,Raw,M,Seniorki,
13,Jan Szopa,UG Gdańsk,111.2,120,-205,215,-225,215,-147.5,150,-152.5,150,260,-270,-270,260,625,SBD,Raw,M,Seniorki,
14,Filip Potoczny,PŚ Gliwice,118.1,120,215,225,230,230,147.5,155,-160,155,-227.5,235,-242.5,235,620,SBD,Raw,M,Seniorki,
15,Przemysław Ziemiakowski,PŁ Łódź,118.5,120,205,220,235,235,132.5,-142.5,145,145,210,230,-242.5,230,610,SBD,Raw,M,Seniorki,
16,Piotr Kotyla,UR Rzeszów,113.4,120,165,180,185,185,130,140,145,145,220,230,240,240,570,SBD,Raw,M,Seniorki,
17,Hubert Kuczyński,SGGW Warszawa,117.2,120,-185,-185,185,185,130,135,-137.5,135,200,215,-225,215,535,SBD,Raw,M,Seniorki,
18,Jakub Jajonek,UŚ Katowice,111.4,120,190,200,205,205,105,110,-115,110,190,200,210,210,525,SBD,Raw,M,Seniorki,
19,Igor Kapiczyński,SGH Warszawa,117.2,120,165,175,180,180,95,105,107.5,107.5,190,205,212.5,212.5,500,SBD,Raw,M,Seniorki,
20,Jakub Węcławik,SGGW Warszawa,107.3,120,-145,145,150,150,115,120,-122.5,120,175,180,190,190,460,SBD,Raw,M,Seniorki,
21,Dominik Szpilski,AHE Łódź,116.5,120,110,117.5,-125,117.5,57.5,65,-70,65,110,120,130,130,312.5,SBD,Raw,M,Seniorki,
NS,Mateusz Aliński,PŁ Łódź,,120,,,,,,,,,,,,,,SBD,Raw,M,Seniorki,
DQ,Dominik Sawiak,PL Lublin,111,120,170,190,-220,190,-130,-130,-130,,-200,-200,,,,SBD,Raw,M,Seniorki,
NS,Dominik Pałatyński,PP Poznań,,120,,,,,,,,,,,,,,SBD,Raw,M,Seniorki,
