Division,WeightClassKg,Place,Name,Team,BodyweightKg,Best3SquatKg,Best3BenchKg,Best3DeadliftKg,TotalKg,Equipment,Event,Sex,BirthDate
Boys,51.71,1,Mario Guajardo,Wills Point,51.71,83.91,56.7,95.25,235.87,Single-ply,SBD,M,
Boys,55.79,1,Ryan Widemon,Quitman,55.7,142.88,68.04,136.08,347,Single-ply,SBD,M,
Boys,55.79,2,Braden Goss,Hawkins,55.34,74.84,54.43,102.06,231.33,Single-ply,SBD,M,
Boys,59.87,1,Randall Phillips,Hawkins,58.51,90.72,45.36,129.27,265.35,Single-ply,SBD,M,
Boys,59.87,2,Jack Davis,Hawkins,59.42,92.99,56.7,104.33,254.01,Single-ply,SBD,M,
Boys,59.87,3,River Hammonds,Hawkins,57.61,74.84,56.7,97.52,229.06,Single-ply,SBD,M,
Boys,59.87,DQ,Zander Gonyea,Quitman,59.06,,,,,Single-ply,SBD,M,
Boys,59.87,DQ,Cain Ingram,Quitman,59.56,,,,,Single-ply,SBD,M,
Boys,67.13,1,Blaine Cornelius,Harleton,67.13,163.29,86.18,167.83,417.3,Single-ply,SBD,M,
Boys,67.13,2,Gage Shirts,Harleton,66.13,158.76,95.25,161.03,415.04,Single-ply,SBD,M,
Boys,67.13,3,Sam Lewis,Hawkins,65.32,142.88,111.13,156.49,410.5,Single-ply,SBD,M,
Boys,67.13,4,Kevin Fortner,Quitman,67.13,163.29,95.25,142.88,401.43,Single-ply,SBD,M,
Boys,67.13,5,Aj Woods,Harleton,64.86,145.15,72.57,163.29,381.02,Single-ply,SBD,M,
Boys,67.13,6,Jaxton Welch,Harleton,63.68,147.42,88.45,136.08,371.95,Single-ply,SBD,M,
Boys,74.84,1,Wyatt Hightower,Quitman,74.39,208.65,138.35,181.44,528.44,Single-ply,SBD,M,
Boys,74.84,2,Nick Paschall,Harleton,70.03,158.76,97.52,181.44,437.72,Single-ply,SBD,M,
Boys,74.84,3,Zander Stroman,Harleton,71.85,167.83,113.4,151.95,433.18,Single-ply,SBD,M,
Boys,74.84,4,Zane Stroman,Harleton,71.3,149.69,99.79,161.03,410.5,Single-ply,SBD,M,
Boys,74.84,5,Julian Frasier,Hawkins,74.84,147.42,111.13,136.08,394.63,Single-ply,SBD,M,
Boys,74.84,6,Binfet Tayton,Harleton,73.39,142.88,88.45,156.49,387.82,Single-ply,SBD,M,
Boys,74.84,7,Tyler Lowe,Harleton,69.67,142.88,72.57,142.88,358.34,Single-ply,SBD,M,
Boys,74.84,8,Doyle Pierce,Harleton,70.49,138.35,72.57,138.35,349.27,Single-ply,SBD,M,
Boys,74.84,9,Josiah Welch,Hawkins,70.76,133.81,63.5,147.42,344.73,Single-ply,SBD,M,
Boys,74.84,10,Brenden Elkins,Hawkins,72.57,113.4,81.65,142.88,337.93,Single-ply,SBD,M,
Boys,74.84,11,Peyton McQueen,Hawkins,70.76,97.52,68.04,136.08,301.64,Single-ply,SBD,M,
Boys,74.84,12,Tyler Maberry,Hawkins,70.76,92.99,56.7,115.67,265.35,Single-ply,SBD,M,
Boys,74.84,DQ,Brenden Brown,Hawkins,70.31,,,,,Single-ply,SBD,M,
Boys,82.1,1,Cameron Johnson,Harleton,76.66,174.63,97.52,181.44,453.59,Single-ply,SBD,M,
Boys,82.1,2,Hunter Shirts,Harleton,81.92,170.1,97.52,174.63,442.25,Single-ply,SBD,M,
Boys,82.1,3,Brenden Scott,Harleton,74.93,154.22,90.72,165.56,410.5,Single-ply,SBD,M,
Boys,82.1,4,Jake Samples,Wills Point,82.1,138.35,104.33,149.69,392.36,Single-ply,SBD,M,
Boys,82.1,5,James Murray,Hawkins,76.66,122.47,86.18,158.76,367.41,Single-ply,SBD,M,
Boys,82.1,6,Juan Juarez,Hawkins,78.47,129.27,88.45,147.42,365.14,Single-ply,SBD,M,
Boys,82.1,7,Jaxon Despain,Hawkins,75.75,111.13,65.77,142.88,319.78,Single-ply,SBD,M,
Boys,82.1,8,Miguel Acatitlan,Hawkins,80.74,113.4,58.97,122.47,294.84,Single-ply,SBD,M,
Boys,82.1,9,Cort Gambino,Hawkins,78.02,108.86,61.23,122.47,292.57,Single-ply,SBD,M,
Boys,82.1,10,Adam Stotts,Hawkins,78.02,79.38,61.23,136.08,276.69,Single-ply,SBD,M,
Boys,82.1,DQ,Kaleb Ard,Hawkins,82.1,,,,,Single-ply,SBD,M,
Boys,89.81,1,Carter Bibb,Harleton,87.36,172.37,95.25,204.12,471.74,Single-ply,SBD,M,
Boys,89.81,2,Luke Ratcliff,Harleton,89.18,149.69,111.13,156.49,417.3,Single-ply,SBD,M,
Boys,89.81,3,Edwin Torres,Hawkins,84.82,142.88,92.99,158.76,394.63,Single-ply,SBD,M,
Boys,89.81,4,Cade Canfield,Harleton,86,149.69,90.72,142.88,383.29,Single-ply,SBD,M,
Boys,89.81,5,Bryce Lockhart,Harleton,89.09,149.69,65.77,142.88,358.34,Single-ply,SBD,M,
Boys,89.81,6,Juan Cruz,Wills Point,89.81,113.4,74.84,99.79,288.03,Single-ply,SBD,M,
Boys,89.81,DQ,Troy Connally,Hawkins,86.64,,,,,Single-ply,SBD,M,
Boys,99.79,1,Taber Childs,Harleton,91.63,226.8,136.08,226.8,589.67,Single-ply,SBD,M,
Boys,99.79,2,Coleman Tapia,Hawkins,94.35,188.24,129.27,181.44,498.95,Single-ply,SBD,M,
Boys,99.79,3,Michael Hipp,Quitman,93.17,183.7,90.72,167.83,442.25,Single-ply,SBD,M,
Boys,99.79,4,Braden Adams,Hawkins,95.25,102.06,127.01,102.06,331.12,Single-ply,SBD,M,
Boys,99.79,5,Jason Stanley,Quitman,97.52,129.27,70.31,122.47,322.05,Single-ply,SBD,M,
Boys,99.79,6,Isley Jackson,Hawkins,99.34,106.59,74.84,115.67,297.1,Single-ply,SBD,M,
Boys,99.79,7,Bryson Hill,Hawkins,92.99,113.4,,117.93,231.33,Single-ply,SD,M,
Boys,109.77,1,Jayden Johnson,Harleton,108.41,213.19,111.13,208.65,532.97,Single-ply,SBD,M,
Boys,109.77,2,Lane Woods,Harleton,109.77,217.72,106.59,197.31,521.63,Single-ply,SBD,M,
Boys,109.77,3,Kyle Wright,Harleton,108.95,181.44,92.99,172.37,446.79,Single-ply,SBD,M,
Boys,109.77,4,Cameron Johnson,Hawkins,107.05,149.69,104.33,122.47,376.48,Single-ply,SBD,M,
Boys,124.74,1,Peyton Murray,Harleton,111.67,181.44,102.06,183.7,467.2,Single-ply,SBD,M,
Boys,124.74,DQ,Michael Wick,Hawkins,114.31,,,,,Single-ply,SBD,M,
Boys,139.71,1,John Hester,Hawkins,127.46,204.12,161.03,229.06,594.21,Single-ply,SBD,M,
Boys,139.71,2,Kadarius Roberson,Hawkins,126.1,181.44,106.59,172.37,460.4,Single-ply,SBD,M,
Boys,139.71,3,John Gideon,Harleton,129.55,158.76,90.72,147.42,396.89,Single-ply,SBD,M,
Boys,139.71,4,Adrian Jackson,Hawkins,133.81,124.74,83.91,147.42,356.07,Single-ply,SBD,M,
Boys,139.71,5,Colton Fugler,Harleton,126.1,140.61,63.5,115.67,319.78,Single-ply,SBD,M,
Boys,139.71+,1,Max Ramirez,Harleton,145.15,174.63,115.67,190.51,480.81,Single-ply,SBD,M,
