Division,WeightClassKg,Place,Name,Team,BodyweightKg,Best3SquatKg,Best3BenchKg,Best3DeadliftKg,TotalKg,Equipment,Event,Sex,BirthDate
Boys,51.71,1,Justin Chapa,Edinburg Vela,48.94,142.88,111.13,136.08,390.09,Single-ply,SBD,M,
Boys,51.71,2,Juan Pena,Edinburg Economedes,50.12,115.67,77.11,133.81,326.59,Single-ply,SBD,M,
Boys,51.71,3,Caleb Moreno,La Joya Juarez-Lincoln,47.63,117.93,72.57,129.27,319.78,Single-ply,SBD,M,
Boys,51.71,4,Joe Cruz,Edinburg North,51.26,104.33,70.31,142.88,317.51,Single-ply,SBD,M,
Boys,51.71,5,Daniel Limon,La Joya Juarez-Lincoln,50.8,104.33,61.23,127.01,292.57,Single-ply,SBD,M,
Boys,51.71,6,Jon Vasquez,Edinburg,50.17,113.4,61.23,115.67,290.3,Single-ply,SBD,M,
Boys,51.71,7,Ace Reyna,La Joya,50.12,90.72,61.23,102.06,254.01,Single-ply,SBD,M,
Boys,51.71,DQ,Norbert Garza,La Joya,51.71,102.06,63.5,,,Single-ply,SBD,M,
Boys,55.79,1,Rey Lopez,Edinburg,55.25,115.67,79.38,158.76,353.8,Single-ply,SBD,M,
Boys,55.79,2,Ivan Hernandez,PSJA,54.48,136.08,77.11,133.81,347,Single-ply,SBD,M,
Boys,55.79,3,Jaime Salinas,Edinburg North,54.88,108.86,74.84,129.27,312.98,Single-ply,SBD,M,
Boys,55.79,4,Justin Acosta,Edinburg North,55.34,102.06,61.23,138.35,301.64,Single-ply,SBD,M,
Boys,55.79,5,Gabriel Ozuna,Edinburg Vela,52.25,102.06,61.23,120.2,283.5,Single-ply,SBD,M,
Boys,55.79,6,Rosbel Vera,Mission,55.34,97.52,74.84,102.06,274.42,Single-ply,SBD,M,
Boys,59.87,1,Jacob Solis,PSJA,56.88,181.44,106.59,176.9,464.93,Single-ply,SBD,M,
Boys,59.87,2,Rivers Martinez,Edinburg,59.87,161.03,115.67,165.56,442.25,Single-ply,SBD,M,
Boys,59.87,3,Sean Carpenter,Edinburg North,59.87,127.01,97.52,149.69,374.21,Single-ply,SBD,M,
Boys,59.87,4,Emilio Cantu,La Joya,57.42,142.88,79.38,142.88,365.14,Single-ply,SBD,M,
Boys,59.87,5,Roland Saenz,Edinburg,59.87,138.35,90.72,133.81,362.87,Single-ply,SBD,M,
Boys,59.87,6,Santos Castellanos,Mission,58.15,115.67,74.84,147.42,337.93,Single-ply,SBD,M,
Boys,59.87,7,Marquez Aleman,Edinburg Vela,58.83,127.01,79.38,127.01,333.39,Single-ply,SBD,M,
Boys,67.13,1,Tyler Rosales,PSJA North,66.81,213.19,138.35,226.8,578.33,Single-ply,SBD,M,
Boys,67.13,2,Nick Moreno,La Joya Juarez-Lincoln,67.13,231.33,129.27,210.92,571.53,Single-ply,SBD,M,
Boys,67.13,3,Christian Gomez,Edinburg North,64.5,170.1,111.13,195.04,476.27,Single-ply,SBD,M,
Boys,67.13,4,Senon Moya,Edinburg Economedes,65.77,151.95,99.79,188.24,439.98,Single-ply,SBD,M,
Boys,67.13,5,Jimmy Quintero,Mission,66.59,158.76,113.4,167.83,439.98,Single-ply,SBD,M,
Boys,67.13,6,Jose Williams,La Joya Juarez-Lincoln,63.96,151.95,97.52,174.63,424.11,Single-ply,SBD,M,
Boys,67.13,7,Carlos Roriguez,La Joya,64.41,154.22,102.06,165.56,421.84,Single-ply,SBD,M,
Boys,67.13,8,Anthony Martinez #26,Edinburg North,65.77,149.69,92.99,165.56,408.23,Single-ply,SBD,M,
Boys,67.13,9,Juan Hernandez,La Joya,66.68,136.08,88.45,156.49,381.02,Single-ply,SBD,M,
Boys,67.13,10,Eliud Padilla,La Joya Juarez-Lincoln,60.78,131.54,68.04,142.88,342.46,Single-ply,SBD,M,
Boys,67.13,DQ,Kyle Yanez,Edinburg Vela,66.95,201.85,117.93,,,Single-ply,SBD,M,
Boys,67.13,DQ,Elias Perez,Edinburg,65.68,183.7,,,,Single-ply,SBD,M,
Boys,74.84,1,Ramiro Yanez,PSJA,74.39,254.01,140.61,265.35,659.98,Single-ply,SBD,M,
Boys,74.84,2,Allan Benavides,Edinburg North,74.39,258.55,145.15,235.87,639.57,Single-ply,SBD,M,
Boys,74.84,3,Luis Sanchez,PSJA North,72.67,210.92,138.35,226.8,576.06,Single-ply,SBD,M,
Boys,74.84,4,Jonah Villareal,Edinburg Vela,74.39,219.99,131.54,224.53,576.06,Single-ply,SBD,M,
Boys,74.84,5,Edgar Duran,PSJA North,74.12,219.99,131.54,201.85,553.38,Single-ply,SBD,M,
Boys,74.84,6,Oziel Silva,Edinburg North,74.84,163.29,108.86,183.7,455.86,Single-ply,SBD,M,
Boys,74.84,7,Damian Villalpando,La Joya Juarez-Lincoln,67.63,138.35,102.06,149.69,390.09,Single-ply,SBD,M,
Boys,82.1,1,Jael Bernal,PSJA,79.83,267.62,149.69,249.48,666.78,Single-ply,SBD,M,
Boys,82.1,2,Juan Saenz,Edinburg North,79.61,240.4,179.17,235.87,655.44,Single-ply,SBD,M,
Boys,82.1,3,Devin Aguilar,Edinburg North,75.3,226.8,156.49,235.87,619.15,Single-ply,SBD,M,
Boys,82.1,4,Fidencio Ortega,La Joya Juarez-Lincoln,81.19,251.74,149.69,206.38,607.81,Single-ply,SBD,M,
Boys,82.1,5,Othon Elizondo,Edinburg Economedes,81.33,229.06,124.74,231.33,585.13,Single-ply,SBD,M,
Boys,82.1,6,Jonathan Maldonado,Edinburg,81.1,231.33,156.49,195.04,582.87,Single-ply,SBD,M,
Boys,82.1,7,Ethan Soto,PSJA North,78.15,210.92,129.27,215.46,555.65,Single-ply,SBD,M,
Boys,82.1,8,Jordan Ayala,Edinburg,82.05,195.04,142.88,201.85,539.77,Single-ply,SBD,M,
Boys,82.1,9,Josue Gomez,Mission,77.38,201.85,122.47,199.58,523.9,Single-ply,SBD,M,
Boys,82.1,10,Miguel Rodriguez,Edinburg Economedes,79.11,183.7,127.01,208.65,519.36,Single-ply,SBD,M,
Boys,82.1,11,Fernando Guzman,Edinburg Vela,76.66,190.51,127.01,190.51,508.02,Single-ply,SBD,M,
Boys,82.1,12,Justin Ledesma,PSJA North,77.2,195.04,133.81,174.63,503.49,Single-ply,SBD,M,
Boys,82.1,13,Mario Lozano,La Joya,82.1,136.08,79.38,158.76,374.21,Single-ply,SBD,M,
Boys,82.1,14,Francisco Alaniz,La Joya,75.75,127.01,81.65,131.54,340.19,Single-ply,SBD,M,
Boys,89.81,1,Bobby Flores,Edinburg,88.72,260.82,158.76,249.48,669.05,Single-ply,SBD,M,
Boys,89.81,2,Zeek Cuadors,Mission,88,265.35,145.15,229.06,639.57,Single-ply,SBD,M,
Boys,89.81,3,John Vasquez,Edinburg Vela,85.77,233.6,142.88,242.67,619.15,Single-ply,SBD,M,
Boys,89.81,4,Darwinn Rodriguez,Edinburg Economedes,89.09,208.65,145.15,206.38,560.19,Single-ply,SBD,M,
Boys,89.81,5,Jonathan Rocha,Mission,83.6,195.04,133.81,197.31,526.17,Single-ply,SBD,M,
Boys,89.81,6,Jesus Gonzalez,La Joya,89.81,192.78,129.27,190.51,512.56,Single-ply,SBD,M,
Boys,89.81,7,Nathan Ledesma,PSJA North,84.55,201.85,142.88,165.56,510.29,Single-ply,SBD,M,
Boys,89.81,8,Eluid Serna,PSJA,86.27,183.7,127.01,188.24,498.95,Single-ply,SBD,M,
Boys,89.81,9,Victor Hernandez,La Joya Juarez-Lincoln,88.09,161.03,102.06,158.76,421.84,Single-ply,SBD,M,
Boys,99.79,1,Christian Hernandez,Mission,98.88,306.17,163.29,258.55,728.02,Single-ply,SBD,M,
Boys,99.79,2,Marco Sanchez,Edinburg Vela,91.17,229.06,154.22,215.46,598.74,Single-ply,SBD,M,
Boys,99.79,3,Isaac Sanchez,PSJA,97.07,226.8,167.83,204.12,598.74,Single-ply,SBD,M,
Boys,99.79,4,Manuel Reyna,Edinburg Economedes,97.98,240.4,129.27,215.46,585.13,Single-ply,SBD,M,
Boys,99.79,5,Ariel Segura,Edinburg,95.98,213.19,142.88,183.7,539.77,Single-ply,SBD,M,
Boys,99.79,6,Rene Garcia,La Joya Juarez-Lincoln,97.98,206.38,124.74,192.78,523.9,Single-ply,SBD,M,
Boys,99.79,7,Tomas Mendez,PSJA North,92.26,188.24,131.54,165.56,485.34,Single-ply,SBD,M,
Boys,99.79,DQ,Yael Herrera,Edinburg,95.25,,,,,Single-ply,SBD,M,
Boys,109.77,1,Joseph Guerra,Edinburg Economedes,106.14,254.01,163.29,249.48,666.78,Single-ply,SBD,M,
Boys,109.77,2,Adaen Sanchez,PSJA North,104.96,276.69,151.95,210.92,639.57,Single-ply,SBD,M,
Boys,109.77,3,Branden Ochoa,PSJA,107.14,238.14,149.69,192.78,580.6,Single-ply,SBD,M,
Boys,109.77,4,Tristan Pena,Edinburg Vela,104.42,217.72,127.01,201.85,546.58,Single-ply,SBD,M,
Boys,109.77,5,Ashton Guzman,Mission,105.23,204.12,131.54,201.85,537.51,Single-ply,SBD,M,
Boys,109.77,6,Luis Rodriguez,Mission,106.68,163.29,102.06,174.63,439.98,Single-ply,SBD,M,
Boys,109.77,7,Antonio Zuniga,La Joya,101.74,181.44,81.65,174.63,437.72,Single-ply,SBD,M,
Boys,124.74,1,Dante Ramones,Edinburg North,122.47,297.1,183.7,256.28,737.09,Single-ply,SBD,M,
Boys,124.74,2,Anthony Garcia,PSJA North,121.38,317.51,181.44,226.8,725.75,Single-ply,SBD,M,
Boys,124.74,3,Omar Garcia,La Joya Juarez-Lincoln,120.2,229.06,156.49,235.87,621.42,Single-ply,SBD,M,
Boys,124.74,4,Vicente Meza,Edinburg Vela,113.31,215.46,167.83,210.92,594.21,Single-ply,SBD,M,
Boys,124.74,5,Lupe Medrano,PSJA,122.97,238.14,154.22,181.44,573.79,Single-ply,SBD,M,
Boys,124.74,6,Sergio Avitua,PSJA,121.7,226.8,129.27,204.12,560.19,Single-ply,SBD,M,
Boys,124.74,7,Jonathan Solis,Edinburg Economedes,112.04,204.12,142.88,190.51,537.51,Single-ply,SBD,M,
Boys,124.74,8,Alejandro Roman,Edinburg North,124.42,156.49,115.67,176.9,449.06,Single-ply,SBD,M,
Boys,124.74,9,Jose Portales,La Joya,124.69,195.04,95.25,147.42,437.72,Single-ply,SBD,M,
Boys,124.74,DQ,Mark Abila,Mission,115.35,244.94,,,,Single-ply,SBD,M,
Boys,124.74,DQ,Ezekiel Coronado,La Joya,114.71,247.21,136.08,,,Single-ply,SBD,M,
Boys,139.71,1,Abisai Tijerina,Edinburg Economedes,133.13,294.84,145.15,254.01,694,Single-ply,SBD,M,
Boys,139.71,2,Marco Gamez,Edinburg Vela,137.48,267.62,183.7,240.4,691.73,Single-ply,SBD,M,
Boys,139.71,3,Amadeo Sanchez,Edinburg,129.27,272.16,192.78,208.65,673.58,Single-ply,SBD,M,
Boys,139.71,4,Salvador Sanchez,PSJA North,126.1,249.48,151.95,192.78,594.21,Single-ply,SBD,M,
Boys,139.71,5,Jakob de la Rosa,Edinburg Economedes,133.27,226.8,158.76,192.78,578.33,Single-ply,SBD,M,
Boys,139.71,6,Michael Garza,Mission,132.59,170.1,113.4,192.78,476.27,Single-ply,SBD,M,
Boys,139.71,DQ,Marcus Hernandez,PSJA North,128.55,,,,,Single-ply,SBD,M,
Boys,139.71+,1,Preston Alvarado,Edinburg Economedes,142.43,272.16,183.7,222.26,678.12,Single-ply,SBD,M,
Boys,139.71+,2,Pedro Martinez,Edinburg Economedes,149.23,272.16,138.35,242.67,653.17,Single-ply,SBD,M,
Boys,139.71+,3,Michael Drexler,Edinburg,140.16,222.26,122.47,172.37,517.1,Single-ply,SBD,M,
Boys,139.71+,4,Jordan Brewster,PSJA North,140.7,222.26,108.86,174.63,505.76,Single-ply,SBD,M,
Boys,139.71+,5,Marco Diaz,Edinburg Vela,219.54,142.88,102.06,142.88,387.82,Single-ply,SBD,M,
Boys,139.71+,6,Alexander Sosa,La Joya,150.14,111.13,70.31,154.22,335.66,Single-ply,SBD,M,
Boys,,NS,Alex Tovar,La Joya Juarez-Lincoln,,,,,,Single-ply,SBD,M,
