Name,Country,Age,Sex,Equipment,Division,BodyweightKg,WeightClassKg,Squat1Kg,Squat2Kg,Squat3Kg,Squat4Kg,Best3SquatKg,Bench1Kg,Bench2Kg,Bench3Kg,Bench4Kg,Best3BenchKg,Deadlift1Kg,Deadlift2Kg,Deadlift3Kg,Deadlift4Kg,Best3DeadliftKg,TotalKg,Place,Event
Aaron Hayes,,21,M,Wraps,M_JCR_WPC,147,140+,300,307.5,312.5,-320,312.5,155,162.5,167.5,,167.5,270,285,-290,,285,765,1,SBD
Andrew Cairney,,38,M,Single-ply,M_OES_WPC,127,140,390,400,410,,410,-270,-280,-280,,,330,340,,,340,,DQ,SBD
Anthony Cooper #1,UK,23,M,Wraps,M_JCR_WPC,108.8,110,320,332.5,342.5,,342.5,-220,231,-235,,231,295,305,-312.5,,305,878.5,1,SBD
Austin Hickey,,37,M,Wraps,M_OCR_WPC,99.2,100,250,272.5,,,272.5,175,180,186,,186,240,260,275,,275,733.5,2,SBD
Bob Kiely,,34,M,Multi-ply,M_OEM_WPC,139,140,-385,-395,-410,,,240,275,-300,,275,250,285,-300,,285,,DQ,SBD
Catherine Croydon,UK,27,F,Wraps,F_OCR_WPC,79.2,82.5,165,-175,-175,,165,110,-115,117.5,,117.5,165,-175,-175,,165,447.5,2,SBD
Chris Pugh #1,UK,24,M,Wraps,M_OCR_WPC,86.4,90,-295,307.5,-317.5,,307.5,185,192.5,-195,,192.5,272.5,282.5,-290,,282.5,782.5,2,SBD
Dan Stewart,UK,24,M,Wraps,M_OCR_WPC,118.2,125,-380,-380,400,,400,210,220,225,,225,275,300,317.5,,317.5,942.5,2,SBD
David Wilson #1,,19,M,Wraps,M_TCR_3_WPC,89.6,90,270,280,,,280,180,-190,-190,,180,210,217.5,-222.5,,217.5,677.5,1,SBD
Dayle Longford,UK,29,M,Wraps,M_OCR_WPC,89.4,90,285,-305,-305,,285,190,200,-205,,200,310,326,-336,,326,811,1,SBD
Deanna Hughes,,24,F,Wraps,F_OCR_WPC,79.6,82.5,155,170,-180,,170,112.5,120,-125,,120,197.5,207.5,-212.5,,207.5,497.5,1,SBD
Eduard Khanjyan,,32,M,Wraps,M_OCR_WPC,110,110,-390,-410,-410,,,,,,,,,,,,,,DQ,SBD
Eliot Page,UK,25,M,Wraps,M_OCR_WPC,105.4,110,310,330,340,,340,160,-170,-170,,160,320,335,-342.5,,335,835,2,SBD
Emma Rogan,,32,F,Wraps,F_OCR_WPC,59.6,60,-150,150,-160,,150,80,82.5,-85,,82.5,170,-175,-175,,170,402.5,1,SBD
Filippo Ingrosso,,32,M,Wraps,M_OCR_WPC,108.2,110,-335,335,350,,350,200,-205,,,200,-320,330,-350,,330,880,1,SBD
Gabriele Calista,,30,M,Wraps,M_OCR_WPC,88.2,90,-245,245,260,,260,140,152.5,-157.5,,152.5,285,300,310,,310,722.5,3,SBD
Graeme Quirke,,38,M,Multi-ply,M_OEM_WPC,88.8,90,300,-312.5,,,300,205,-215,,,205,,,,,,,DQ,SBD
Hassan Zaid,,31,M,Multi-ply,M_OEM_WPC,96,100,375,-400,-400,,375,-195,200,-215,,200,300,325,-335,,325,900,1,SBD
Irina Petrovich,,,F,Wraps,F_OCR_WPC,70.6,75,185,205,210,,210,110,120,125,,125,180,200,205,,205,540,1,SBD
Jakub Sherman Scerba,,27,M,Single-ply,M_OES_WPC,109.6,110,-300,-300,,,,,,,,,,,,,,,DQ,SBD
James Black,,26,M,Multi-ply,M_OEM_WPC,99.6,100,280,300,310,,310,190,205,220,,220,250,272.5,-282.5,,272.5,802.5,2,SBD
Jennifer Milliron-O'Neil,,42,F,Wraps,F_MCR_1_WPC,77,82.5,155,-165,170,,170,100,110,-115,,110,190,200,-210,,200,480,1,SBD
Jesse Moran,,23,M,Wraps,M_JCR_WPC,100,100,300,-320,-325,,300,190,200,205,,205,300,-315,-321,,300,805,2,SBD
Joanne Connolly,,30,F,Wraps,F_OCR_WPC,75,75,165,-175,175,,175,82.5,85,-87.5,,85,180,190,195,,195,455,2,SBD
Luke Harrison,,23,M,Wraps,M_JCR_WPC,99.8,100,287.5,307.5,-312.5,,307.5,192.5,200,207.5,,207.5,310,321,-325,,321,836,1,SBD
Marc Galligan,,33,M,Wraps,M_OCR_WPC,100,100,265,-285,285,,285,150,160,-170,,160,250,275,290,,290,735,1,SBD
Nerijus Cekas,,37,M,Wraps,M_OCR_WPC,122.6,125,360,-375,,,360,220,230,-235,,230,,,,,,,DQ,SBD
Pat McNamara,,37,M,Single-ply,M_OES_WPC,89.2,90,300,320,-330,,320,-205,210,-215,,210,240,255,,,255,785,1,SBD
Paulo Santos #1,,29,M,Multi-ply,M_OEM_WPC,102.2,110,360,380,-390,,380,250,260,-270,,260,345,365,-375,,365,1005,1,SBD
Richie Power,,34,M,Multi-ply,M_OEM_WPC,83.2,90,-330,-330,-330,,,210,220,230,,230,,,,,,,DQ,SBD
Rinaldo Visser,,35,M,Multi-ply,M_OEM_WPC,97,100,325,-345,,,325,215,-230,-230,,215,-200,225,260,,260,800,3,SBD
Ruairi McCann,,31,M,Multi-ply,M_OEM_WPC,67.4,67.5,310,325,-332.5,,325,-200,-200,-205,,,230,,,,230,,DQ,SBD
Shane Brodie,,44,M,Multi-ply,M_MEM_1_WPC,89.8,90,350,365,-381,,365,180,-190,,,180,240,,,,240,785,1,SBD
Simon Williams #1,,25,M,Wraps,M_OCR_WPC,74.4,75,-265,-265,265,,265,170,-175,-175,,170,265,,,,265,700,1,SBD
Venessa O'Keefe,,30,F,Wraps,F_OCR_WPC,65.6,67.5,125,132.5,135,,135,67.5,-72.5,-72.5,,67.5,155,162.5,-167.5,,162.5,365,1,SBD
Wioleta Lorek,,28,F,Wraps,F_OCR_WPC,51.6,52,120,-125,125,130.5,125,52.5,55,57.5,,57.5,125,130,-135,,130,312.5,1,SBD
Zahir Khudayarov,,34,M,Wraps,M_OCR_WPC,124.9,125,400,-430,430,,430,220,240,255,,255,330,355,375,390,375,1060,1,SBD
