Division,WeightClassKg,Place,Name,Team,BodyweightKg,Best3SquatKg,Best3BenchKg,Best3DeadliftKg,TotalKg,Equipment,Event,Sex,BirthDate
Boys,51.71,1,Sergio Perales,Midland Legacy,47.72,88.45,52.16,136.08,276.69,Single-ply,SBD,M,
Boys,51.71,2,Lucas McNeely,Monahans,49.71,81.65,43.09,104.33,229.06,Single-ply,SBD,M,
Boys,55.79,1,Adrian Avalos,Snyder,55.25,156.49,88.45,163.29,408.23,Single-ply,SBD,M,
Boys,55.79,2,Angel Martinez #11,Big Lake Reagan County,55.79,170.1,83.91,151.95,405.97,Single-ply,SBD,M,
Boys,55.79,3,Pedro Elizondo,Ozona,55.7,127.01,61.23,124.74,312.98,Single-ply,SBD,M,
Boys,55.79,4,David Rojas,Odessa,53.52,106.59,68.04,129.27,303.91,Single-ply,SBD,M,
Boys,55.79,5,Jasi Galindo,Eldorado,55.25,106.59,70.31,120.2,297.1,Single-ply,SBD,M,
Boys,55.79,6,Talon Cavazos,Big Spring,54.88,113.4,63.5,117.93,294.84,Single-ply,SBD,M,
Boys,55.79,7,Aiden Trevino,Lamesa,53.98,115.67,52.16,120.2,288.03,Single-ply,SBD,M,
Boys,55.79,DQ,Ismael Martin,Junction,55.61,90.72,,,,Single-ply,SBD,M,
Boys,59.87,1,Kenny Richardson,Big Spring,59.87,154.22,106.59,176.9,437.72,Single-ply,SBD,M,
Boys,59.87,2,Alejandro Flores,Snyder,56.88,165.56,77.11,145.15,387.82,Single-ply,SBD,M,
Boys,59.87,3,Hector Colon-Rivera,Coahoma,58.88,154.22,72.57,156.49,383.29,Single-ply,SBD,M,
Boys,59.87,4,Arturo Del Valle,Big Spring,59.42,129.27,95.25,142.88,367.41,Single-ply,SBD,M,
Boys,59.87,5,Andy Martinez,Odessa,59.6,147.42,90.72,129.27,367.41,Single-ply,SBD,M,
Boys,59.87,6,Luis Chavez,Andrews,59.51,142.88,72.57,145.15,360.61,Single-ply,SBD,M,
Boys,59.87,7,Ryan Ramirez,Monahans,56.25,131.54,70.31,138.35,340.19,Single-ply,SBD,M,
Boys,59.87,8,Reagan Chapman,Coahoma,59.33,124.74,72.57,136.08,333.39,Single-ply,SBD,M,
Boys,59.87,9,Marcos Morin,Eldorado,57.61,108.86,65.77,124.74,299.37,Single-ply,SBD,M,
Boys,59.87,10,Calvin Carpenter,Lubbock All Saints School,59.15,92.99,63.5,142.88,299.37,Single-ply,SBD,M,
Boys,59.87,11,Shane Wiseman,Snyder,59.87,104.33,77.11,117.93,299.37,Single-ply,SBD,M,
Boys,59.87,12,Brandyn Cortez,Coahoma,56.52,99.79,61.23,124.74,285.76,Single-ply,SBD,M,
Boys,59.87,13,Cooper Cline,Snyder,58.79,113.4,54.43,117.93,285.76,Single-ply,SBD,M,
Boys,59.87,14,Jesse Rodriguez,Monahans,56.88,83.91,56.7,115.67,256.28,Single-ply,SBD,M,
Boys,67.13,1,Daniel Montano,Andrews,67.04,197.31,92.99,199.58,489.88,Single-ply,SBD,M,
Boys,67.13,2,Carlos Alvarado,Odessa,62.87,174.63,88.45,185.97,449.06,Single-ply,SBD,M,
Boys,67.13,3,Jeremiah Orosco,Snyder,65.5,170.1,70.31,163.29,403.7,Single-ply,SBD,M,
Boys,67.13,4,Chandler Tran,Snyder,63.05,142.88,92.99,165.56,401.43,Single-ply,SBD,M,
Boys,67.13,5,Jose Contreras,Eldorado,64.77,131.54,86.18,165.56,383.29,Single-ply,SBD,M,
Boys,67.13,6,Ruben Bernal,Big Lake Reagan County,65.32,158.76,79.38,136.08,374.21,Single-ply,SBD,M,
Boys,67.13,7,Izaic Gonzales,Lamesa,66.95,147.42,77.11,142.88,367.41,Single-ply,SBD,M,
Boys,67.13,8,Austin Wood,San Angelo Lake View,61.33,131.54,88.45,136.08,356.07,Single-ply,SBD,M,
Boys,67.13,9,Diego Vidaurre,Lamesa,66.22,136.08,65.77,151.95,353.8,Single-ply,SBD,M,
Boys,67.13,10,Angel Salazar,San Angelo Lake View,66.22,106.59,88.45,156.49,351.53,Single-ply,SBD,M,
Boys,67.13,11,Gavin Gonzales,Junction,64.95,124.74,77.11,147.42,349.27,Single-ply,SBD,M,
Boys,67.13,12,Micheal Daniels,Ozona,67.13,147.42,61.23,120.2,328.85,Single-ply,SBD,M,
Boys,67.13,13,Jacob Vourazeris,Midland Legacy,64.5,120.2,63.5,138.35,322.05,Single-ply,SBD,M,
Boys,67.13,14,Damien Davis,San Angelo Lake View,65.23,106.59,72.57,127.01,306.17,Single-ply,SBD,M,
Boys,67.13,15,Charlie Mashburn,Coahoma,66.77,113.4,45.36,120.2,278.96,Single-ply,SBD,M,
Boys,67.13,16,Logan McNeely,Monahans,60.33,88.45,54.43,113.4,256.28,Single-ply,SBD,M,
Boys,67.13,17,Kaden Jaramillo,Andrews,65.5,97.52,47.63,106.59,251.74,Single-ply,SBD,M,
Boys,67.13,18,Jadin Silva,Snyder,60.42,61.23,52.16,70.31,183.7,Single-ply,SBD,M,
Boys,67.13,DQ,James Taylor,Junction,66.95,88.45,,,,Single-ply,SBD,M,
Boys,74.84,1,Indiana Taylor,Andrews,74.21,195.04,147.42,247.21,589.67,Single-ply,SBD,M,
Boys,74.84,2,Larry Telles,Junction,73.57,188.24,124.74,192.78,505.76,Single-ply,SBD,M,
Boys,74.84,3,Thomas Mireles,Midland Greenwood,74.03,208.65,122.47,170.1,501.22,Single-ply,SBD,M,
Boys,74.84,4,Luis Cabrera,Snyder,67.86,183.7,120.2,183.7,487.61,Single-ply,SBD,M,
Boys,74.84,5,Matthew DeLaGarza,Ozona,74.84,188.24,111.13,165.56,464.93,Single-ply,SBD,M,
Boys,74.84,6,John Breeden,Midland Greenwood,73.03,174.63,95.25,183.7,453.59,Single-ply,SBD,M,
Boys,74.84,7,Alyn Salazar,San Angelo Lake View,74.66,190.51,90.72,167.83,449.06,Single-ply,SBD,M,
Boys,74.84,8,Abraham Fraga,Big Lake Reagan County,73.3,167.83,95.25,181.44,444.52,Single-ply,SBD,M,
Boys,74.84,9,Fabio Ramos,Odessa,74.84,151.95,104.33,183.7,439.98,Single-ply,SBD,M,
Boys,74.84,10,Sonny Ledesma,Big Spring,67.59,156.49,83.91,172.37,412.77,Single-ply,SBD,M,
Boys,74.84,11,Brandon Salazar,Midland Greenwood,69.13,154.22,95.25,163.29,412.77,Single-ply,SBD,M,
Boys,74.84,12,Aizik Soto,Eldorado,74.21,145.15,90.72,172.37,408.23,Single-ply,SBD,M,
Boys,74.84,13,Tyson Valenzuela,Andrews,74.75,151.95,70.31,163.29,385.55,Single-ply,SBD,M,
Boys,74.84,14,Rene Orona,Monahans,71.67,138.35,81.65,147.42,367.41,Single-ply,SBD,M,
Boys,74.84,15,Nick Tutle,Coahoma,69.49,113.4,90.72,145.15,349.27,Single-ply,SBD,M,
Boys,74.84,16,Ethan Abalos,San Angelo Lake View,70.31,140.61,77.11,127.01,344.73,Single-ply,SBD,M,
Boys,74.84,17,Jack Hamby,Big Spring,74.84,133.81,63.5,147.42,344.73,Single-ply,SBD,M,
Boys,74.84,18,Noah Powell,Monahans,70.58,120.2,83.91,138.35,342.46,Single-ply,SBD,M,
Boys,74.84,19,Victor Aguirre,San Angelo Lake View,68.4,120.2,88.45,124.74,333.39,Single-ply,SBD,M,
Boys,74.84,20,Clyde Rogers,Junction,69.49,92.99,54.43,113.4,260.82,Single-ply,SBD,M,
Boys,74.84,DQ,Colby Eckert,Junction,71.76,,,,,Single-ply,SBD,M,
Boys,82.1,1,George Wagner,Andrews,80.01,238.14,142.88,256.28,637.3,Single-ply,SBD,M,
Boys,82.1,2,Ernan Carrasco,Andrews,79.02,238.14,138.35,226.8,603.28,Single-ply,SBD,M,
Boys,82.1,3,Jimmy Vazquez,Midland Greenwood,77.47,256.28,136.08,197.31,589.67,Single-ply,SBD,M,
Boys,82.1,4,Sebastian Bejarano,Odessa,81.01,201.85,142.88,215.46,560.19,Single-ply,SBD,M,
Boys,82.1,5,Ngai Thang,Midland Legacy,81.83,201.85,129.27,215.46,546.58,Single-ply,SBD,M,
Boys,82.1,6,Carlos Cantu,Ozona,78.02,195.04,129.27,204.12,528.44,Single-ply,SBD,M,
Boys,82.1,7,Wyatt Olive,Midland Greenwood,80.92,219.99,117.93,188.24,526.17,Single-ply,SBD,M,
Boys,82.1,8,Dravon Valenzuela,Big Lake Reagan County,77.75,208.65,113.4,197.31,519.36,Single-ply,SBD,M,
Boys,82.1,9,Karl Karabanoff,Big Spring,81.37,185.97,104.33,204.12,494.42,Single-ply,SBD,M,
Boys,82.1,10,John Hyatt,Midland Greenwood,78.56,174.63,102.06,176.9,453.59,Single-ply,SBD,M,
Boys,82.1,11,Caleb New,Big Spring,75.75,179.17,92.99,167.83,439.98,Single-ply,SBD,M,
Boys,82.1,12,Marcos Ogeda,Lamesa,77.84,165.56,83.91,188.24,437.72,Single-ply,SBD,M,
Boys,82.1,13,Cristian Gutierrez,Big Lake Reagan County,81.19,161.03,74.84,147.42,383.29,Single-ply,SBD,M,
Boys,82.1,14,Kenan Kimberly,Coahoma,78.83,136.08,88.45,142.88,367.41,Single-ply,SBD,M,
Boys,82.1,15,Jaidyn Vineyard,Coahoma,77.84,120.2,88.45,129.27,337.93,Single-ply,SBD,M,
Boys,82.1,DQ,Brooks Burns,Lubbock All Saints School,78.83,165.56,,,,Single-ply,SBD,M,
Boys,89.81,1,Luis Cervantes,Andrews,87.09,226.8,127.01,219.99,573.79,Single-ply,SBD,M,
Boys,89.81,2,Seth Olsen,Big Spring,87.09,199.58,113.4,226.8,539.77,Single-ply,SBD,M,
Boys,89.81,3,Roman Rivero,Big Lake Reagan County,86.45,206.38,117.93,204.12,528.44,Single-ply,SBD,M,
Boys,89.81,4,Kyen Purser,Midland Greenwood,86,210.92,111.13,190.51,512.56,Single-ply,SBD,M,
Boys,89.81,5,Arturo Ortiz,Big Spring,89.36,199.58,108.86,185.97,494.42,Single-ply,SBD,M,
Boys,89.81,6,Jesus Montez,Odessa,84.55,183.7,106.59,172.37,462.66,Single-ply,SBD,M,
Boys,89.81,7,Garret Porter,Eldorado,82.55,158.76,102.06,183.7,444.52,Single-ply,SBD,M,
Boys,89.81,8,Zaid Hernandez,Eldorado,87.91,142.88,90.72,165.56,399.16,Single-ply,SBD,M,
Boys,89.81,9,Marco Ponce,Junction,85,142.88,88.45,158.76,390.09,Single-ply,SBD,M,
Boys,89.81,10,Eric Dehoyos,Ozona,88,136.08,92.99,142.88,371.95,Single-ply,SBD,M,
Boys,89.81,11,Auston Jahn,Snyder,89.27,142.88,74.84,142.88,360.61,Single-ply,SBD,M,
Boys,89.81,12,Lash Caldwell,Monahans,87.82,113.4,79.38,161.03,353.8,Single-ply,SBD,M,
Boys,89.81,13,Jacob Padron,Coahoma,86.09,113.4,88.45,106.59,308.44,Single-ply,SBD,M,
Boys,89.81,14,Michael Flores,Ozona,84.55,70.31,54.43,92.99,217.72,Single-ply,SBD,M,
Boys,99.79,1,Reyes Silva,Snyder,97.79,328.85,170.1,260.82,759.77,Single-ply,SBD,M,
Boys,99.79,2,Juan Saucedo,Big Lake Reagan County,90.72,244.94,149.69,210.92,605.55,Single-ply,SBD,M,
Boys,99.79,3,Jaxon Lawdermilk,Andrews,98.7,238.14,129.27,226.8,594.21,Single-ply,SBD,M,
Boys,99.79,4,Mat Guerrero,Big Lake Reagan County,94.35,226.8,129.27,181.44,537.51,Single-ply,SBD,M,
Boys,99.79,5,Cameron Saldivar,Andrews,95.62,206.38,127.01,190.51,523.9,Single-ply,SBD,M,
Boys,99.79,6,Kyle Warren,Big Spring,99.34,206.38,115.67,197.31,519.36,Single-ply,SBD,M,
Boys,99.79,7,Connor Elliott,Midland Legacy,98.52,170.1,136.08,183.7,489.88,Single-ply,SBD,M,
Boys,99.79,8,Carlos Barraza,Midland Greenwood,93.62,183.7,111.13,176.9,471.74,Single-ply,SBD,M,
Boys,99.79,9,Jose Cabrera,Snyder,90.17,174.63,92.99,108.86,376.48,Single-ply,SBD,M,
Boys,99.79,10,Xavier Rangel,San Angelo Lake View,98.43,129.27,95.25,147.42,371.95,Single-ply,SBD,M,
Boys,99.79,DQ,Orlando Baeza,Midland Greenwood,90.63,219.99,,,,Single-ply,SBD,M,
Boys,99.79,DQ,Mason Dawson,Lubbock All Saints School,93.08,167.83,,,,Single-ply,SBD,M,
Boys,99.79,DQ,Anthony Gonzales,Big Spring,90.72,176.9,102.06,,,Single-ply,SBD,M,
Boys,109.77,1,Joe Bolanos,Odessa,104.69,272.16,145.15,247.21,664.51,Single-ply,SBD,M,
Boys,109.77,2,Adrian Salcido,Andrews,106.78,251.74,161.03,217.72,630.49,Single-ply,SBD,M,
Boys,109.77,3,Eli Hernandez,Big Lake Reagan County,100.7,276.69,147.42,201.85,625.96,Single-ply,SBD,M,
Boys,109.77,4,Jaylon James,Snyder,108.5,272.16,127.01,204.12,603.28,Single-ply,SBD,M,
Boys,109.77,5,Cash Caswell,Andrews,109.5,226.8,140.61,217.72,585.13,Single-ply,SBD,M,
Boys,109.77,6,Jonathan Dozal,Odessa,103.33,217.72,138.35,204.12,560.19,Single-ply,SBD,M,
Boys,109.77,7,Vinny Pina,Eldorado,107.5,201.85,127.01,226.8,555.65,Single-ply,SBD,M,
Boys,109.77,8,Damian Dominguez,Odessa,108.14,219.99,129.27,190.51,539.77,Single-ply,SBD,M,
Boys,109.77,9,Jacob Payne,Monahans,108.41,208.65,124.74,204.12,537.51,Single-ply,SBD,M,
Boys,109.77,10,Bryan Gutierrez,Big Lake Reagan County,105.14,233.6,102.06,181.44,517.1,Single-ply,SBD,M,
Boys,109.77,11,Alex Alcantar,San Angelo Lake View,107.41,204.12,120.2,188.24,512.56,Single-ply,SBD,M,
Boys,109.77,12,Elijah Burton,Big Spring,101.15,210.92,124.74,172.37,508.02,Single-ply,SBD,M,
Boys,109.77,13,Braxton Elias,Eldorado,106.14,183.7,120.2,190.51,494.42,Single-ply,SBD,M,
Boys,109.77,14,Bren Dyess,Midland Legacy,106.41,174.63,140.61,174.63,489.88,Single-ply,SBD,M,
Boys,109.77,15,Joseph Vowles,Monahans,103.78,183.7,111.13,192.78,487.61,Single-ply,SBD,M,
Boys,109.77,16,Manuel Davila,Big Lake Reagan County,106.41,192.78,127.01,158.76,478.54,Single-ply,SBD,M,
Boys,109.77,17,Angelo Ortiz,Midland Legacy,109.23,185.97,113.4,163.29,462.66,Single-ply,SBD,M,
Boys,109.77,18,Isaac Cordova,San Angelo Lake View,100.79,185.97,92.99,172.37,451.32,Single-ply,SBD,M,
Boys,109.77,19,Seth Parker,Eldorado,101.88,163.29,88.45,183.7,435.45,Single-ply,SBD,M,
Boys,109.77,20,Jordan Pires,Big Lake Reagan County,107.86,170.1,86.18,161.03,417.3,Single-ply,SBD,M,
Boys,109.77,21,Nathan Marquez,Monahans,103.96,129.27,74.84,172.37,376.48,Single-ply,SBD,M,
Boys,124.74,1,Josiah Flores,Andrews,120.29,260.82,170.1,238.14,669.05,Single-ply,SBD,M,
Boys,124.74,2,Juan Ortiz,San Angelo Lake View,124.1,247.21,158.76,263.08,669.05,Single-ply,SBD,M,
Boys,124.74,3,Cesar Avila,Junction,115.12,249.48,115.67,215.46,580.6,Single-ply,SBD,M,
Boys,124.74,4,Drew Coker,Monahans,121.56,226.8,136.08,217.72,580.6,Single-ply,SBD,M,
Boys,124.74,5,Kobe Cervantes,Coahoma,115.21,208.65,138.35,204.12,551.11,Single-ply,SBD,M,
Boys,124.74,6,Hayden Becerra,Midland Legacy,113.94,240.4,113.4,192.78,546.58,Single-ply,SBD,M,
Boys,124.74,7,Damareon Gray,Odessa,115.12,185.97,140.61,215.46,542.04,Single-ply,SBD,M,
Boys,124.74,8,Willie Rodriguez,San Angelo Lake View,122.92,195.04,138.35,185.97,519.36,Single-ply,SBD,M,
Boys,124.74,9,Nick Gonzales,Coahoma,111.67,226.8,108.86,176.9,512.56,Single-ply,SBD,M,
Boys,124.74,10,Vance Martinez,Snyder,118.39,210.92,111.13,190.51,512.56,Single-ply,SBD,M,
Boys,124.74,11,Girevis Bobey,Midland Legacy,116.03,183.7,145.15,170.1,498.95,Single-ply,SBD,M,
Boys,124.74,12,Austin Kotsch,Eldorado,120.47,170.1,124.74,188.24,483.08,Single-ply,SBD,M,
Boys,124.74,13,Aaron Willis,Junction,109.86,136.08,92.99,124.74,353.8,Single-ply,SBD,M,
Boys,139.71,1,Ernesto Nava,Eldorado,127.73,272.16,161.03,201.85,635.03,Single-ply,SBD,M,
Boys,139.71,2,Gerardo Vazquez,Odessa,131.18,254.01,131.54,206.38,591.94,Single-ply,SBD,M,
Boys,139.71,3,John Cepeda,San Angelo Lake View,128.19,183.7,124.74,174.63,483.08,Single-ply,SBD,M,
Boys,139.71,4,Aiden Marmolejo,Lamesa,128.91,167.83,111.13,195.04,474,Single-ply,SBD,M,
Boys,139.71+,1,Emilio Dominguez,Odessa,140.7,292.57,188.24,272.16,752.96,Single-ply,SBD,M,
Boys,139.71+,2,Keano Perez,Ozona,144.24,285.76,149.69,242.67,678.12,Single-ply,SBD,M,
Boys,139.71+,3,Chico Delgado,Andrews,143.88,260.82,170.1,226.8,657.71,Single-ply,SBD,M,
Boys,139.71+,4,Rafael Benavides,Junction,147.87,238.14,172.37,217.72,628.23,Single-ply,SBD,M,
Boys,139.71+,5,Evan Sepeda,Lamesa,187.33,229.06,113.4,183.7,526.17,Single-ply,SBD,M,
Boys,139.71+,6,John Reagan,Coahoma,156.94,149.69,83.91,156.49,390.09,Single-ply,SBD,M,
