Name,Sex,Equipment,Tested,Division,BodyweightKg,WeightClassKg,Age,Squat1Kg,Squat2Kg,Squat3Kg,Squat4Kg,Best3SquatKg,Bench1Kg,Bench2Kg,Bench3Kg,Best3BenchKg,Deadlift1Kg,Deadlift2Kg,Deadlift3Kg,Deadlift4Kg,Best3DeadliftKg,TotalKg,BirthDate,Event,Place,State,Country
Hope Jackson,F,Wraps,Yes,Open,70.95,75,23,127.5,132.5,140,,140,-62.5,67.5,-75,67.5,137.5,145,-150,,145,352.5,1997-11-01,SBD,1,,
Martina Rodriguez,F,Wraps,Yes,Open,123.4,90+,27,190,200,210,,210,75,80,-90,80,182.5,-200,-200,,182.5,472.5,1993-12-01,SBD,1,,
Shakila Taylor,F,Raw,Yes,Open,74.05,75,29,,,,,,,,,,170,-182.5,182.5,,182.5,182.5,1991-09-27,D,1,,
Marissa Gonzalez,F,Raw,Yes,Open,79.8,82.5,29,87.5,92.5,100,,100,40,45,-50,45,105,112.5,-120,,112.5,257.5,1991-10-16,SBD,1,,
Mayline Leau,F,Raw,Yes,Open,86.3,90,35,-104,-104,104,,104,-52.5,52.5,55,55,105,107.5,110,,110,269,1985-05-09,SBD,3,,
Caitlin Moore,F,Raw,Yes,Open,63.5,67.5,31,70,75,82.5,,82.5,50,52.5,-55,52.5,97.5,100,105,,105,240,1990-03-19,SBD,4,,
Maxima Quinn,F,Raw,Yes,Open,83.25,90,30,95,102.5,112.5,,112.5,55,60,67.5,67.5,105,112.5,120,,120,300,1990-08-06,SBD,2,,
Isabella Ciotti,F,Raw,Yes,Youth,59.1,60,13,80,87.5,-92.5,,87.5,47.5,52.5,57.5,57.5,87.5,95,-102.5,,95,240,2007-06-14,SBD,1,,
Vanessa Tobon,F,Raw,Yes,Open,71.35,75,29,107.5,-125,125,,125,52.5,-57.5,-57.5,52.5,115,127.5,137.5,,137.5,315,1992-03-27,SBD,2,,
Jessica Roach,F,Raw,Yes,Open,61.5,67.5,27,95,-105,110,,110,60,-65,-70,60,110,122.5,-127.5,,122.5,292.5,1993-08-10,SBD,3,,
Jojuana Taitano,F,Raw,Yes,Juniors 20-23,66.8,67.5,23,90,100,107.5,,107.5,45,52.5,55,55,125,140,155,,155,317.5,1997-11-25,SBD,1,,
Amanda Leaupepe,F,Raw,Yes,Submasters 35-39,73.75,75,38,90,-100,110,,110,57.5,62.5,67.5,67.5,140,155,165,,165,342.5,1982-12-04,SBD,1,,
Imee Rose Dichoso,F,Raw,Yes,Juniors 20-23,71.35,75,20,115,120,127.5,,127.5,70,75,-80,75,137.5,140,145,,145,347.5,2000-05-12,SBD,1,,
Dominique Sepulveda,F,Raw,Yes,Juniors 20-23,79.55,82.5,23,-125,130,137.5,,137.5,57.5,60,65,65,150,162.5,175,,175,377.5,1998-03-18,SBD,1,,
Nyeisha Smith,F,Raw,Yes,Open,66,67.5,31,115,120,127.5,,127.5,75,80,-82.5,80,125,137.5,147.5,,147.5,355,1990-03-08,SBD,2,,
Josephine Floyd,F,Raw,Yes,Open,89.1,90,33,-155,155,-165,,155,75,80,-85,80,162.5,182.5,192.5,,192.5,427.5,1987-09-22,SBD,1,,
Kimmy Castro,F,Raw,Yes,Teen 14-16,123.15,90+,15,175,192.5,200,211,200,60,67.5,75,75,175,190,200,205,200,475,2006-02-10,SBD,1,,
Kimmy Castro,F,Raw,Yes,Open,123.15,90+,15,175,192.5,200,211,200,60,67.5,75,75,175,190,200,205,200,475,2006-02-10,SBD,2,,
Jessica Bleifield,F,Raw,Yes,Open,46.55,48,32,82.5,90,97.5,,97.5,-40,42.5,-47.5,42.5,127.5,132.5,140,,140,280,1989-01-29,SBD,1,,
Elizabeth Topalian,F,Raw,Yes,Open,111.9,90+,34,177.5,187.5,192.5,,192.5,100,107.5,112.5,112.5,157.5,165,-167.5,,165,470,1986-06-06,SBD,3,,
Alisha Oseguera,F,Raw,Yes,Open,66.9,67.5,26,125,-135,135,,135,77.5,80,-82.5,80,155,160,162.5,,162.5,377.5,1994-09-17,SBD,1,,
Shakila Taylor,F,Raw,Yes,Open,74.05,75,29,137.5,147.5,-155,,147.5,77.5,-82.5,82.5,82.5,170,-182.5,182.5,,182.5,412.5,1991-09-27,SBD,1,,
Marissa Wilson,F,Raw,Yes,Open,107.3,90+,29,237.5,250,-260,,250,130,135,138,138,202.5,,,,202.5,590.5,1991-07-29,SBD,1,,
Albert Leal,M,Wraps,Yes,Open,101.15,110,31,192.5,205,212.5,,212.5,137.5,-142.5,-145,137.5,232.5,240,-247.5,,240,590,1989-10-09,SBD,3,,
Ezra Crocker,M,Wraps,Yes,Juniors 20-23,81.9,82.5,23,180,192.5,197.5,,197.5,100,-115,122.5,122.5,195,215,230,,230,550,1998-03-19,SBD,1,,
Adam Sisler,M,Wraps,Yes,Submasters 35-39,91.1,100,36,200,215,-222.5,,215,130,145,-152.5,145,205,220,232.5,,232.5,592.5,1984-10-25,SBD,2,,
Lino Ramos,M,Wraps,Yes,Open,131,140,29,230,245,-255,,245,-160,160,170,170,250,275,290,,290,705,1992-02-26,SBD,2,,
Tristan Siggers,M,Wraps,Yes,Open,117.5,125,28,250,270,-280,,270,160,-175,175,175,230,250,265,,265,710,1993-01-19,SBD,2,,
Ryan Pierce,M,Wraps,Yes,Juniors 20-23,63.95,67.5,22,160,180,192.5,,192.5,112.5,117.5,122.5,122.5,165,185,195,,195,510,1998-05-13,SBD,1,,
Darion Kelly,M,Wraps,Yes,Juniors 20-23,74.9,75,23,227.5,-240,240,,240,115,120,125,125,260,272.5,-292.5,,272.5,637.5,1997-09-19,SBD,1,,
Darion Kelly,M,Wraps,Yes,Open,74.9,75,23,227.5,-240,240,,240,115,120,125,125,260,272.5,-292.5,,272.5,637.5,1997-09-19,SBD,1,,
Boris Terry,M,Wraps,Yes,Open,118.3,125,36,310,325,332.5,,332.5,200,210,-215,210,322.5,340,350,,350,892.5,1984-08-30,SBD,1,,
Anthony Salas #1,M,Raw,Yes,Open,121.4,125,31,,,,,,200,212.5,-220,212.5,,,,,,212.5,1990-03-27,B,1,,
Matthew Dahilig,M,Raw,Yes,Sub-Juniors 17-19,116.25,125,19,,,,,,130,140,145,145,190,200,-220,,200,345,2001-12-14,BD,1,,
Abner Nazario,M,Raw,Yes,Open,80.15,82.5,28,,,,,,,,,,312.5,-341,,,312.5,312.5,1992-11-25,D,1,,
Ethan Wallner,M,Raw,Yes,Juniors 20-23,81.15,82.5,22,142.5,155,162.5,,162.5,95,107.5,-112.5,107.5,175,190,202.5,,202.5,472.5,1999-03-26,SBD,2,,
Ethan Wallner,M,Raw,Yes,Open,81.15,82.5,22,142.5,155,162.5,,162.5,95,107.5,-112.5,107.5,175,190,202.5,,202.5,472.5,1999-03-26,SBD,2,,
Chase Cregeen,M,Raw,Yes,Open,107.75,110,26,167.5,182.5,192.5,,192.5,132.5,-137.5,137.5,137.5,182.5,200,210,,210,540,1994-10-14,SBD,4,,
Brandon Pagdanganan,M,Raw,Yes,Open,114.1,125,24,175,190,-205,,190,125,132.5,-142.5,132.5,205,-227.5,235,,235,557.5,1996-05-14,SBD,4,,
Zacharie Levan,M,Raw,Yes,Open,82.1,82.5,26,155,162.5,167.5,,167.5,115,-122.5,122.5,122.5,210,-225,,,210,500,1994-07-05,SBD,1,,
David Rosario,M,Raw,Yes,Open,88.95,90,26,-160,175,185,,185,115,127.5,132.5,132.5,190,207.5,-215,,207.5,525,1994-05-10,SBD,2,,
Keith Daniels,M,Raw,Yes,Masters 50-54,80.65,82.5,53,147.5,157.5,165,,165,120,125,127.5,127.5,190,197.5,205,,205,497.5,1967-05-05,SBD,1,,
James Buchanan,M,Raw,Yes,Open,117.1,125,25,197.5,-215,-215,,197.5,142.5,-147.5,-147.5,142.5,237.5,250,-257.5,,250,590,1995-11-22,SBD,3,,
Jacob Tlockowski,M,Raw,Yes,Sub-Juniors 17-19,89,90,17,167.5,180,187.5,,187.5,120,130,-137.5,130,215,230,-237.5,,230,547.5,2003-05-16,SBD,2,,
Hayden Smith,M,Raw,Yes,Sub-Juniors 17-19,102,110,18,197.5,207.5,217.5,,217.5,125,130,-137.5,130,225,245,257.5,,257.5,605,2002-03-31,SBD,1,,
Joel Anderson,M,Raw,Yes,Open,74.85,75,34,185,195,-202.5,,195,102.5,-110,-110,102.5,215,222.5,-227.5,,222.5,520,1986-05-29,SBD,3,,
Juan Zavala,M,Raw,Yes,Open,55.1,56,32,130,137.5,140,,140,-105,105,-115,105,-172.5,172.5,-182.5,,172.5,417.5,1988-11-02,SBD,1,,
Cas'Sean Eccles,M,Raw,Yes,Open,106.3,110,33,230,242.5,247.5,,247.5,152.5,-162.5,167.5,167.5,235,255,-267.5,,255,670,1987-09-25,SBD,3,,
Christopher Sambrano,M,Raw,Yes,Open,149.79,140+,31,265,282.5,287.5,,287.5,-170,170,187.5,187.5,280,-297.5,-297.5,,280,755,1989-07-25,SBD,2,,
Courtney Jenkins,M,Raw,Yes,Open,95.1,100,29,252.5,-265,-265,,252.5,150,-155,,150,287.5,-305,-305,,287.5,690,1991-12-30,SBD,2,,
Matthew Sacco,M,Raw,Yes,Open,72.1,75,31,182.5,192.5,200,,200,130,137.5,142.5,142.5,232.5,247.5,-260,,247.5,590,1990-02-11,SBD,2,,
Chris Miller,M,Raw,Yes,Open,125.65,140,36,282.5,-300,-300,,282.5,165,175,182.5,182.5,287.5,305,320,,320,785,1985-01-13,SBD,2,,
Chris Miller,M,Raw,Yes,Submasters 35-39,125.65,140,36,282.5,-300,-300,,282.5,165,175,182.5,182.5,287.5,305,320,,320,785,1985-01-13,SBD,1,,
Allen Jefferson,M,Raw,Yes,Open,125,125,37,-240,260,280,,280,165,182.5,192.5,192.5,-285,-307.5,320,,320,792.5,1983-03-29,SBD,2,,
Allen Jefferson,M,Raw,Yes,Submasters 35-39,125,125,37,-240,260,280,,280,165,182.5,192.5,192.5,-285,-307.5,320,,320,792.5,1983-03-29,SBD,1,,
Julio Zavala,M,Raw,Yes,Open,59.75,60,28,167.5,177.5,-185,,177.5,127.5,135,-137.5,135,215,227.5,-232.5,,227.5,540,1992-05-31,SBD,2,,
Justin Bonaparte,M,Raw,Yes,Open,59.2,60,25,185,195,-205,,195,107.5,112.5,-120,112.5,220,230,235,,235,542.5,1995-10-31,SBD,1,,
Anthony Salas #1,M,Raw,Yes,Open,121.4,125,31,290,305,-320,,305,200,212.5,-220,212.5,295,305,-310,,305,822.5,1990-03-27,SBD,1,,
Tracy Curry,M,Raw,Yes,Open,98.7,100,30,257.5,272.5,282.5,,282.5,192.5,200,-205,200,295,317.5,327.5,,327.5,810,1990-09-20,SBD,1,,
Natalie Carr #2,F,Wraps,No,Open,54.8,56,29,-165,165,172.5,,172.5,62.5,65,70,70,172.5,180,185,,185,427.5,1991-11-22,SBD,1,,
Heather Rasmussen,F,Raw,No,Masters 45-49,88.15,90,47,132.5,140,145,,145,80,85,-87.5,85,165,172.5,182.5,,182.5,412.5,1973-08-18,SBD,1,,
Melissa Vitali,F,Raw,No,Open,100.35,90+,45,110,117.5,125,,125,52.5,57.5,60,60,117.5,120,137.5,,137.5,322.5,1976-01-11,SBD,4,,
Robert Saludares,M,Wraps,No,Masters 45-49,94.1,100,47,165,-180,182.5,,182.5,110,115,-127.5,115,170,185,207.5,,207.5,505,1973-12-25,SBD,1,,
Brandon Peters #1,M,Wraps,No,Open,74.85,75,27,-227.5,-232.5,-232.5,,,-137.5,137.5,,137.5,237.5,260,-272.5,,260,,1993-05-23,SBD,DQ,,
Brett Snow,M,Wraps,No,Open,82.15,82.5,27,227.5,247.5,255,,255,165,175,182.5,182.5,227.5,250,260,,260,697.5,1993-04-07,SBD,1,,
Tommy O'Connor,M,Wraps,No,Open,89.5,90,39,290,305,310,,310,205,-212.5,-212.5,205,267.5,-275,-275,,267.5,782.5,1981-05-25,SBD,1,,USA
Brandon Carvalho,M,Wraps,No,Open,90,90,30,-265,265,-282.5,,265,185,192.5,-202.5,192.5,272.5,302.5,-320,,302.5,760,1990-04-08,SBD,2,,
Chantz Griffith,M,Wraps,No,Open,100,100,36,287.5,302.5,310,,310,182.5,-185,-187.5,182.5,277.5,-285,-285,,277.5,770,1984-06-27,SBD,1,,
Alex Skinner,M,Wraps,No,Open,106.55,110,30,250,272.5,-280,,272.5,177.5,-187.5,192.5,192.5,250,275,-290,,275,740,1991-01-04,SBD,1,,
Zachary Kendall,M,Wraps,No,Open,107,110,26,230,250,262.5,,262.5,155,162.5,165,165,230,255,272.5,,272.5,700,1994-08-08,SBD,2,,
Tyler Savery,M,Wraps,No,Open,136.1,140,29,272.5,290,300,,300,172.5,177.5,185,185,-320,320,-335,,320,805,1992-02-13,SBD,1,CA,
Tommy O'Connor,M,Wraps,No,Submasters 35-39,89.5,90,39,290,305,310,,310,205,-212.5,-212.5,205,267.5,-275,-275,,267.5,782.5,1981-05-25,SBD,1,,
Chantz Griffith,M,Wraps,No,Submasters 35-39,100,100,36,287.5,302.5,310,,310,182.5,-185,-187.5,182.5,277.5,-285,-285,,277.5,770,1984-06-27,SBD,1,,
Mark Santandrea,M,Multi-ply,No,Open,88.5,90,36,260,-275,-275,,260,140,152.5,-170,152.5,210,220,232.5,,232.5,645,1984-08-22,SBD,1,,
Mark Santandrea,M,Multi-ply,No,Submasters 35-39,88.5,90,36,260,-275,-275,,260,140,152.5,-170,152.5,210,220,232.5,,232.5,645,1984-08-22,SBD,1,,
Devin Merafuentes,M,Raw,No,Sub-Juniors 17-19,89.45,90,19,227.5,250,262.5,,262.5,135,142.5,147.5,147.5,200,227.5,235,,235,645,2001-04-04,SBD,1,,
Drew Lutes,M,Raw,No,Sub-Juniors 17-19,95.6,100,18,172.5,-197.5,-197.5,,172.5,120,125,-137.5,125,205,227.5,242.5,,242.5,540,2002-12-02,SBD,1,,
Martin Castro,M,Raw,No,Juniors 20-23,82.3,82.5,23,192.5,-215,215,,215,130,142.5,145,145,237.5,-250,-250,,237.5,597.5,1998-02-25,SBD,1,,
Jordan Kortman,M,Raw,No,Juniors 20-23,96.1,100,20,215,230,240,,240,157.5,170,-177.5,170,260,-280,290,,290,700,2000-09-10,SBD,1,,
Luke Boyle,M,Raw,No,Open,74.9,75,24,220,230,237.5,,237.5,125,-132.5,-132.5,125,265,282.5,-300,,282.5,645,1997-01-20,SBD,1,,
Devin Merafuentes,M,Raw,No,Open,89.45,90,19,227.5,250,262.5,,262.5,135,142.5,147.5,147.5,200,227.5,235,,235,645,2001-04-04,SBD,1,,
Terry Baca,M,Raw,No,Open,84.05,90,39,125,-147.5,-167.5,,125,90,-110,-110,90,182.5,200,222.5,,222.5,437.5,1981-11-29,SBD,3,,
Florencio Bermudez Jr,M,Raw,No,Open,97.6,100,30,227.5,250,-265,,250,142.5,160,,160,227.5,242.5,255,,255,665,1991-01-29,SBD,3,,
Benjamin Haugen,M,Raw,No,Open,98.6,100,30,157.5,167.5,-170,,167.5,112.5,117.5,125,125,205,215,227.5,,227.5,520,1990-08-17,SBD,4,,
Jacob Noble #3,M,Raw,No,Open,109.2,110,28,272.5,297.5,312.5,,312.5,165,-177.5,177.5,177.5,272.5,310,-330,,310,800,1993-02-19,SBD,1,,
Gabriel Marin,M,Raw,No,Open,103.25,110,25,205,220,230,,230,162.5,172.5,177.5,177.5,250,265,275,,275,682.5,1995-06-23,SBD,2,,
Alex Bustamante #3,M,Raw,No,Open,139.95,140,25,270,285,300,,300,182.5,192.5,200,200,305,320,340,,340,840,1995-06-15,SBD,1,,
Emiliano Acosta,M,Raw,No,Open,132.8,140,26,265,280,287.5,,287.5,197.5,-215,-215,197.5,272.5,-290,290,,290,775,1994-10-01,SBD,3,,
Jesse Kidd,M,Raw,No,Open,185,140+,38,312.5,-320,,,312.5,190,195,,195,300,320,-330,,320,827.5,1982-08-10,SBD,1,,
Sergio Lopez,M,Raw,No,Submasters 35-39,185,140+,37,312.5,330,,,330,205,212.5,220,220,272.5,280,-287.5,,280,830,1983-07-03,SBD,1,,
Jesse Kidd,M,Raw,No,Submasters 35-39,185,140+,38,312.5,-320,,,312.5,190,195,,195,300,320,-330,,320,827.5,1982-08-10,SBD,2,,
Terry Baca,M,Raw,No,Open,84.05,90,39,,,,,,90,-110,-110,90,182.5,200,222.5,,222.5,312.5,1981-11-29,BD,1,,
Timothy Perry,M,Raw,No,Open,190,140+,33,,,,,,247.5,257.5,-272.5,257.5,-275,275,-290,,275,532.5,1988-03-08,BD,1,,
Gabriel Aquino,M,Single-ply,No,Open,89.35,90,30,230,247.5,260,,260,152.5,157.5,162.5,162.5,267.5,-277.5,-277.5,,267.5,690,1990-03-29,SBD,1,,
