Division,WeightClassKg,Place,Name,Team,BodyweightKg,Best3SquatKg,Best3BenchKg,Best3DeadliftKg,TotalKg,Equipment,Event,Sex,BirthDate
Boys,51.71,1,Ethan Hernandez,Harlingen South,51.71,145.15,81.65,140.61,367.41,Single-ply,SBD,M,
Boys,51.71,2,Marco Salinas,Weslaco,50.89,115.67,63.5,142.88,322.05,Single-ply,SBD,M,
Boys,59.87,1,Jason Duarte,Weslaco,59.78,151.95,95.25,165.56,412.77,Single-ply,SBD,M,
Boys,67.13,1,Marcus Saenz,Weslaco,67.13,226.8,142.88,195.04,564.72,Single-ply,SBD,M,
Boys,67.13,2,Isiah Perals,Harlingen,66.22,174.63,122.47,176.9,474,Single-ply,SBD,M,
Boys,67.13,3,Eric Gonzalez,Weslaco,62.41,170.1,102.06,176.9,449.06,Single-ply,SBD,M,
Boys,67.13,4,Mathew Elizando,Harlingen,63.5,161.03,124.74,163.29,449.06,Single-ply,SBD,M,
Boys,67.13,5,Miguel Lerma,Weslaco,63.73,151.95,83.91,183.7,419.57,Single-ply,SBD,M,
Boys,67.13,6,Bergendahl Richard,Harlingen South,67.13,120.2,65.77,129.27,315.25,Single-ply,SBD,M,
Boys,74.84,1,Harley Rios,Weslaco,73.53,215.46,136.08,197.31,548.85,Single-ply,SBD,M,
Boys,74.84,2,Adrian Gonzalez,Harlingen,71.21,142.88,120.2,163.29,426.38,Single-ply,SBD,M,
Boys,74.84,3,Wilson August,Harlingen South,74.84,106.59,92.99,167.83,367.41,Single-ply,SBD,M,
Boys,82.1,1,Isaac Parra,Harlingen South,82.1,226.8,113.4,222.26,562.45,Single-ply,SBD,M,
Boys,82.1,2,Cody Juarez,Weslaco,77.84,183.7,106.59,151.95,442.25,Single-ply,SBD,M,
Boys,89.81,1,Sergio Lerma,Weslaco,86.23,292.57,142.88,272.16,707.6,Single-ply,SBD,M,
Boys,89.81,2,Kian Torres,Harlingen,84.37,213.19,122.47,204.12,539.77,Single-ply,SBD,M,
Boys,89.81,3,Anaya Caleb,Harlingen South,89.81,204.12,124.74,192.78,521.63,Single-ply,SBD,M,
Boys,89.81,4,Lerma Gilbert,Harlingen South,89.81,183.7,113.4,188.24,485.34,Single-ply,SBD,M,
Boys,99.79,1,Iziah Bell,Harlingen,94.8,219.99,142.88,201.85,564.72,Single-ply,SBD,M,
Boys,99.79,2,Villanueva Reno,Harlingen South,99.79,158.76,120.2,188.24,467.2,Single-ply,SBD,M,
Boys,99.79,3,Diego Salazar,Weslaco,93.21,174.63,111.13,174.63,460.4,Single-ply,SBD,M,
Boys,99.79,DQ,Thomas Larios,Harlingen,92.53,163.29,,,,Single-ply,SBD,M,
Boys,99.79,DQ,Erick Zammora,Harlingen,92.08,183.7,,,,Single-ply,SBD,M,
Boys,109.77,1,Echavarria Ezra,Harlingen South,109.77,195.04,131.54,174.63,501.22,Single-ply,SBD,M,
Boys,109.77,DQ,Marcus Lugo,Weslaco,104.33,195.04,117.93,,,Single-ply,SBD,M,
Boys,124.74,1,Andres Avila,Harlingen,124.74,229.06,142.88,190.51,562.45,Single-ply,SBD,M,
Boys,124.74,2,Jaime Hernandez,Weslaco,117.93,199.58,117.93,170.1,487.61,Single-ply,SBD,M,
Boys,139.71,1,Thomas Santillan,Weslaco,137.89,281.23,154.22,231.33,666.78,Single-ply,SBD,M,
Boys,139.71,2,Derick Perez,Harlingen,133.81,206.38,133.81,204.12,544.31,Single-ply,SBD,M,
Boys,139.71,3,Anthony Johnson,Harlingen,135.17,183.7,142.88,170.1,496.68,Single-ply,SBD,M,
Boys,139.71,4,Joaquin Montes,Harlingen South,136.08,122.47,83.91,142.88,349.27,Single-ply,SBD,M,
Boys,139.71+,1,Mattingly Ty,Harlingen South,158.76,183.7,124.74,174.63,483.08,Single-ply,SBD,M,
