Division,WeightClassKg,Place,Name,Team,BodyweightKg,Best3SquatKg,Best3BenchKg,Best3DeadliftKg,TotalKg,Equipment,Event,Sex,BirthDate
Boys,67.13,1,Christopher Ortiz,Waller,62.23,124.74,79.38,117.93,322.05,Single-ply,SBD,M,
Boys,74.84,1,Adam Vance,Waller,73.66,161.03,97.52,170.1,428.64,Single-ply,SBD,M,
Boys,74.84,2,Riley Paschke,Waller,73.48,115.67,108.86,136.08,360.61,Single-ply,SBD,M,
Boys,82.1,1,Tayshawn Wilson,Katy Mayde Creek,77.84,188.24,124.74,210.92,523.9,Single-ply,SBD,M,
Boys,82.1,2,Braden Turner,Katy Mayde Creek,81.74,190.51,108.86,204.12,503.49,Single-ply,SBD,M,
Boys,82.1,3,Ryan Chim,Waller,76.2,158.76,88.45,170.1,417.3,Single-ply,SBD,M,
Boys,82.1,4,Victor Pacheco,Waller,79.11,142.88,92.99,136.08,371.95,Single-ply,SBD,M,
Boys,89.81,1,Donovan McKey,Katy Mayde Creek,89.81,204.12,117.93,249.48,571.53,Single-ply,SBD,M,
Boys,89.81,2,Blane Cumberledge,Waller,86.45,133.81,74.84,149.69,358.34,Single-ply,SBD,M,
Boys,89.81,3,Joshua Harris,Waller,84.37,129.27,77.11,147.42,353.8,Single-ply,SBD,M,
Boys,99.79,1,Nick Johnson,Katy Mayde Creek,93.8,195.04,120.2,188.24,503.49,Single-ply,SBD,M,
Boys,99.79,2,Nicolas Buena,Katy Mayde Creek,95.62,185.97,113.4,188.24,487.61,Single-ply,SBD,M,
Boys,99.79,3,Kenta Poole,Waller,98.07,158.76,106.59,172.37,437.72,Single-ply,SBD,M,
Boys,99.79,4,Tashawn Justice,Waller,90.63,149.69,81.65,192.78,424.11,Single-ply,SBD,M,
Boys,99.79,5,El Grande Gunner,Waller,92.35,147.42,74.84,156.49,378.75,Single-ply,SBD,M,
Boys,99.79,6,Branson Bean,Waller,91.35,133.81,83.91,158.76,376.48,Single-ply,SBD,M,
Boys,109.77,1,Chidi Adighibe,Katy Mayde Creek,106.59,251.74,145.15,226.8,623.69,Single-ply,SBD,M,
Boys,124.74,1,Manuel Acosta,Katy Mayde Creek,111.95,201.85,113.4,206.38,521.63,Single-ply,SBD,M,
Boys,124.74,2,Alexis Mendez,Katy Mayde Creek,123.92,192.78,113.4,158.76,464.93,Single-ply,SBD,M,
Boys,124.74,3,Alex Alvarenga,Waller,124.19,165.56,129.27,170.1,464.93,Single-ply,SBD,M,
Boys,139.71,1,Arturo Fuentes,Katy Mayde Creek,134.9,251.74,117.93,172.37,542.04,Single-ply,SBD,M,
Boys,139.71,2,Emiliano Gonzales,Katy Mayde Creek,126.92,219.99,122.47,183.7,526.17,Single-ply,SBD,M,
