Division,WeightClassKg,Place,Name,Team,BodyweightKg,Best3SquatKg,Best3BenchKg,Best3DeadliftKg,TotalKg,Equipment,Event,Sex
Boys,51.71,1,Tony Romero,Troy,51.53,113.4,72.57,131.54,317.51,Single-ply,SBD,M
Boys,51.71,2,Tanner Blackwell,Gatesville,51.26,102.06,56.7,124.74,283.5,Single-ply,SBD,M
Boys,51.71,3,Lane Fikes,Robinson,50.35,88.45,61.23,124.74,274.42,Single-ply,SBD,M
Boys,51.71,4,Chris Fehlman,McGregor,45.9,99.79,61.23,90.72,251.74,Single-ply,SBD,M
Boys,51.71,5,Pablo Avalos,West,46.36,95.25,54.43,83.91,233.6,Single-ply,SBD,M
Boys,51.71,6,Mason Johnson,China Spring,48.63,74.84,47.63,92.99,215.46,Single-ply,SBD,M
Boys,51.71,7,Jesus Tonche,Waco Connally,51.17,79.38,47.63,88.45,215.46,Single-ply,SBD,M
Boys,51.71,8,James Griffith,Whitney,47.72,61.23,34.02,86.18,181.44,Single-ply,SBD,M
Boys,51.71,9,Curtis Evans,Riesel,45.81,74.84,34.02,63.5,172.37,Single-ply,SBD,M
Boys,51.71,10,Lucas Price,Riesel,42.18,63.5,27.22,72.57,163.29,Single-ply,SBD,M
Boys,55.79,1,Andrew Knight,Robinson,54.88,147.42,81.65,154.22,383.29,Single-ply,SBD,M
Boys,55.79,2,Tommy Alford,West,55.16,142.88,83.91,142.88,369.68,Single-ply,SBD,M
Boys,55.79,3,Josh McCraw,Gatesville,54.52,124.74,70.31,129.27,324.32,Single-ply,SBD,M
Boys,55.79,4,Garrett Thompson,Fairfield,53.8,115.67,74.84,111.13,301.64,Single-ply,SBD,M
Boys,55.79,5,Jd Nino,West,53.34,113.4,70.31,104.33,288.03,Single-ply,SBD,M
Boys,55.79,6,Luke Dyer,Gatesville,54.79,106.59,63.5,117.93,288.03,Single-ply,SBD,M
Boys,55.79,7,Steven Foster,Riesel,53.25,83.91,56.7,113.4,254.01,Single-ply,SBD,M
Boys,67.13,1,Alex Leos,Robinson,59.96,161.03,97.52,163.29,421.84,Single-ply,SBD,M
Boys,59.87,2,Diego Padron,Waco Connally,57.79,140.61,70.31,161.03,371.95,Single-ply,SBD,M
Boys,59.87,3,Tulio Cordon,Fairfield,59.69,131.54,81.65,140.61,353.8,Single-ply,SBD,M
Boys,59.87,4,Tyler Kaminski,Riesel,58.97,117.93,90.72,131.54,340.19,Single-ply,SBD,M
Boys,67.13,5,Garrett Harvey,Whitney,60.1,124.74,79.38,136.08,340.19,Single-ply,SBD,M
Boys,59.87,6,Josh Dodds,Fairfield,57.06,106.59,83.91,113.4,303.91,Single-ply,SBD,M
Boys,59.87,7,Jared Fossett,Clifton,58.06,68.04,49.9,113.4,231.33,Single-ply,SBD,M
Boys,67.13,1,Eric Wallace,Riesel,65.5,192.78,102.06,215.46,510.29,Single-ply,SBD,M
Boys,74.84,2,Matthew Maley,Crawford,67.22,201.85,104.33,204.12,510.29,Single-ply,SBD,M
Boys,67.13,3,Michael Hammond,Whitney,66.77,165.56,97.52,181.44,444.52,Single-ply,SBD,M
Boys,67.13,4,Nathan Kalil,China Spring,64.86,158.76,102.06,163.29,424.11,Single-ply,SBD,M
Boys,67.13,5,Drew Perry,Robinson,65.32,147.42,108.86,167.83,424.11,Single-ply,SBD,M
Boys,67.13,6,Jesus Jaimes,Riesel,63.23,145.15,108.86,167.83,421.84,Single-ply,SBD,M
Boys,67.13,7,Stephen Mitchell,Robinson,63.96,149.69,83.91,165.56,399.16,Single-ply,SBD,M
Boys,67.13,8,David Butler #5,Robinson,65.59,149.69,81.65,167.83,399.16,Single-ply,SBD,M
Boys,67.13,9,Johnathan Whatley,Crawford,64.23,142.88,92.99,161.03,396.89,Single-ply,SBD,M
Boys,67.13,10,J'Earl Jefferson,Waco Connally,66.59,165.56,70.31,161.03,396.89,Single-ply,SBD,M
Boys,67.13,11,Alex Shedd,Riesel,66.13,136.08,88.45,167.83,392.36,Single-ply,SBD,M
Boys,67.13,12,Derek Bonner,Whitney,60.78,136.08,83.91,158.76,378.75,Single-ply,SBD,M
Boys,67.13,13,Alec Cagle,China Spring,67.04,124.74,83.91,147.42,356.07,Single-ply,SBD,M
Boys,67.13,14,Hunter Wallace #3,Clifton,63.96,108.86,77.11,158.76,344.73,Single-ply,SBD,M
Boys,67.13,15,Layne Crosthwaite,Clifton,60.6,122.47,70.31,147.42,340.19,Single-ply,SBD,M
Boys,67.13,16,Jaen Lopez,Clifton,64.59,136.08,65.77,124.74,326.59,Single-ply,SBD,M
Boys,67.13,17,Jay Roberson,Fairfield,63.87,113.4,74.84,136.08,324.32,Single-ply,SBD,M
Boys,67.13,18,Kolby Webre,West,66.86,113.4,74.84,136.08,324.32,Single-ply,SBD,M
Boys,67.13,19,Brady Baker,Riesel,62.23,113.4,58.97,136.08,308.44,Single-ply,SBD,M
Boys,67.13,20,Jake Fedler,McGregor,65.14,127.01,61.23,120.2,308.44,Single-ply,SBD,M
Boys,67.13,21,Braxton Skipper,McGregor,66.32,113.4,68.04,120.2,301.64,Single-ply,SBD,M
Boys,67.13,22,Cody Kemp,Waco Connally,64.41,102.06,63.5,120.2,285.76,Single-ply,SBD,M
Boys,67.13,23,Tyler Jaynes,Gatesville,62.23,86.18,52.16,129.27,267.62,Single-ply,SBD,M
Boys,74.84,1,Trent Stiles,Riesel,74.3,226.8,181.44,226.8,635.03,Single-ply,SBD,M
Boys,74.84,2,Dustin Dorris,Crawford,69.04,231.33,122.47,197.31,551.11,Single-ply,SBD,M
Boys,74.84,3,Colt Sehon,Robinson,69.76,195.04,117.93,185.97,498.95,Single-ply,SBD,M
Boys,74.84,4,Hunter Fritscher,Crawford,71.85,188.24,113.4,197.31,498.95,Single-ply,SBD,M
Boys,74.84,5,Jarmell Garrett,Whitney,68.76,192.78,102.06,192.78,487.61,Single-ply,SBD,M
Boys,74.84,6,Jose Hernandez #20,China Spring,71.03,161.03,108.86,174.63,444.52,Single-ply,SBD,M
Boys,74.84,7,Arthur Jackson,Hearne,71.67,154.22,90.72,197.31,442.25,Single-ply,SBD,M
Boys,74.84,8,Chris Castilleja,Hearne,74.3,156.49,99.79,163.29,419.57,Single-ply,SBD,M
Boys,74.84,9,Chris Sosebec,Whitney,67.68,154.22,104.33,158.76,417.3,Single-ply,SBD,M
Boys,74.84,10,Jacob Cain,Fairfield,74.66,158.76,83.91,158.76,401.43,Single-ply,SBD,M
Boys,82.1,11,Chase Taylor,Gatesville,74.93,140.61,95.25,163.29,399.16,Single-ply,SBD,M
Boys,82.1,12,Stetson Jaske,Moody,74.93,133.81,90.72,165.56,390.09,Single-ply,SBD,M
Boys,74.84,13,Budazypha Farmer,Troy,74.03,140.61,104.33,142.88,387.82,Single-ply,SBD,M
Boys,74.84,14,Zack Meador,West,74.39,133.81,86.18,154.22,374.21,Single-ply,SBD,M
Boys,82.1,15,Michael Jackson,Riesel,74.93,124.74,74.84,147.42,347,Single-ply,SBD,M
Boys,74.84,16,John Snider,McGregor,69.31,133.81,81.65,129.27,344.73,Single-ply,SBD,M
Boys,74.84,17,Dustin McDonald,Riesel,69.49,136.08,83.91,124.74,344.73,Single-ply,SBD,M
Boys,74.84,18,Jacob Strickland,Whitney,68.76,124.74,68.04,124.74,317.51,Single-ply,SBD,M
Boys,74.84,19,Clay Skiff,Gatesville,69.49,111.13,68.04,129.27,308.44,Single-ply,SBD,M
Boys,74.84,DQ,Jeremy Tanner,Riesel,68.67,120.2,70.31,147.42,,Single-ply,SBD,M
Boys,74.84,DQ,Logan Wornat,Riesel,72.57,122.47,63.5,122.47,,Single-ply,SBD,M
Boys,74.84,DQ,Corey Schroder,Riesel,70.67,154.22,,,,Single-ply,SBD,M
Boys,82.1,DQ,Cooper Crum,Riesel,75.02,,,,,Single-ply,SBD,M
Boys,74.84,DQ,Jacob Martinez,Hearne,72.48,145.15,,,,Single-ply,SBD,M
Boys,74.84,DQ,Josh O'Brien,Fairfield,73.94,106.59,,,,Single-ply,SBD,M
Boys,82.1,1,Lamar O'Brien,Fairfield,79.83,206.38,127.01,206.38,539.77,Single-ply,SBD,M
Boys,82.1,2,Chris Garland,West,81.47,204.12,102.06,179.17,485.34,Single-ply,SBD,M
Boys,82.1,3,Casey Baugh,West,81.19,161.03,99.79,199.58,460.4,Single-ply,SBD,M
Boys,82.1,4,Jared McNamara,Moody,81.28,185.97,88.45,179.17,453.59,Single-ply,SBD,M
Boys,82.1,5,Aaron Hernandez,Troy,80.47,165.56,111.13,174.63,451.32,Single-ply,SBD,M
Boys,82.1,6,Blake Glenn,Waco Connally,75.39,174.63,106.59,163.29,444.52,Single-ply,SBD,M
Boys,82.1,7,Colton Lynch,Crawford,75.98,167.83,92.99,174.63,435.45,Single-ply,SBD,M
Boys,82.1,8,Dustin McLaren,Gatesville,81.1,158.76,97.52,174.63,430.91,Single-ply,SBD,M
Boys,82.1,9,Michael Gonzales,Crawford,78.47,179.17,86.18,161.03,426.38,Single-ply,SBD,M
Boys,82.1,10,Cody Richmond,Clifton,75.75,127.01,102.06,181.44,410.5,Single-ply,SBD,M
Boys,82.1,11,Kade Munden,Clifton,76.66,120.2,83.91,147.42,351.53,Single-ply,SBD,M
Boys,82.1,12,Alan Hoeft,Riesel,75.3,124.74,74.84,136.08,335.66,Single-ply,SBD,M
Boys,82.1,DQ,Aaron Towns,Riesel,78.02,108.86,,,,Single-ply,SBD,M
Boys,89.81,1,Ty Caruso,Robinson,84.01,199.58,145.15,185.97,530.7,Single-ply,SBD,M
Boys,89.81,2,Matt Perkins,Waco Connally,85.55,204.12,106.59,217.72,528.44,Single-ply,SBD,M
Boys,89.81,3,Ali Cervantez,Riesel,87.54,181.44,127.01,215.46,523.9,Single-ply,SBD,M
Boys,89.81,4,Addsion Schmalriede,Crawford,88.09,181.44,95.25,181.44,458.13,Single-ply,SBD,M
Boys,89.81,5,Josh Barrett,China Spring,87.72,167.83,104.33,181.44,453.59,Single-ply,SBD,M
Boys,89.81,6,Taylor Fox,McGregor,86.18,181.44,97.52,167.83,446.79,Single-ply,SBD,M
Boys,89.81,7,Cody Sell,Fairfield,87.72,158.76,111.13,158.76,428.64,Single-ply,SBD,M
Boys,89.81,8,Ty Munro,Crawford,87.54,138.35,92.99,149.69,381.02,Single-ply,SBD,M
Boys,89.81,9,Brandon Luna,Troy,89.36,138.35,106.59,136.08,381.02,Single-ply,SBD,M
Boys,89.81,10,Joe Reddick,Riesel,86.55,147.42,77.11,136.08,360.61,Single-ply,SBD,M
Boys,89.81,11,Cody Knox,Waco Connally,84.55,115.67,61.23,120.2,297.1,Single-ply,SBD,M
Boys,89.81,12,Justin Wall,Waco Connally,86.91,106.59,61.23,111.13,278.96,Single-ply,SBD,M
Boys,89.81,DQ,Talon Clift,Clifton,85.82,,,,,Single-ply,SBD,M
Boys,99.79,1,Andrew Taylor,Troy,90.72,188.24,149.69,226.8,564.72,Single-ply,SBD,M
Boys,99.79,2,Jacob McNamara,Moody,97.07,249.48,115.67,183.7,548.85,Single-ply,SBD,M
Boys,99.79,3,Ryan Wilkinson,Fairfield,95.25,181.44,124.74,206.38,512.56,Single-ply,SBD,M
Boys,99.79,4,Chris Johnson #13,Waco Connally,94.8,195.04,120.2,181.44,496.68,Single-ply,SBD,M
Boys,99.79,5,Tyler Fadal,Riesel,91.63,208.65,136.08,147.42,492.15,Single-ply,SBD,M
Boys,99.79,6,Patrick Martin,China Spring,95.71,181.44,127.01,181.44,489.88,Single-ply,SBD,M
Boys,99.79,7,Matt Meador,Gatesville,91.99,181.44,108.86,192.78,483.08,Single-ply,SBD,M
Boys,99.79,8,Dillon Dumas,China Spring,91.63,158.76,120.2,167.83,446.79,Single-ply,SBD,M
Boys,99.79,9,Garrett Evans,Clifton,99.7,165.56,97.52,165.56,428.64,Single-ply,SBD,M
Boys,99.79,10,Jonathan Hefelfinger,Riesel,96.62,163.29,92.99,136.08,392.36,Single-ply,SBD,M
Boys,99.79,11,Weston Adams,Riesel,94.35,138.35,72.57,145.15,356.07,Single-ply,SBD,M
Boys,99.79,12,Josh Dragoo,Troy,90.72,136.08,72.57,117.93,326.59,Single-ply,SBD,M
Boys,99.79,13,Scott Tucker,McGregor,95.25,129.27,74.84,102.06,306.17,Single-ply,SBD,M
Boys,109.77,1,Brett Blackburn,McGregor,100.7,210.92,142.88,204.12,557.92,Single-ply,SBD,M
Boys,109.77,2,Brock Eggleston,Fairfield,107.5,204.12,154.22,188.24,546.58,Single-ply,SBD,M
Boys,109.77,3,Colton Koch,West,100.79,204.12,106.59,204.12,514.83,Single-ply,SBD,M
Boys,109.77,4,Nick Mackay,Gatesville,103.87,199.58,120.2,181.44,501.22,Single-ply,SBD,M
Boys,109.77,5,Justin Ingram,China Spring,107.41,190.51,122.47,185.97,498.95,Single-ply,SBD,M
Boys,109.77,6,Dillon Alligood,West,100.79,183.7,106.59,204.12,494.42,Single-ply,SBD,M
Boys,109.77,7,Michael Robinson,McGregor,101.6,192.78,115.67,172.37,480.81,Single-ply,SBD,M
Boys,109.77,8,Brady Westerfield,Crawford,109.04,158.76,111.13,154.22,424.11,Single-ply,SBD,M
Boys,109.77,9,Senn Harvey,Clifton,107.86,136.08,111.13,165.56,412.77,Single-ply,SBD,M
Boys,109.77,10,Jacob Westerfield,Crawford,104.05,165.56,83.91,158.76,408.23,Single-ply,SBD,M
Boys,124.74,11,Tyler Swenson,Clifton,109.86,140.61,97.52,158.76,396.89,Single-ply,SBD,M
Boys,109.77,12,Chris Sauders,Whitney,109.77,145.15,95.25,136.08,376.48,Single-ply,SBD,M
Boys,109.77,13,Trey Smith,Clifton,109.13,142.88,83.91,138.35,365.14,Single-ply,SBD,M
Boys,124.74,1,Ethan Langdale,Riesel,118.3,272.16,154.22,217.72,644.1,Single-ply,SBD,M
Boys,124.74,2,Tyler Klander,West,114.31,249.48,136.08,226.8,612.35,Single-ply,SBD,M
Boys,124.74,3,John Burgan,Gatesville,116.57,208.65,136.08,226.8,571.53,Single-ply,SBD,M
Boys,124.74,4,Austin Pierce,Waco Connally,110.5,226.8,124.74,195.04,546.58,Single-ply,SBD,M
Boys,124.74,5,Casey Stripling,Riesel,111.67,204.12,129.27,213.19,546.58,Single-ply,SBD,M
Boys,124.74,6,Augie Hinijosa,Whitney,124.74,188.24,113.4,219.99,521.63,Single-ply,SBD,M
Boys,124.74,7,Ridley Colton,Gatesville,113.67,181.44,117.93,154.22,453.59,Single-ply,SBD,M
Boys,124.74,8,Chase Kuykendall,Robinson,114.03,195.04,95.25,163.29,453.59,Single-ply,SBD,M
Boys,124.74,9,Andy McNew,Robinson,116.75,156.49,104.33,149.69,410.5,Single-ply,SBD,M
Boys,124.74,10,Wesley Hargrove,Moody,117.03,104.33,81.65,142.88,328.85,Single-ply,SBD,M
Boys,124.74+,1,Lance Adkins,West,139.71,226.8,142.88,215.46,585.13,Single-ply,SBD,M
Boys,124.74+,2,Michael Lesly,Whitney,140.16,260.82,108.86,204.12,573.79,Single-ply,SBD,M
Boys,124.74+,3,Garrett Boyd,China Spring,143.7,204.12,147.42,199.58,551.11,Single-ply,SBD,M
Boys,124.74+,4,Shane Murphy,Robinson,144.15,224.53,127.01,179.17,530.7,Single-ply,SBD,M
Boys,124.74+,5,Eden Richardson,Fairfield,130.63,181.44,140.61,181.44,503.49,Single-ply,SBD,M
Boys,124.74+,6,Brian Pullen,China Spring,126.1,195.04,111.13,158.76,464.93,Single-ply,SBD,M
Boys,124.74+,7,Tanner Finley,Whitney,136.08,170.1,113.4,163.29,446.79,Single-ply,SBD,M
Boys,124.74+,DQ,Matt Bruce,China Spring,142.88,,,,,Single-ply,SBD,M
