Division,WeightClassKg,Place,Name,Team,BodyweightKg,Best3SquatKg,Best3BenchKg,Best3DeadliftKg,TotalKg,Equipment,Event,Sex,BirthDate
Boys,51.71,1,Landon Caudle,Maud,51.71,97.52,63.5,117.93,278.96,Single-ply,SBD,M,
Boys,51.71,2,Keyshawn McDade,New Boston,49.8,92.99,54.43,106.59,254.01,Single-ply,SBD,M,
Boys,51.71,3,Jd Allen,New Boston,50.8,79.38,43.09,92.99,215.46,Single-ply,SBD,M,
Boys,51.71,DQ,Aden Luna,Ore City,51.71,,,,,Single-ply,SBD,M,
Boys,55.79,1,Isaiah O'Neal,Gladewater Union Grove,55.79,140.61,72.57,140.61,353.8,Single-ply,SBD,M,
Boys,55.79,2,Devin Walker,New Boston,54.98,104.33,58.97,115.67,278.96,Single-ply,SBD,M,
Boys,59.87,1,Avery Whitlow,Atlanta,57.7,170.1,83.91,176.9,430.91,Single-ply,SBD,M,
Boys,59.87,2,Thomas Morris,Omaha Pewitt,59.87,147.42,81.65,142.88,371.95,Single-ply,SBD,M,
Boys,59.87,3,Amaryon Jones,New Boston,58.06,115.67,58.97,147.42,322.05,Single-ply,SBD,M,
Boys,59.87,DQ,Karson Owen,Mount Pleasant Chapel Hill,59.87,,,,,Single-ply,SBD,M,
Boys,59.87,DQ,Seth Hicks,Hughes Springs,58.6,149.69,72.57,,,Single-ply,SBD,M,
Boys,59.87,DQ,Devin Espinoza,Gilmer Union Hill,59.6,,,,,Single-ply,SBD,M,
Boys,59.87,DQ,Caleb Simmons,Gilmer Union Hill,59.42,,,,,Single-ply,SBD,M,
Boys,67.13,1,Leo Cornejo,Gilmer Union Hill,66.41,154.22,111.13,174.63,439.98,Single-ply,SBD,M,
Boys,67.13,2,Lane Davis,Mount Pleasant Chapel Hill,64.68,163.29,102.06,163.29,428.64,Single-ply,SBD,M,
Boys,67.13,3,Kyle Ritter,Ore City,66.41,161.03,90.72,176.9,428.64,Single-ply,SBD,M,
Boys,67.13,4,Mason Windham,Redwater,67.13,156.49,81.65,165.56,403.7,Single-ply,SBD,M,
Boys,67.13,5,James Evans,Gladewater Union Grove,66.32,156.49,90.72,154.22,401.43,Single-ply,SBD,M,
Boys,67.13,6,Nicholas Johnson,White Oak,67.13,158.76,90.72,149.69,399.16,Single-ply,SBD,M,
Boys,67.13,7,Braden Wiley,Queen City,61.87,140.61,92.99,163.29,396.89,Single-ply,SBD,M,
Boys,67.13,8,Logan Brock,Redwater,67.13,149.69,99.79,136.08,385.55,Single-ply,SBD,M,
Boys,67.13,9,Matt Massingill,Gilmer Union Hill,67.13,122.47,92.99,158.76,374.21,Single-ply,SBD,M,
Boys,67.13,10,Austin Phelps,Atlanta,65.77,129.27,83.91,147.42,360.61,Single-ply,SBD,M,
Boys,67.13,11,Daniel Dunn,Gilmer Union Hill,66.13,113.4,79.38,161.03,353.8,Single-ply,SBD,M,
Boys,67.13,12,Micah Whittington,Queen City,61.33,111.13,61.23,120.2,292.57,Single-ply,SBD,M,
Boys,67.13,DQ,Carter Smith,Gladewater Union Grove,66.86,,,,,Single-ply,SBD,M,
Boys,74.84,1,Jayke Bass,Gilmer Union Hill,74.84,201.85,147.42,208.65,557.92,Single-ply,SBD,M,
Boys,74.84,2,Chase Mays,Mount Pleasant Chapel Hill,73.66,181.44,124.74,222.26,528.44,Single-ply,SBD,M,
Boys,74.84,3,Delvon Federick,Queen City,74.84,195.04,99.79,213.19,508.02,Single-ply,SBD,M,
Boys,74.84,4,Garrison Conner,Diana New Diana,74.3,185.97,113.4,204.12,503.49,Single-ply,SBD,M,
Boys,74.84,5,Tristian Lee,Maud,74.71,170.1,117.93,204.12,492.15,Single-ply,SBD,M,
Boys,74.84,6,Christian Nard,Queen City,73.12,183.7,102.06,190.51,476.27,Single-ply,SBD,M,
Boys,74.84,7,Kaden Satterfield,Queen City,72.48,170.1,97.52,174.63,442.25,Single-ply,SBD,M,
Boys,74.84,8,Mason Byers,Gladewater Union Grove,74.84,149.69,97.52,156.49,403.7,Single-ply,SBD,M,
Boys,74.84,9,Jasper Giles,Gilmer Union Hill,72.76,136.08,92.99,167.83,396.89,Single-ply,SBD,M,
Boys,74.84,10,Timothy Brady,Queen City,70.4,133.81,65.77,149.69,349.27,Single-ply,SBD,M,
Boys,74.84,DQ,Ethan Evans,Simms Bowie,74.84,167.83,113.4,,,Single-ply,SBD,M,
Boys,82.1,1,Jake Murray,Hughes Springs,80.1,195.04,122.47,215.46,532.97,Single-ply,SBD,M,
Boys,82.1,2,Vinny Miller,Gladewater Union Grove,78.47,185.97,136.08,181.44,503.49,Single-ply,SBD,M,
Boys,82.1,3,Xavier Nash,Atlanta,79.29,183.7,108.86,190.51,483.08,Single-ply,SBD,M,
Boys,82.1,4,Jonah Sanchez,New Boston,81.92,163.29,111.13,181.44,455.86,Single-ply,SBD,M,
Boys,82.1,5,Clint Wooding,Queen City,76.02,161.03,95.25,181.44,437.72,Single-ply,SBD,M,
Boys,82.1,6,Shawn Veal,New Boston,79.74,167.83,79.38,170.1,417.3,Single-ply,SBD,M,
Boys,82.1,7,Kaeson Watts,New Boston,76.84,142.88,102.06,163.29,408.23,Single-ply,SBD,M,
Boys,82.1,8,Trace Goforth,Omaha Pewitt,81.01,138.35,72.57,181.44,392.36,Single-ply,SBD,M,
Boys,82.1,DQ,Jaymari Howard,Atlanta,77.11,,,,,Single-ply,SBD,M,
Boys,82.1,DQ,Macen Clark,Gilmer Union Hill,81.56,190.51,,,,Single-ply,SBD,M,
Boys,89.81,1,Wesley Kennedy,Atlanta,84.91,165.56,88.45,183.7,437.72,Single-ply,SBD,M,
Boys,89.81,2,John Murphree,Omaha Pewitt,87.91,136.08,88.45,113.4,337.93,Single-ply,SBD,M,
Boys,89.81,3,Dustin Nevels,Omaha Pewitt,88.9,136.08,81.65,120.2,337.93,Single-ply,SBD,M,
Boys,89.81,DQ,Josh Joyner,Gladewater Union Grove,89.09,129.27,,,,Single-ply,SBD,M,
Boys,89.81,DQ,David McGhee,Gilmer Union Hill,89.81,156.49,88.45,,,Single-ply,SBD,M,
Boys,99.79,1,Cole Edwards,Hughes Springs,96.98,226.8,151.95,226.8,605.55,Single-ply,SBD,M,
Boys,99.79,2,Caron Whitworth,Diana New Diana,98.43,215.46,129.27,226.8,571.53,Single-ply,SBD,M,
Boys,99.79,3,Tyler Rodgers,Gladewater Union Grove,96.52,204.12,124.74,185.97,514.83,Single-ply,SBD,M,
Boys,99.79,4,Dylan Braley,Simms Bowie,97.07,192.78,111.13,176.9,480.81,Single-ply,SBD,M,
Boys,99.79,DQ,Eddy Magdaleno,Waskom,96.98,,,,,Single-ply,SBD,M,
Boys,99.79,DQ,Tommy Branscom,Gladewater Union Grove,99.16,147.42,,,,Single-ply,SBD,M,
Boys,99.79,DQ,Isaiah Harrison,Atlanta,94.26,,,,,Single-ply,SBD,M,
Boys,99.79,DQ,Nick Guel,Pittsburg,96.43,204.12,127.01,,,Single-ply,SBD,M,
Boys,109.77,1,Jaden Wells,Atlanta,108.59,238.14,156.49,251.74,646.37,Single-ply,SBD,M,
Boys,109.77,2,Keldrick Henderson,Pittsburg,103.51,204.12,113.4,181.44,498.95,Single-ply,SBD,M,
Boys,109.77,3,Tyson Bell,Queen City,108.14,156.49,95.25,185.97,437.72,Single-ply,SBD,M,
Boys,109.77,4,Connor Roche,Omaha Pewitt,105.96,165.56,83.91,183.7,433.18,Single-ply,SBD,M,
Boys,109.77,DQ,Jesse Gonzales,Mount Pleasant Chapel Hill,100.61,99.79,,,,Single-ply,SBD,M,
Boys,124.74,1,Jovanie Agundiz,Waskom,119.84,226.8,117.93,195.04,539.77,Single-ply,SBD,M,
Boys,124.74,2,Davonne Crocker,Atlanta,112.67,226.8,108.86,181.44,517.1,Single-ply,SBD,M,
Boys,124.74,3,Daniel Jones,Queen City,117.84,206.38,106.59,204.12,517.1,Single-ply,SBD,M,
Boys,124.74,4,Trevor Balk,Maud,112.49,195.04,142.88,176.9,514.83,Single-ply,SBD,M,
Boys,124.74,DQ,Ariel Briceno,Pittsburg,118.66,254.01,111.13,,,Single-ply,SBD,M,
Boys,124.74,DQ,Colton Wilson,Omaha Pewitt,112.22,,,,,Single-ply,SBD,M,
Boys,139.71,1,Austin Allen,Simms Bowie,128.91,185.97,106.59,167.83,460.4,Single-ply,SBD,M,
Boys,139.71,2,Morgan Thrapp,Mount Pleasant Chapel Hill,125.01,190.51,99.79,163.29,453.59,Single-ply,SBD,M,
Boys,139.71,3,Corbyn Wilson,Atlanta,135.44,165.56,117.93,170.1,453.59,Single-ply,SBD,M,
Boys,139.71,DQ,Carlos Cortes,Atlanta,125.55,233.6,115.67,,,Single-ply,SBD,M,
Boys,139.71+,1,Jon Tatum,Ore City,150.77,240.4,158.76,195.04,594.21,Single-ply,SBD,M,
Boys,139.71+,2,Rylie Culpepper,Maud,139.98,158.76,90.72,172.37,421.84,Single-ply,SBD,M,
Boys,139.71+,3,Dakota Fowler,New Boston,148.23,104.33,61.23,102.06,267.62,Single-ply,SBD,M,
Boys,139.71+,DQ,Sylas Hollins,Redwater,151.77,181.44,,,,Single-ply,SBD,M,
