Place,Name,State,WeightClassKg,BodyweightKg,BirthDate,Age,Squat1Kg,Squat2Kg,Squat3Kg,Best3SquatKg,Bench1Kg,Bench2Kg,Bench3Kg,Best3BenchKg,Deadlift1Kg,Deadlift2Kg,Deadlift3Kg,Best3DeadliftKg,TotalKg,Bench4Kg,Deadlift4Kg,Event,Equipment,Sex,Division,Tested
1,Victoria Wahl,NM,52,51.1,,18,85,92.5,-97.5,92.5,45,52.5,-57.5,52.5,105,110,115,115,260,,,SBD,Raw,F,Juniors 18-19,Yes
1,Cynthia Adams,OH,52,51.1,,22,82.5,-87.5,87.5,87.5,45,52.5,-55,52.5,110,112.5,122.5,122.5,262.5,,,SBD,Raw,F,Juniors 20-23,Yes
1,Gabi Farris,OH,56,54.9,,17,137.5,142.5,147.5,147.5,72.5,77.5,80,80,140,142.5,147.5,147.5,375,,,SBD,Raw,F,Juniors 16-17,Yes
1,Cassandra Beattie,KS,56,53.8,,23,122.5,-130,-130,122.5,-72.5,72.5,77.5,77.5,142.5,-147.5,-147.5,142.5,342.5,,,SBD,Raw,F,Juniors 20-23,Yes
1,Sophia Gentile,PA,60,56.4,,16,125,127.5,-140,127.5,75,77.5,-80,77.5,105,110,117.5,117.5,322.5,,,SBD,Raw,F,Juniors 16-17,Yes
2,Millie McNamara,OH,60,60,,17,82.5,92.5,102.5,102.5,52.5,57.5,-60,57.5,110,-132.5,132.5,132.5,292.5,,,SBD,Raw,F,Juniors 16-17,Yes
1,Lucy Somervill,VA,60,59.4,,19,115,120,-125,120,-65,65,-71,65,140,148.5,152.5,152.5,337.5,,,SBD,Raw,F,Juniors 18-19,Yes
1,Antoinette Iwuagwu,OH,60,58.9,,21,145,152.5,-160.5,152.5,72.5,77.5,-80,77.5,170,-182.5,-182.5,170,400,,,SBD,Raw,F,Juniors 20-23,Yes
2,Megan Kaus,OR,60,59.3,,22,-147.5,-147.5,147.5,147.5,60,-65,-65,60,152.5,160,170,170,377.5,,,SBD,Raw,F,Juniors 20-23,Yes
3,Emma Benz,OH,60,59.2,,20,102.5,110,-112.5,110,60,65,67.5,67.5,125,130,137.5,137.5,315,,,SBD,Raw,F,Juniors 20-23,Yes
1,Maddie Macchi,GA,67.5,66.4,,20,137.5,-142.5,142.5,142.5,75,80,-85,80,175,187.5,-192.5,187.5,410,,,SBD,Raw,F,Juniors 20-23,Yes
1,Penelope Franklin,VA,75,74,,19,97.5,102.5,105,105,-62.5,62.5,-65,62.5,130,-135,-135,130,297.5,,,SBD,Raw,F,Juniors 18-19,Yes
1,Sierra Smith #1,WI,82.5,81.2,,17,127.5,140,145.5,145.5,67.5,72.5,-77.5,72.5,145,155,165.5,165.5,383.5,,,SBD,Raw,F,Juniors 16-17,Yes
1,Grace Thomas #1,IN,82.5,76.2,,22,137.5,142.5,-145,142.5,67.5,70,-72.5,70,152.5,157.5,,157.5,370,,,SBD,Raw,F,Juniors 20-23,Yes
1,Helen Murphy,OH,90,85,,16,145,152.5,-165,152.5,65,70,72.5,72.5,137.5,145.5,-157.5,145.5,370.5,,,SBD,Raw,F,Juniors 16-17,Yes
2,Whitney Farrell,VA,90,86.3,,17,117.5,-127.5,-127.5,117.5,55,-60,-60,55,137.5,147.5,158,158,330.5,,,SBD,Raw,F,Juniors 16-17,Yes
1,Kelly Ikalina,PA,90,87.7,,22,150,-160,-160,150,65,70,72.5,72.5,160,175,-185,175,397.5,,,SBD,Raw,F,Juniors 20-23,Yes
2,Olivia Fenner,OH,90,87.9,,21,-112.5,115,122.5,122.5,75,82.5,-85,82.5,155,170,-182.5,170,375,,,SBD,Raw,F,Juniors 20-23,Yes
1,Kaitlin Young,NM,90+,132.8,,23,142.5,152.5,165,165,85,90,95,95,175,190,-192.5,190,450,,,SBD,Raw,F,Juniors 20-23,Yes
1,Roxann Rhodes,NJ,48,47.5,,27,102.5,107.5,115,115,65,67.5,70,70,120,130,-135,130,315,,,SBD,Raw,F,Open,Yes
2,Christina Ngo,VA,48,46.7,,25,102.5,107.5,112.5,112.5,47.5,52.5,-55,52.5,125,135,140,140,305,,,SBD,Raw,F,Open,Yes
3,Beth Underhill,OH,48,45.5,,51,82.5,87.5,92.5,92.5,55,-57.5,57.5,57.5,115,-120,-120,115,265,,,SBD,Raw,F,Open,Yes
1,Jamie Silver,MD,52,49.8,,33,122.5,128,132.5,132.5,-55,55,-60,55,117.5,-122.5,-122.5,117.5,305,,,SBD,Raw,F,Open,Yes
2,Brittany Feinberg,TN,52,51.3,,34,117.5,-125,-125,117.5,-65,65,-67.5,65,120,-125,-125,120,302.5,,,SBD,Raw,F,Open,Yes
3,Meagan Nielsen,IA,52,51.8,,30,110,-120,-122.5,110,52.5,57.5,-62.5,57.5,107.5,117.5,-122.5,117.5,285,,,SBD,Raw,F,Open,Yes
4,Cynthia Adams,OH,52,51.1,,22,82.5,-87.5,87.5,87.5,45,52.5,-55,52.5,110,112.5,122.5,122.5,262.5,,,SBD,Raw,F,Open,Yes
5,Margie Haddon,TX,52,50.5,,58,85,-91.5,91.5,91.5,45,50.5,-53,50.5,102.5,108.5,-110.5,108.5,250.5,,,SBD,Raw,F,Open,Yes
1,Cassandra Beattie,KS,56,53.8,,23,122.5,-130,-130,122.5,-72.5,72.5,77.5,77.5,142.5,-147.5,-147.5,142.5,342.5,,,SBD,Raw,F,Open,Yes
2,Patti Coates,PA,56,55.6,,50,102.5,107.5,110,110,55,57.5,60,60,137.5,145,-150,145,315,,,SBD,Raw,F,Open,Yes
1,Stephanie Hanson,NJ,60,59.9,,28,125,135,140,140,-82.5,82.5,-87.5,82.5,167.5,180,185,185,407.5,,,SBD,Raw,F,Open,Yes
2,Antoinette Iwuagwu,OH,60,58.9,1998-10-13,21,145,152.5,-160.5,152.5,72.5,77.5,-80,77.5,170,-182.5,-182.5,170,400,,,SBD,Raw,F,Open,Yes
3,Rachel Davidson,OH,60,59.5,,26,127.5,132.5,-137.5,132.5,80,-85,-85,80,147.5,155,162.5,162.5,375,,,SBD,Raw,F,Open,Yes
4,Lindsey Taylor,NV,60,59,,31,120,127.5,132.5,132.5,72.5,77.5,80,80,135,142.5,145,145,357.5,,,SBD,Raw,F,Open,Yes
5,Rebecca Pell,PA,60,60,,27,-137.5,137.5,-145,137.5,62.5,-70,-70,62.5,145,150,152.5,152.5,352.5,,,SBD,Raw,F,Open,Yes
6,Elle Bandy,IL,60,59.6,,32,120,122.5,125,125,67.5,70,-72.5,70,140,145,147.5,147.5,342.5,,,SBD,Raw,F,Open,Yes
7,Lucy Somervill,VA,60,59.4,,19,115,120,-125,120,-65,65,-71,65,140,148.5,152.5,152.5,337.5,,,SBD,Raw,F,Open,Yes
8,Sophia Gentile,PA,60,56.4,,16,125,127.5,-140,127.5,75,77.5,-80,77.5,105,110,117.5,117.5,322.5,,,SBD,Raw,F,Open,Yes
9,Madison Gilfert,CO,60,58.6,,24,97.5,105,-110,105,62.5,70,-75,70,115,125,132.5,132.5,307.5,,,SBD,Raw,F,Open,Yes
10,Lisa Courtney,OH,60,58,,56,85,92.5,-95,92.5,-50,50,52.5,52.5,95,97.5,100,100,245,,,SBD,Raw,F,Open,Yes
DQ,Veronica Leynes,CA,60,59.6,,29,75,-82.5,-82.5,75,55,-60,-60,55,-122.5,-122.5,-122.5,,,,,SBD,Raw,F,Open,Yes
1,Kristen Robbins #1,IN,67.5,64.9,,27,150,160,-162.5,160,90,-93,-93,90,-160,160,175,175,425,,,SBD,Raw,F,Open,Yes
2,Maddie Macchi,GA,67.5,66.4,,20,137.5,-142.5,142.5,142.5,75,80,-85,80,175,187.5,-192.5,187.5,410,,,SBD,Raw,F,Open,Yes
3,Natasha Beasley,VA,67.5,66.3,,38,105,115,120,120,82.5,87.5,-92.5,87.5,167.5,175,183,183,390.5,,,SBD,Raw,F,Open,Yes
4,Dani Edgel,CO,67.5,64.3,,33,125,137.5,-140,137.5,-77.5,80,85,85,135,145,-152.5,145,367.5,,,SBD,Raw,F,Open,Yes
5,Samantha Terry,IN,67.5,65.3,,26,120,-132.5,132.5,132.5,65,70,-75,70,145,155,-162.5,155,357.5,,,SBD,Raw,F,Open,Yes
6,Breanna Meyer,MO,67.5,67,,30,122.5,-132.5,-132.5,122.5,62.5,67.5,70,70,142.5,150,160,160,352.5,,,SBD,Raw,F,Open,Yes
7,Kaitlin Haddad,NJ,67.5,65.4,,32,115,120,-127.5,120,-70,72.5,-75,72.5,130,137.5,-145,137.5,330,,,SBD,Raw,F,Open,Yes
8,Alexandria Toler,FL,67.5,67.1,,37,102.5,112.5,120,120,45,-52.5,-52.5,45,130,140,145,145,310,,,SBD,Raw,F,Open,Yes
9,Amanda Mowry,OH,67.5,65.5,,42,82.5,92.5,97.5,97.5,50,-55,57.5,57.5,120,130,135,135,290,,,SBD,Raw,F,Open,Yes
10,Danielle Skelly-Murphy,OH,67.5,67,,51,-82.5,87.5,-90,87.5,50,52.5,-55,52.5,85,90,-97.5,90,230,,,SBD,Raw,F,Open,Yes
1,Sharayah Johnson,OR,75,73,,29,155,160,-162.5,160,97.5,-102.5,-102.5,97.5,172.5,180,-182.5,180,437.5,,,SBD,Raw,F,Open,Yes
2,Crystal McCullough,NC,75,74.1,,44,-147.5,147.5,153,153,85.5,-88.5,-88.5,85.5,170,177.5,180,180,418.5,,,SBD,Raw,F,Open,Yes
3,Emily McAtee,OH,75,73,,29,-135,-137.5,137.5,137.5,67.5,70,-72.5,70,182.5,185,-190,185,392.5,,,SBD,Raw,F,Open,Yes
4,Madeline Churches,WI,75,74,,25,130,140,145,145,67.5,75,80,80,140,152.5,-165,152.5,377.5,,,SBD,Raw,F,Open,Yes
5,Erica Longo,PA,75,74.1,,28,125,135,-137.5,135,67.5,-72.5,-72.5,67.5,145,155,162.5,162.5,365,,,SBD,Raw,F,Open,Yes
6,Christina Burdette,VA,75,73.8,,36,125,130,137.5,137.5,67.5,70,75,75,140,147.5,-160,147.5,360,,,SBD,Raw,F,Open,Yes
7,Rebecca Morris,VA,75,73.4,,27,110,-117.5,117.5,117.5,65,-67.5,-67.5,65,142.5,152.5,-165,152.5,335,,,SBD,Raw,F,Open,Yes
1,Landri Peden,OH,82.5,79.7,,34,160,175,-177.5,175,102.5,-107.5,107.5,107.5,185,195,-202.5,195,477.5,,,SBD,Raw,F,Open,Yes
G,Adrian McDonald,GA,82.5,78.3,,38,150,155,-165,155,107.5,112.5,117.5,117.5,185,-195,-200,185,457.5,,,SBD,Raw,F,Open,Yes
2,Cydney Morehouse,KS,82.5,80.8,,23,140,150,157.5,157.5,87.5,-92.5,-92.5,87.5,180,187.5,-192.5,187.5,432.5,,,SBD,Raw,F,Open,Yes
3,Kerrie Montalvan,SC,82.5,75.7,,38,-157.5,160,-165,160,77.5,-85,-87.5,77.5,175,190,-195,190,427.5,,,SBD,Raw,F,Open,Yes
4,Keriann Marcum,IN,82.5,82.4,,26,137.5,-145,-145,137.5,92.5,-95,95,95,145,152.5,162.5,162.5,395,,,SBD,Raw,F,Open,Yes
5,Grace Thomas #1,IN,82.5,76.2,,22,137.5,142.5,-145,142.5,67.5,70,-72.5,70,152.5,157.5,,157.5,370,,,SBD,Raw,F,Open,Yes
6,Shari Langrall,WV,82.5,80.6,,48,120,125,127.5,127.5,67.5,70,72.5,72.5,157.5,162.5,165,165,365,,,SBD,Raw,F,Open,Yes
7,Michelle Logan,AR,82.5,80.2,,38,115,125,137.5,137.5,57.5,62.5,70,70,135,152.5,-160,152.5,360,,,SBD,Raw,F,Open,Yes
8,Kristin Armstrong,NC,82.5,81,,34,135,140,147.5,147.5,60,-65,-65,60,152.5,-162.5,-165,152.5,360,,,SBD,Raw,F,Open,Yes
9,Christina Ullman,OH,82.5,79.5,,49,112.5,-120,120,120,65,67.5,-70,67.5,140,145,-147.5,145,332.5,,,SBD,Raw,F,Open,Yes
1,Jillian Clark #1,MI,90,88.2,,30,165,172.5,-175,172.5,95,100,-102.5,100,162.5,170,172.5,172.5,445,,,SBD,Raw,F,Open,Yes
2,Amber Burns,KS,90,88.5,,32,155,162.5,167.5,167.5,82.5,-92.5,92.5,92.5,170,182.5,-187.5,182.5,442.5,,,SBD,Raw,F,Open,Yes
3,Liliana Correa,IL,90,87.9,,38,135,-145,-150,135,65,70,75,75,137.5,150,165,165,375,,,SBD,Raw,F,Open,Yes
4,Helen Murphy,OH,90,85,,16,145,152.5,-165,152.5,65,70,72.5,72.5,137.5,145.5,-157.5,145.5,370.5,,,SBD,Raw,F,Open,Yes
5,Danielle Valentine,MI,90,87.5,,43,-130,-130,130,130,60,65,-70,65,140,147.5,-155,147.5,342.5,,,SBD,Raw,F,Open,Yes
6,Alexandra Posada,FL,90,88.6,,26,112.5,120,-125,120,60,65,70,70,135,150,-155,150,340,,,SBD,Raw,F,Open,Yes
DQ,Denise Greene,OK,90,89.4,,30,207.5,-210,-210,207.5,95,100,105,105,-215,-215,-215,,,,,SBD,Raw,F,Open,Yes
1,Christie Hoffmeyer,AL,90+,118.5,,29,155,170,182.5,182.5,92.5,97.5,-110,97.5,207.5,215,-228,215,495,,,SBD,Raw,F,Open,Yes
2,Amber Pauley,WV,90+,117.5,,42,187.5,-200,-200,187.5,95,102.5,107.5,107.5,182.5,-195,-195,182.5,477.5,,,SBD,Raw,F,Open,Yes
3,Cara Boss,OH,90+,101.3,,27,-167.5,167.5,-182.5,167.5,100,110,-115,110,195,-215,-215,195,472.5,,,SBD,Raw,F,Open,Yes
4,Sarah Webb,TX,90+,122.4,,30,157.5,165,170,170,90,95,-100,95,170,180,190,190,455,,,SBD,Raw,F,Open,Yes
5,Carly Blair,CO,90+,103.2,,25,150,162.5,175,175,65,72.5,77.5,77.5,155,170,182.5,182.5,435,,,SBD,Raw,F,Open,Yes
6,DeAnn Mason,OH,90+,128.7,,45,142.5,147.5,165,165,75,82.5,-87.5,82.5,162.5,175.5,-177.5,175.5,423,,,SBD,Raw,F,Open,Yes
7,Heather Racine,IN,90+,116.4,,35,117.5,122.5,130,130,65,70,72.5,72.5,147.5,157.5,160,160,362.5,,,SBD,Raw,F,Open,Yes
1,Jennifer McGruder,OH,60,59.7,,36,82.5,87.5,92.5,92.5,50,52.5,55,55,100,105,112.5,112.5,260,,,SBD,Raw,F,Submasters 35-39,Yes
1,Natasha Beasley,VA,67.5,66.3,,38,105,115,120,120,82.5,87.5,-92.5,87.5,167.5,175,183,183,390.5,,,SBD,Raw,F,Submasters 35-39,Yes
2,Alexandria Toler,FL,67.5,67.1,,37,102.5,112.5,120,120,45,-52.5,-52.5,45,130,140,145,145,310,,,SBD,Raw,F,Submasters 35-39,Yes
1,Christina Burdette,VA,75,73.8,,36,125,130,137.5,137.5,67.5,70,75,75,140,147.5,-160,147.5,360,,,SBD,Raw,F,Submasters 35-39,Yes
1,Kerrie Montalvan,SC,82.5,75.7,,38,-157.5,160,-165,160,77.5,-85,-87.5,77.5,175,190,-195,190,427.5,,,SBD,Raw,F,Submasters 35-39,Yes
2,Rebecca Gray,OH,82.5,79.2,,37,120,125,132.5,132.5,62.5,-67.5,-67.5,62.5,137.5,147.5,160,160,355,,,SBD,Raw,F,Submasters 35-39,Yes
1,Liliana Correa,IL,90,87.9,,38,135,-145,-150,135,65,70,75,75,137.5,150,165,165,375,,,SBD,Raw,F,Submasters 35-39,Yes
2,Jennifer Ward,MO,90,89.7,,38,125,130,-137.5,130,65,70,75,75,130,137.5,142.5,142.5,347.5,,,SBD,Raw,F,Submasters 35-39,Yes
3,Jaime Schweers,NY,90,87.6,,37,100,-112.5,112.5,112.5,50,57.5,-60,57.5,130,142.5,-165,142.5,312.5,,,SBD,Raw,F,Submasters 35-39,Yes
1,Heather Racine,IN,90+,116.4,,35,117.5,122.5,130,130,65,70,72.5,72.5,147.5,157.5,160,160,362.5,,,SBD,Raw,F,Submasters 35-39,Yes
1,Beth Underhill,OH,48,45.5,,51,82.5,87.5,92.5,92.5,55,-57.5,57.5,57.5,115,-120,-120,115,265,,,SBD,Raw,F,Masters 50-54,Yes
1,Margie Haddon,TX,52,50.5,,58,85,-91.5,91.5,91.5,45,50.5,-53,50.5,102.5,108.5,-110.5,108.5,250.5,,,SBD,Raw,F,Masters 55-59,Yes
1,Camisha Noble,KY,56,54.6,,48,102.5,110,-112.5,110,65,-70,70,70,130,135,140,140,320,,,SBD,Raw,F,Masters 45-49,Yes
1,Patti Coates,PA,56,55.6,,50,102.5,107.5,110,110,55,57.5,60,60,137.5,145,-150,145,315,,,SBD,Raw,F,Masters 50-54,Yes
1,Karan Sanford-Taylor,GA,60,58.9,,54,75,80,87.5,87.5,52.5,57.5,-62.5,57.5,102.5,107.5,120,120,265,,122.5,SBD,Raw,F,Masters 50-54,Yes
2,Miriam Lawrence,VT,60,59.2,,53,-85,85,98,98,47.5,52.5,-55,52.5,90,100,107.5,107.5,258,,,SBD,Raw,F,Masters 50-54,Yes
1,Lisa Courtney,OH,60,58,,56,85,92.5,-95,92.5,-50,50,52.5,52.5,95,97.5,100,100,245,,,SBD,Raw,F,Masters 55-59,Yes
1,Amanda Mowry,OH,67.5,65.5,,42,82.5,92.5,97.5,97.5,50,-55,57.5,57.5,120,130,135,135,290,,,SBD,Raw,F,Masters 40-44,Yes
1,Charsell Kincaid,MI,67.5,66.3,,53,-120,120,122.5,122.5,60,-62.5,-62.5,60,152.5,-157.5,-157.5,152.5,335,,,SBD,Raw,F,Masters 50-54,Yes
2,Monica Gillespie,MO,67.5,65.8,,53,107.5,-112.5,112.5,112.5,55,57.5,-60,57.5,130,135,-140,135,305,,,SBD,Raw,F,Masters 50-54,Yes
3,Stacey Melko,OH,67.5,66.1,,50,-97.5,97.5,-105,97.5,60,-65,-65,60,132.5,-145,-145,132.5,290,,,SBD,Raw,F,Masters 50-54,Yes
4,Danielle Skelly-Murphy,OH,67.5,67,,51,-82.5,87.5,-90,87.5,50,52.5,-55,52.5,85,90,-97.5,90,230,,,SBD,Raw,F,Masters 50-54,Yes
1,Kay Walden,KS,67.5,66.6,,59,-107.5,107.5,112.5,112.5,55,62.5,-65,62.5,117.5,127.5,142.5,142.5,317.5,,,SBD,Raw,F,Masters 55-59,Yes
1,Valarie Akerson,IN,67.5,66.3,,61,50,52.5,55,55,37.5,-40,40,40,95,102.5,105,105,200,,,SBD,Raw,F,Masters 60-64,Yes
1,Crystal McCullough,NC,75,74.1,,44,-147.5,147.5,153,153,85.5,-88.5,-88.5,85.5,170,177.5,180,180,418.5,,,SBD,Raw,F,Masters 40-44,Yes
2,Sarah Dooley,OH,75,72.8,,40,100,110,117.5,117.5,62.5,67.5,70,70,125,137.5,145,145,332.5,,,SBD,Raw,F,Masters 40-44,Yes
1,Aven Malec,OH,75,74.2,,60,85,87.5,92.5,92.5,47.5,50,-52.5,50,100,105,-117.5,105,247.5,,,SBD,Raw,F,Masters 60-64,Yes
DQ,Priscilla Morgan,KY,75,68.1,,69,-65,-65,-65,,35,40,-45,40,82.5,87.5,90,90,,,,SBD,Raw,F,Masters 65-69,Yes
1,Beth Brewer,OR,82.5,78.2,,42,-110,110,-115,110,57.5,-62.5,62.5,62.5,162.5,-170,-170,162.5,335,,,SBD,Raw,F,Masters 40-44,Yes
DQ,Keli Hamman,VA,82.5,81.3,,42,-130,-130,-130,,-62.5,62.5,-67.5,62.5,150,162.5,-167.5,162.5,,,,SBD,Raw,F,Masters 40-44,Yes
1,Shari Langrall,WV,82.5,80.6,,48,120,125,127.5,127.5,67.5,70,72.5,72.5,157.5,162.5,165,165,365,,,SBD,Raw,F,Masters 45-49,Yes
2,Christina Ullman,OH,82.5,79.5,,49,112.5,-120,120,120,65,67.5,-70,67.5,140,145,-147.5,145,332.5,,,SBD,Raw,F,Masters 45-49,Yes
G,Stacie Korte,MO,82.5,79.8,,58,102.5,-110,-110,102.5,62.5,-67.5,67.5,67.5,145,150,155,155,325,,,SBD,Raw,F,Masters 55-59,Yes
1,Bianca White,GA,82.5,81.5,,61,87.5,95,97.5,97.5,50,52.5,-55,52.5,102.5,105,112.5,112.5,262.5,,,SBD,Raw,F,Masters 60-64,Yes
1,Danielle Valentine,MI,90,87.5,,43,-130,-130,130,130,60,65,-70,65,140,147.5,-155,147.5,342.5,,,SBD,Raw,F,Masters 40-44,Yes
DQ,Diane Dunning,NY,90,86.8,,63,-107.5,-110,-110,,,,,,,,,,,,,SBD,Raw,F,Masters 60-64,Yes
1,Amber Pauley,WV,90+,117.5,,42,187.5,-200,-200,187.5,95,102.5,107.5,107.5,182.5,-195,-195,182.5,477.5,,,SBD,Raw,F,Masters 40-44,Yes
1,DeAnn Mason,OH,90+,128.7,,45,142.5,147.5,165,165,75,82.5,-87.5,82.5,162.5,175.5,-177.5,175.5,423,,,SBD,Raw,F,Masters 45-49,Yes
DQ,Teresa Johnson,OH,90+,106.3,,46,-145,-165,-165,,77.5,-87.5,-87.5,77.5,145,152.5,-165,152.5,,,,SBD,Raw,F,Masters 45-49,Yes
1,Debbie Fitkin,IA,90+,99.7,,63,112.5,-115,-115,112.5,57.5,-60,60,60,127.5,135,-143,135,307.5,,,SBD,Raw,F,Masters 60-64,Yes
DQ,Joseph Fazio,PA,67.5,66.5,,14,130,135,137.5,137.5,-115,-120,-120,,165,170,175,175,,,,SBD,Raw,M,Juniors 13-15,Yes
1,Joel Valdez,AK,67.5,67.3,,23,172.5,182.5,192.5,192.5,125,132.5,-137.5,132.5,237.5,250,262.5,262.5,587.5,,,SBD,Raw,M,Juniors 20-23,Yes
2,Mike Connolly,PA,67.5,65.7,,23,175,-182.5,-182.5,175,-110,115,-122.5,115,-217.5,217.5,230,230,520,,,SBD,Raw,M,Juniors 20-23,Yes
DQ,Andrew Whitehurst,FL,67.5,66,,22,150,-162.5,-165,150,-95,-95,-95,,,,,,,,,SBD,Raw,M,Juniors 20-23,Yes
1,Ezra Newell,NM,75,73.3,,19,192.5,207.5,-215,207.5,115,122.5,127.5,127.5,232.5,245,-260,245,580,,,SBD,Raw,M,Juniors 18-19,Yes
2,Daniel Rodgers,PA,75,73.9,,19,170,180,190,190,132.5,137.5,142.5,142.5,205,215,225,225,557.5,,,SBD,Raw,M,Juniors 18-19,Yes
3,Ezra Hercyk,VA,75,74,,19,155,165,177.5,177.5,97.5,105,-110,105,215,228,-232.5,228,510.5,,,SBD,Raw,M,Juniors 18-19,Yes
1,Patrick Florey,VA,75,74.5,,20,165,185,192.5,192.5,102.5,115,-117.5,115,215,230,-237.5,230,537.5,,,SBD,Raw,M,Juniors 20-23,Yes
DQ,Thomas Kopko,PA,75,73.9,,23,157.5,-165,-175,157.5,100,105,110,110,-205,-205,-205,,,,,SBD,Raw,M,Juniors 20-23,Yes
1,Colton Peach,AZ,82.5,80.5,,17,192.5,200,205,205,102.5,107.5,110,110,225,230,-235,230,545,,,SBD,Raw,M,Juniors 16-17,Yes
1,George Schlaff,MI,82.5,78.1,,18,202.5,-217.5,-227.5,202.5,145,160,-172.5,160,-220,-237.5,237.5,237.5,600,,,SBD,Raw,M,Juniors 18-19,Yes
2,Ian Shemo,OH,82.5,81.6,,18,155,-170,182.5,182.5,90,97.5,-100,97.5,195,215,-220,215,495,,,SBD,Raw,M,Juniors 18-19,Yes
1,Nick Friedman,OH,82.5,80.1,,20,202.5,212.5,222.5,222.5,150,157.5,162.5,162.5,-250,260,275,275,660,,,SBD,Raw,M,Juniors 20-23,Yes
DQ,Nick Smith,MI,82.5,81.2,,23,-242.5,-250,-255,,132.5,140,-145,140,250,260,-272.5,260,,,,SBD,Raw,M,Juniors 20-23,Yes
1,August Basco,VA,90,89.5,,17,147.5,160,-180,160,95,-107.5,-107.5,95,195,212.5,-227.5,212.5,467.5,,,SBD,Raw,M,Juniors 16-17,Yes
1,Brenden Foust,OK,90,88,,19,-227.5,-235,237.5,237.5,162.5,172.5,-180,172.5,240,250,-262.5,250,660,,,SBD,Raw,M,Juniors 18-19,Yes
2,Levi Lafountain,ND,90,88.7,,18,200,212.5,217.5,217.5,135,142.5,-153,142.5,240,252.5,-253,252.5,612.5,,,SBD,Raw,M,Juniors 18-19,Yes
DQ,Evan Moore,MI,90,89.5,,18,-242.5,-242.5,-242.5,,,,,,,,,,,,,SBD,Raw,M,Juniors 18-19,Yes
1,Donneal Hyde,OR,90,89,,23,230,242.5,247.5,247.5,137.5,145,147.5,147.5,262.5,277.5,-285,277.5,672.5,,,SBD,Raw,M,Juniors 20-23,Yes
2,Nicholas Elia,OH,90,86.4,,21,220,230,-235,230,142.5,-150,150,150,250,265,-272.5,265,645,,,SBD,Raw,M,Juniors 20-23,Yes
3,Brandon Bellant,MI,90,88.6,,23,195,210,217.5,217.5,-147.5,-152.5,152.5,152.5,235,250,257.5,257.5,627.5,,,SBD,Raw,M,Juniors 20-23,Yes
4,Zachary Connelly,VA,90,88.9,,21,185,200,-215,200,130,140,-142.5,140,-232.5,237.5,252.5,252.5,592.5,,,SBD,Raw,M,Juniors 20-23,Yes
5,Tyler Guinup,NJ,90,90,,21,-165,175,195,195,110,117.5,122.5,122.5,185,200,215,215,532.5,,,SBD,Raw,M,Juniors 20-23,Yes
6,Anthony Horn,IA,90,89,,20,182.5,192.5,-197.5,192.5,115,-120,-120,115,142.5,210,-225,210,517.5,,,SBD,Raw,M,Juniors 20-23,Yes
1,Adam Zink,CO,100,96.1,,19,230,-242.5,-242.5,230,145,152.5,157.5,157.5,245,265,-277.5,265,652.5,162.5,,SBD,Raw,M,Juniors 18-19,Yes
2,Connor Exley,PA,100,96.9,,19,202.5,210,-220,210,-157.5,157.5,-162.5,157.5,240,250,255,255,622.5,,,SBD,Raw,M,Juniors 18-19,Yes
3,Anthony Ball,VA,100,99.4,,19,187.5,-197.5,-197.5,187.5,115,125,-137.5,125,205,-225,-225,205,517.5,,,SBD,Raw,M,Juniors 18-19,Yes
1,Thomas Moschner,FL,100,97,,23,222.5,240,250,250,147.5,162.5,172.5,172.5,265,287.5,-300,287.5,710,184,,SBD,Raw,M,Juniors 20-23,Yes
2,Justin Sorenson #1,AZ,100,98.3,,20,235,247.5,-255,247.5,142.5,152.5,-157.5,152.5,272.5,285,295,295,695,,,SBD,Raw,M,Juniors 20-23,Yes
3,J. Gabriel Didden,SC,100,99.2,,21,242.5,-257.5,-275,242.5,167.5,177.5,-183,177.5,247.5,-262.5,-262.5,247.5,667.5,,,SBD,Raw,M,Juniors 20-23,Yes
4,Anthony Resendez,NM,100,95.6,,20,210,230,240,240,120,135,147.5,147.5,250,265,277.5,277.5,665,,,SBD,Raw,M,Juniors 20-23,Yes
5,Bradley Milush,OH,100,95.8,,23,207.5,220,230,230,140,147.5,152.5,152.5,252.5,267.5,277.5,277.5,660,,,SBD,Raw,M,Juniors 20-23,Yes
6,Bradley Clapper,OH,100,96.4,,21,200,210,220,220,125,-132.5,132.5,132.5,245,260,-272.5,260,612.5,,,SBD,Raw,M,Juniors 20-23,Yes
7,Dalton Barnette,OH,100,99.7,,21,185,197.5,-202.5,197.5,132.5,140,-152.5,140,-222.5,222.5,235,235,572.5,,,SBD,Raw,M,Juniors 20-23,Yes
1,Kholbe Leaks,IL,110,104.7,,21,250,-262.5,267.5,267.5,145,155,160,160,290,305,-317.5,305,732.5,,,SBD,Raw,M,Juniors 20-23,Yes
2,Gino Bertolone,OH,110,108.5,,23,222.5,-235,-235,222.5,112.5,-117.5,117.5,117.5,250,262.5,-272.5,262.5,602.5,,,SBD,Raw,M,Juniors 20-23,Yes
1,Gabriel Barajas,WA,140,133.1,,18,220,-230,230,230,165,-170,-170,165,220,227.5,-235,227.5,622.5,,,SBD,Raw,M,Juniors 18-19,Yes
1,Josh Opiela,TX,140,137.9,,23,310,-320,320,320,185,197.5,-205,197.5,-265,265,280,280,797.5,,,SBD,Raw,M,Juniors 20-23,Yes
1,Trey Roberson,AL,140+,148.6,,23,300,-320,320,320,225,237.5,245,245,300,310,320,320,885,,,SBD,Raw,M,Juniors 20-23,Yes
1,Zachary Blackmon,AR,60,58.3,,26,170,-187.5,187.5,187.5,125,-132.5,-137.5,125,215,230,-240,230,542.5,,,SBD,Raw,M,Open,Yes
1,Lenard Jones,VA,67.5,67.3,,24,217.5,227.5,237.5,237.5,162.5,-172.5,-172.5,162.5,260,-272.5,-272.5,260,660,,,SBD,Raw,M,Open,Yes
2,Joel Valdez,AK,67.5,67.3,,23,172.5,182.5,192.5,192.5,125,132.5,-137.5,132.5,237.5,250,262.5,262.5,587.5,,,SBD,Raw,M,Open,Yes
3,Justin Hegg,IL,67.5,67,,27,180,190,-195,190,135,140,-145,140,215,227.5,-232.5,227.5,557.5,,,SBD,Raw,M,Open,Yes
4,Mike Connolly,PA,67.5,65.7,,23,175,-182.5,-182.5,175,-110,115,-122.5,115,-217.5,217.5,230,230,520,,,SBD,Raw,M,Open,Yes
5,John Wehrli,CA,67.5,66.4,1963-12-01,56,125,-132.5,132.5,132.5,95,-100,-100,95,172.5,183,-187.5,183,410.5,,,SBD,Raw,M,Open,Yes
DQ,Andrew Whitehurst,FL,67.5,66,,22,150,-162.5,-165,150,-95,-95,-95,,,,,,,,,SBD,Raw,M,Open,Yes
DQ,Melton Morehead,NM,67.5,66.6,,43,182.5,192.5,-205,192.5,107.5,-112.5,,107.5,-227.5,-227.5,-227.5,,,,,SBD,Raw,M,Open,Yes
1,Casmir Hughes,OH,75,73.8,,32,225,240,247.5,247.5,145,152.5,160,160,282.5,315,-327.5,315,722.5,,,SBD,Raw,M,Open,Yes
2,Chris Lentini #1,AL,75,74.5,,43,212.5,-220,220,220,160,167.5,172.5,172.5,245,260,-272.5,260,652.5,,,SBD,Raw,M,Open,Yes
3,Zeesha Braslawsce,CA,75,73.8,,25,215,227.5,237.5,237.5,135,142.5,-147.5,142.5,237.5,255,265,265,645,,,SBD,Raw,M,Open,Yes
4,Andrew Richards,IL,75,74.2,,28,207.5,220,-227.5,220,130,137.5,140,140,222.5,245,-250,245,605,,,SBD,Raw,M,Open,Yes
5,Jesse Ramirez #8,OH,75,74.2,,32,187.5,195,-207.5,195,137.5,145,152.5,152.5,232.5,242.5,-255,242.5,590,,,SBD,Raw,M,Open,Yes
6,Ezra Newell,NM,75,73.3,,19,192.5,207.5,-215,207.5,115,122.5,127.5,127.5,232.5,245,-260,245,580,,,SBD,Raw,M,Open,Yes
7,Daniel Austin #2,TN,75,74.9,,37,185,192.5,197.5,197.5,130,135,137.5,137.5,225,235,-240,235,570,,,SBD,Raw,M,Open,Yes
8,Corey Conklin,OH,75,73.6,,34,185,192.5,-205,192.5,100,110,-117.5,110,232.5,240,245,245,547.5,,,SBD,Raw,M,Open,Yes
9,Tommie Keller,TX,75,73.7,,28,-170,170,-177.5,170,120,125,-127.5,125,210,-220,220,220,515,,,SBD,Raw,M,Open,Yes
10,Christopher Vashi,OH,75,72.2,,44,125,135,142.5,142.5,125,-130,130,130,200,215,227.5,227.5,500,,,SBD,Raw,M,Open,Yes
DQ,Dalton Hyden,KY,75,72.4,,24,147.5,157.5,160,160,-115,-115,-115,,-237.5,,,,,,,SBD,Raw,M,Open,Yes
DQ,Thomas Kopko,PA,75,73.9,,23,157.5,-165,-175,157.5,100,105,110,110,-205,-205,-205,,,,,SBD,Raw,M,Open,Yes
1,Danny Stachelek,NY,82.5,81.9,,21,257.5,-270,-272.5,257.5,155,157.5,-160,157.5,280,300,310.5,310.5,725.5,,318,SBD,Raw,M,Open,Yes
2,Deon Casey,IN,82.5,81.7,,28,217.5,230,-242.5,230,170,182.5,185,185,247.5,265,275,275,690,,,SBD,Raw,M,Open,Yes
3,Brandon McBee,OH,82.5,82.3,,26,210,220,225,225,135,145,150,150,260,270,275,275,650,,,SBD,Raw,M,Open,Yes
4,Daniel Dixon,VA,82.5,79,,25,-215,-215,215,215,170,-175,-175,170,255,-265,-270,255,640,,,SBD,Raw,M,Open,Yes
5,Corey Brown,NY,82.5,81.9,,27,207.5,-217.5,222.5,222.5,-130,130,140,140,242.5,262.5,-272.5,262.5,625,,,SBD,Raw,M,Open,Yes
6,Anthony DiStefano,DE,82.5,81.6,,34,200,210,220,220,115,-125,-125,115,260,277.5,-280,277.5,612.5,,,SBD,Raw,M,Open,Yes
7,Nick Mersinas,OH,82.5,81.3,,27,195,-212.5,212.5,212.5,125,130,-132.5,130,240,257.5,-262.5,257.5,600,,,SBD,Raw,M,Open,Yes
8,Chhanchhaya Chham,OH,82.5,81.1,,34,180,192.5,205,205,120,-132.5,132.5,132.5,220,237.5,-245,237.5,575,,,SBD,Raw,M,Open,Yes
9,Brian Patfield,OH,82.5,79.1,,24,182.5,187.5,-200,187.5,-112.5,117.5,122.5,122.5,215,225,-232.5,225,535,,,SBD,Raw,M,Open,Yes
10,Tyler Harris,OH,82.5,81,,26,155,167.5,-180,167.5,115,130,-132.5,130,215,227.5,235,235,532.5,,,SBD,Raw,M,Open,Yes
11,Gregory Bridge,MA,82.5,79.6,,30,170,-182.5,182.5,182.5,107.5,117.5,-125,117.5,192.5,210,222.5,222.5,522.5,,,SBD,Raw,M,Open,Yes
DQ,Nick Smith,MI,82.5,81.2,,23,-242.5,-250,-255,,132.5,140,-145,140,250,260,-272.5,260,,,,SBD,Raw,M,Open,Yes
1,Lenny Wicks,OH,90,88.6,,33,305,320,-325,320,170,180,-182.5,180,317.5,328.5,330,330,830,,,SBD,Raw,M,Open,Yes
2,Ronald Tarvin,AL,90,89.7,,31,272.5,295,305,305,187.5,-202.5,-202.5,187.5,260,285,292.5,292.5,785,,,SBD,Raw,M,Open,Yes
3,Liam Oliss,OH,90,88.1,,24,250,265,275,275,155,165,-172.5,165,300,320,330,330,770,,,SBD,Raw,M,Open,Yes
4,Christopher Morris,OH,90,87.5,,24,-230,240,250,250,145,152.5,-160,152.5,275,-287.5,300,300,702.5,,,SBD,Raw,M,Open,Yes
5,Cody Crawford,CO,90,89.4,,25,217.5,235,240,240,142.5,152.5,-160,152.5,255,282.5,290,290,682.5,,,SBD,Raw,M,Open,Yes
6,Jacob Parker,MO,90,86.6,,31,220,237.5,250,250,137.5,-145,145,145,262.5,277.5,-290,277.5,672.5,,,SBD,Raw,M,Open,Yes
7,Donneal Hyde,OR,90,89,,23,230,242.5,247.5,247.5,137.5,145,147.5,147.5,262.5,277.5,-285,277.5,672.5,,,SBD,Raw,M,Open,Yes
8,Jeff Meade,KY,90,88.8,,26,225,235,245,245,140,147.5,155,155,240,252.5,262.5,262.5,662.5,,,SBD,Raw,M,Open,Yes
9,Michael Caputo #1,NV,90,89.7,,32,-232.5,232.5,-242.5,232.5,172.5,-182.5,-185,172.5,255,-272.5,-272.5,255,660,,,SBD,Raw,M,Open,Yes
10,Nicholas Elia,OH,90,86.4,,21,220,230,-235,230,142.5,-150,150,150,250,265,-272.5,265,645,,,SBD,Raw,M,Open,Yes
11,Terry Smith #1,KY,90,88.4,,43,225,235,-240.5,235,125,130,-132.5,130,235,252.5,262.5,262.5,627.5,,265,SBD,Raw,M,Open,Yes
12,Kyle Prellwitz,WI,90,90,,27,200,215,227.5,227.5,120,130,-137.5,130,245,265,-277.5,265,622.5,,,SBD,Raw,M,Open,Yes
13,Spencer Wilhelm,VA,90,88.6,,26,195,207.5,212.5,212.5,122.5,130,132.5,132.5,227.5,242.5,255,255,600,,,SBD,Raw,M,Open,Yes
14,Zachary Connelly,VA,90,88.9,,21,185,200,-215,200,130,140,-142.5,140,-232.5,237.5,252.5,252.5,592.5,,,SBD,Raw,M,Open,Yes
15,Joseph Sperduto Jr,NY,90,89.4,,32,197.5,210,215,215,137.5,150,-155,150,197.5,210,225,225,590,,,SBD,Raw,M,Open,Yes
16,Tony Taliani,OH,90,89.1,,33,187.5,200,-210,200,120,127.5,-132.5,127.5,227.5,240,-250,240,567.5,,,SBD,Raw,M,Open,Yes
17,Mark Lombardo,OH,90,88.7,,28,185,192.5,195,195,137.5,140,,140,212.5,-220,-220,212.5,547.5,,,SBD,Raw,M,Open,Yes
1,Tracy Curry,TN,100,98.6,,29,255,272.5,285,285,-190,190,197.5,197.5,297.5,320,-327.5,320,802.5,,,SBD,Raw,M,Open,Yes
2,Justin Smith #2,OH,100,98,,27,275,287.5,292.5,292.5,185,195,200,200,277.5,290,-300,290,782.5,,,SBD,Raw,M,Open,Yes
3,Corey Dennis,MI,100,98.6,,27,235,247.5,260,260,155,162.5,170,170,280,302.5,312.5,312.5,742.5,,,SBD,Raw,M,Open,Yes
4,Caleb Tincher,VA,100,99.2,,24,250,260,-265,260,152.5,160,162.5,162.5,300,320,-327.5,320,742.5,,,SBD,Raw,M,Open,Yes
5,Dan Holly,NJ,100,98.9,,32,265,277.5,-282.5,277.5,-152.5,162.5,-165,162.5,300,-315,-315,300,740,,,SBD,Raw,M,Open,Yes
6,Michael Treese,PA,100,100,,29,260,270,275,275,165,-172.5,-172.5,165,280,295,-302.5,295,735,,,SBD,Raw,M,Open,Yes
7,Kevin Papaj,NY,100,93.6,,27,255,267.5,-272.5,267.5,160,167.5,-172.5,167.5,275,292.5,-302.5,292.5,727.5,,,SBD,Raw,M,Open,Yes
8,Courtney Jenkins,AL,100,99.2,,28,242.5,255,-270,255,147.5,155,-160,155,280,295,307.5,307.5,717.5,,,SBD,Raw,M,Open,Yes
9,Thomas Moschner,FL,100,97,,23,222.5,240,250,250,147.5,162.5,172.5,172.5,265,287.5,-300,287.5,710,184,,SBD,Raw,M,Open,Yes
10,George Latson,MD,100,91.8,,28,227.5,245,-252.5,245,172.5,182.5,190,190,245,260,272.5,272.5,707.5,,,SBD,Raw,M,Open,Yes
11,Ricky Huse,MO,100,98.2,,24,227.5,-242.5,242.5,242.5,175,-185,185,185,250,272.5,-282.5,272.5,700,,,SBD,Raw,M,Open,Yes
12,Justin Sorenson #1,AZ,100,98.3,,20,235,247.5,-255,247.5,142.5,152.5,-157.5,152.5,272.5,285,295,295,695,,,SBD,Raw,M,Open,Yes
13,J. Gabriel Didden,SC,100,99.2,,21,242.5,-257.5,-275,242.5,167.5,177.5,-183,177.5,247.5,-262.5,-262.5,247.5,667.5,,,SBD,Raw,M,Open,Yes
14,Bradley Milush,OH,100,95.8,,23,207.5,220,230,230,140,147.5,152.5,152.5,252.5,267.5,277.5,277.5,660,,,SBD,Raw,M,Open,Yes
15,Emanuel Alston,VA,100,97.9,,29,200,215,-227.5,215,182.5,195,-197.5,195,227.5,237.5,-240,237.5,647.5,,,SBD,Raw,M,Open,Yes
16,Zachary Vassallo-Perez,WY,100,97.3,,25,230,-240,-240,230,152.5,-160,-160,152.5,260,262.5,-265,262.5,645,,,SBD,Raw,M,Open,Yes
17,Kevin Kapke,CO,100,94.5,,32,207.5,220,230,230,-155,155,-162.5,155,237.5,247.5,257.5,257.5,642.5,,,SBD,Raw,M,Open,Yes
18,Oscar Martinez-Hernandez,NE,100,97.2,,31,-222.5,-222.5,222.5,222.5,142.5,150,160,160,225,232.5,-237.5,232.5,615,,,SBD,Raw,M,Open,Yes
19,Bradley Clapper,OH,100,96.4,,21,200,210,220,220,125,-132.5,132.5,132.5,245,260,-272.5,260,612.5,,,SBD,Raw,M,Open,Yes
20,William Schneider,PA,100,98.7,,35,175,192.5,200,200,160,170,177.5,177.5,215,232.5,-245,232.5,610,,,SBD,Raw,M,Open,Yes
21,Armand Leonelli,PA,100,98.5,,36,182.5,192.5,200,200,147.5,157.5,162.5,162.5,232.5,245,-262.5,245,607.5,,,SBD,Raw,M,Open,Yes
22,Brian Roth,NJ,100,96.2,,26,205,220,-227.5,220,140,145,-150,145,205,215,-222.5,215,580,,,SBD,Raw,M,Open,Yes
23,Jimmy Daniel,OH,100,98.9,,30,185,-195,195,195,127.5,137.5,-145,137.5,210,220,230,230,562.5,,,SBD,Raw,M,Open,Yes
24,David Jacob,OH,100,98.1,,25,-195,195,-202.5,195,120,-125,125,125,220,225,227.5,227.5,547.5,,,SBD,Raw,M,Open,Yes
DQ,Joe Garza,TX,100,95.5,,46,-195,-195,-195,,-135,,,,,,,,,,,SBD,Raw,M,Open,Yes
DQ,Cody Miller #2,KS,100,96.6,,26,237.5,245,,245,-172.5,-182.5,-190,,,,,,,,,SBD,Raw,M,Open,Yes
1,Alejandro Wickham,PA,110,108.7,,35,245,270,-278,270,155,170,172.5,172.5,247.5,266,270,270,712.5,,277.5,SBD,Raw,M,Open,Yes
2,Brian Moore,OH,110,109,,30,225,235,242.5,242.5,162.5,172.5,-177.5,172.5,255,277.5,-285,277.5,692.5,,,SBD,Raw,M,Open,Yes
3,Chris Blankenship,VA,110,108.7,,36,240,-255,-255,240,157.5,-170,-170,157.5,250,265,-272.5,265,662.5,,,SBD,Raw,M,Open,Yes
4,Malik Hairston,VA,110,100.8,,24,190,202.5,222.5,222.5,137.5,150,155,155,227.5,255,277.5,277.5,655,,,SBD,Raw,M,Open,Yes
5,Jeromie Goggin,FL,110,107.3,,38,-267.5,267.5,-275,267.5,132.5,145,150,150,220,230,235,235,652.5,,,SBD,Raw,M,Open,Yes
6,Terry Smith #7,OH,110,107.7,,27,217.5,230,235,235,162.5,-167.5,167.5,167.5,225,245,-260,245,647.5,,,SBD,Raw,M,Open,Yes
7,Bradley Besson,OH,110,107.7,,41,230,-240,240,240,140,150,-160,150,225,235,240,240,630,,,SBD,Raw,M,Open,Yes
8,Michael Gilfix,TX,110,108.6,,40,190,-205,205,205,160,167.5,172.5,172.5,240,250,-255,250,627.5,,,SBD,Raw,M,Open,Yes
9,Carlos Normandin,MA,110,107.5,,29,192.5,210,-220,210,142.5,155,160,160,200,220,230,230,600,,,SBD,Raw,M,Open,Yes
DQ,Tyler Alexander,TX,110,106.8,,52,-237.5,-237.5,-237.5,,137.5,-142.5,-142.5,137.5,252.5,262.5,,262.5,,,,SBD,Raw,M,Open,Yes
1,Caleb Stephens,KS,125,119.8,,31,265,282.5,300,300,192.5,205,212.5,212.5,327.5,352.5,365,365,877.5,,,SBD,Raw,M,Open,Yes
2,Isaiah Grice,MI,125,121,,29,285,297.5,305,305,-207.5,212.5,-227.5,212.5,312.5,327.5,-350,327.5,845,,,SBD,Raw,M,Open,Yes
3,Walter Watts,OH,125,122.3,,30,-235,245,-262.5,245,172.5,187.5,-195,187.5,295,320,327.5,327.5,760,,,SBD,Raw,M,Open,Yes
4,Chris Peterson,NE,125,122.5,,34,-260,-260,260,260,177.5,187.5,195,195,292.5,-310,-310,292.5,747.5,,,SBD,Raw,M,Open,Yes
5,Alexander Walters,MI,125,122.5,,24,240,252.5,-260,252.5,145,150,155,155,270,295,-300,295,702.5,,,SBD,Raw,M,Open,Yes
6,Robert Eckhart,PA,125,122.2,,46,215,230,-232.5,230,185,197.5,-202.5,197.5,250,-272.5,-272.5,250,677.5,,,SBD,Raw,M,Open,Yes
7,Jacob Hendrix,IL,125,112.6,,29,210,220,230,230,150,155,-160,155,257.5,267.5,-272.5,267.5,652.5,,,SBD,Raw,M,Open,Yes
8,Steve Pustay,OH,125,121.5,,43,220,235,242.5,242.5,125,132.5,137.5,137.5,220,235,242.5,242.5,622.5,,,SBD,Raw,M,Open,Yes
9,Christopher Allen,VA,125,121.2,,46,160,-170,170,170,165,172.5,-182.5,172.5,242.5,-255,-255,242.5,585,,,SBD,Raw,M,Open,Yes
1,Josh Opiela,TX,140,137.9,,23,310,-320,320,320,185,197.5,-205,197.5,-265,265,280,280,797.5,,,SBD,Raw,M,Open,Yes
2,Andrew Fox,NJ,140,126.3,,31,260,275,285,285,170,182.5,-190,182.5,270,285,295,295,762.5,,,SBD,Raw,M,Open,Yes
3,Kermit Adkins,OH,140,137.8,,33,275,-290,-290,275,207.5,-215,,207.5,205,247.5,-265,247.5,730,,,SBD,Raw,M,Open,Yes
4,Cody Hanson #1,NM,140,132.7,,44,215,227.5,235,235,145,152.5,160,160,227.5,242.5,252.5,252.5,647.5,,,SBD,Raw,M,Open,Yes
1,Rudy Harbin,MI,140+,200,,33,345,365,367.5,367.5,212.5,220,222.5,222.5,307.5,320,,320,910,,,SBD,Raw,M,Open,Yes
2,Trey Roberson,AL,140+,148.6,,23,300,-320,320,320,225,237.5,245,245,300,310,320,320,885,,,SBD,Raw,M,Open,Yes
3,David Corrigan,OH,140+,155.4,,26,245,-265,-265,245,187.5,197.5,-202.5,197.5,245,262.5,272.5,272.5,715,,,SBD,Raw,M,Open,Yes
4,Robert Gains,VA,140+,148,,57,220,-230,230,230,180,192.5,200,200,252.5,272.5,-277.5,272.5,702.5,,,SBD,Raw,M,Open,Yes
1,Daniel Austin #2,TN,75,74.9,,37,185,192.5,197.5,197.5,130,135,137.5,137.5,225,235,-240,235,570,,,SBD,Raw,M,Submasters 35-39,Yes
1,Carlo Lomanto,OH,82.5,79.3,,38,185,195,200,200,107.5,112.5,115,115,230,247.5,255,255,570,,,SBD,Raw,M,Submasters 35-39,Yes
1,William Schneider,PA,100,98.7,,35,175,192.5,200,200,160,170,177.5,177.5,215,232.5,-245,232.5,610,,,SBD,Raw,M,Submasters 35-39,Yes
2,Armand Leonelli,PA,100,98.5,,36,182.5,192.5,200,200,147.5,157.5,162.5,162.5,232.5,245,-262.5,245,607.5,,,SBD,Raw,M,Submasters 35-39,Yes
1,Alejandro Wickham,PA,110,108.7,,35,245,270,-278,270,155,170,172.5,172.5,247.5,266,270,270,712.5,,277.5,SBD,Raw,M,Submasters 35-39,Yes
2,Chris Blankenship,VA,110,108.7,,36,240,-255,-255,240,157.5,-170,-170,157.5,250,265,-272.5,265,662.5,,,SBD,Raw,M,Submasters 35-39,Yes
3,Jeromie Goggin,FL,110,107.3,,38,-267.5,267.5,-275,267.5,132.5,145,150,150,220,230,235,235,652.5,,,SBD,Raw,M,Submasters 35-39,Yes
4,Jeremy Grimm,IA,110,107.5,,39,197.5,220,230,230,155,165,-170,165,237.5,-260,-260,237.5,632.5,,,SBD,Raw,M,Submasters 35-39,Yes
5,Nathan Mowery,IN,110,110,,37,192.5,202.5,-212.5,202.5,152.5,-162.5,-162.5,152.5,260,-272.5,-272.5,260,615,,,SBD,Raw,M,Submasters 35-39,Yes
6,John Reidy,OH,110,107.1,,39,192.5,202.5,212.5,212.5,147.5,150,-152.5,150,207.5,220,-230,220,582.5,,,SBD,Raw,M,Submasters 35-39,Yes
1,Marty Evenson,CO,125,123.7,,38,-227.5,227.5,-230,227.5,147.5,-152.5,152.5,152.5,220,-227.5,227.5,227.5,607.5,,,SBD,Raw,M,Submasters 35-39,Yes
DQ,Melton Morehead,NM,67.5,66.6,,43,182.5,192.5,-205,192.5,107.5,-112.5,,107.5,-227.5,-227.5,-227.5,,,,,SBD,Raw,M,Masters 40-44,Yes
1,John Wehrli,CA,67.5,66.4,,56,125,-132.5,132.5,132.5,95,-100,-100,95,172.5,183,-187.5,183,410.5,,,SBD,Raw,M,Masters 55-59,Yes
2,Gary Teeter,PA,67.5,66.9,,55,110,125,135,135,90,102.5,105,105,140,152.5,162.5,162.5,402.5,107.5,165,SBD,Raw,M,Masters 55-59,Yes
1,Chris Lentini #1,AL,75,74.5,,43,212.5,-220,220,220,160,167.5,172.5,172.5,245,260,-272.5,260,652.5,,,SBD,Raw,M,Masters 40-44,Yes
2,Dwayne Bess,MO,75,74.6,,42,165,175,-182.5,175,125,130,-135,130,212.5,222.5,232.5,232.5,537.5,,,SBD,Raw,M,Masters 40-44,Yes
3,Christopher Vashi,OH,75,72.2,,44,125,135,142.5,142.5,125,-130,130,130,200,215,227.5,227.5,500,,,SBD,Raw,M,Masters 40-44,Yes
1,Richard James,TX,75,74.3,,47,172.5,-195,-195,172.5,112.5,-125,-125,112.5,202.5,-222.5,-222.5,202.5,487.5,,,SBD,Raw,M,Masters 45-49,Yes
DQ,Thomas Bussineau,GA,75,74.5,,56,-165,-165,-165,,,,,,185,195,200,200,,,205,SBD,Raw,M,Masters 55-59,Yes
1,Jerry Delgado,MO,75,73.4,,62,-125,125,130,130,102.5,112.5,-115.5,112.5,170,185,-190,185,427.5,,,SBD,Raw,M,Masters 60-64,Yes
1,George Linder,OH,82.5,81.1,,52,142.5,-150,150,150,100,105,107.5,107.5,182.5,192.5,-197.5,192.5,450,,,SBD,Raw,M,Masters 50-54,Yes
1,Tom Keller,SC,82.5,81,,56,175,185,190,190,110,115,-117.5,115,192.5,205,212.5,212.5,517.5,,,SBD,Raw,M,Masters 55-59,Yes
2,Michael Morgan,KY,82.5,80.1,,58,125,-137.5,-145,125,92.5,102.5,110,110,170,180,-190,180,415,,,SBD,Raw,M,Masters 55-59,Yes
1,Terry Smith #1,KY,90,88.4,,43,225,235,-240.5,235,125,130,-132.5,130,235,252.5,262.5,262.5,627.5,,265,SBD,Raw,M,Masters 40-44,Yes
1,James Poghen II,OH,90,85.7,,55,-165,175,-182.5,175,110,115,-120,115,170,185,-197.5,185,475,,,SBD,Raw,M,Masters 55-59,Yes
DQ,Douglas Dinsmore,IN,90,86.8,,59,-142.5,-142.5,-142.5,,-112.5,,,,,,,,,,,SBD,Raw,M,Masters 55-59,Yes
1,David Hollis,VA,90,88.5,,61,-175,175,185,185,130,132.5,135,135,192.5,207.5,-217.5,207.5,527.5,,,SBD,Raw,M,Masters 60-64,Yes
1,Gregory Hullinger,OH,90,84.9,,68,137.5,-147.5,147.5,147.5,-92.5,100,105,105,160,170,-175,170,422.5,,,SBD,Raw,M,Masters 65-69,Yes
2,Michael Stevens,IN,90,88.6,,65,102.5,-120,-120,102.5,80,-82.5,-82.5,80,142.5,152.5,162.5,162.5,345,,,SBD,Raw,M,Masters 65-69,Yes
1,Larry Soderberg,IA,90,87.9,,70,152,162.5,,162.5,147.5,-152.5,,147.5,175,192.5,,192.5,502.5,,,SBD,Raw,M,Masters 70-74,Yes
1,Brandon Tedder,SC,100,97.2,,40,192.5,207.5,215,215,147.5,155,-157.5,155,217.5,230,-250,230,600,,,SBD,Raw,M,Masters 40-44,Yes
1,Kevin Cochenour,OH,100,97.5,,45,205,217.5,-227.5,217.5,125,135,140,140,215,232.5,-242.5,232.5,590,,,SBD,Raw,M,Masters 45-49,Yes
DQ,Joe Garza,TX,100,95.5,,46,-195,-195,-195,,-135,,,,,,,,,,,SBD,Raw,M,Masters 45-49,Yes
1,Bradley Besson,OH,110,107.7,,41,230,-240,240,240,140,150,-160,150,225,235,240,240,630,,,SBD,Raw,M,Masters 40-44,Yes
2,Michael Gilfix,TX,110,108.6,,40,190,-205,205,205,160,167.5,172.5,172.5,240,250,-255,250,627.5,,,SBD,Raw,M,Masters 40-44,Yes
DQ,Tyler Alexander,TX,110,106.8,,52,-237.5,-237.5,-237.5,,137.5,-142.5,-142.5,137.5,252.5,262.5,,262.5,,,,SBD,Raw,M,Masters 50-54,Yes
1,Peter Pauline,GA,110,109.5,,65,-160,160,175,175,110,115,-117.5,115,-215,225,235,235,525,,,SBD,Raw,M,Masters 65-69,Yes
1,Jason Emmick,TN,125,122.9,,43,227.5,-232.5,235,235,182.5,190,-195,190,215,227.5,232.5,232.5,657.5,,,SBD,Raw,M,Masters 40-44,Yes
2,Steve Pustay,OH,125,121.5,,43,220,235,242.5,242.5,125,132.5,137.5,137.5,220,235,242.5,242.5,622.5,,,SBD,Raw,M,Masters 40-44,Yes
1,Robert Eckhart,PA,125,122.2,,46,215,230,-232.5,230,185,197.5,-202.5,197.5,250,-272.5,-272.5,250,677.5,,,SBD,Raw,M,Masters 45-49,Yes
2,Christopher Allen,VA,125,121.2,,46,160,-170,170,170,165,172.5,-182.5,172.5,242.5,-255,-255,242.5,585,,,SBD,Raw,M,Masters 45-49,Yes
1,James Mingle,MD,125,121.1,,52,227.5,243,247.5,247.5,-135,135,-142.5,135,237.5,250,255,255,637.5,,,SBD,Raw,M,Masters 50-54,Yes
1,Stephen Correa,TX,125,120.7,,65,150,162.5,172.5,172.5,115,122.5,127.5,127.5,185,195,205,205,505,,,SBD,Raw,M,Masters 65-69,Yes
1,Cody Hanson #1,NM,140,132.7,,44,215,227.5,235,235,145,152.5,160,160,227.5,242.5,252.5,252.5,647.5,,,SBD,Raw,M,Masters 40-44,Yes
1,Mark Branham,IN,140,125.6,,66,130,172.5,-182.5,172.5,127.5,137.5,-142.5,137.5,155,182.5,190,190,500,,,SBD,Raw,M,Masters 65-69,Yes
1,Robert Gains,VA,140+,148,,57,220,-230,230,230,180,192.5,200,200,252.5,272.5,-277.5,272.5,702.5,,,SBD,Raw,M,Masters 55-59,Yes
1,Viola Simmons,AR,56,53.6,,22,-115,115,-145,115,50,55,-60,55,120,137.5,142.5,142.5,312.5,,,SBD,Wraps,F,Juniors 20-23,Yes
1,Aidan Barney,OR,90+,99.7,,23,105,110,120,120,55,-57.5,-67.5,55,150,162.5,-167.5,162.5,337.5,,,SBD,Wraps,F,Juniors 20-23,Yes
1,Melissa Maisonet,OH,44,43,,34,107.5,115,-122.5,115,57.5,60,62.5,62.5,122.5,132.5,142.5,142.5,320,,,SBD,Wraps,F,Open,Yes
1,Viola Simmons,AR,56,53.6,,22,-115,115,-145,115,50,55,-60,55,120,137.5,142.5,142.5,312.5,,,SBD,Wraps,F,Open,Yes
1,Danielle Massingill,CO,82.5,79.6,,28,-192.5,192.5,-200,192.5,100,105,-112.5,105,187.5,-195,-195,187.5,485,,,SBD,Wraps,F,Open,Yes
2,Emily Adams,IN,82.5,81.3,,32,177.5,-190,-195,177.5,90,95,-100,95,177.5,190,195,195,467.5,,,SBD,Wraps,F,Open,Yes
3,Charlie Cheryl Ritchie,OR,82.5,79.4,,49,137.5,-150,150,150,105,110,115,115,147.5,157.5,167.5,167.5,432.5,,,SBD,Wraps,F,Open,Yes
4,Lauren Stewart,OH,82.5,81.1,,28,117.5,-120,122.5,122.5,52.5,-55,55,55,145,-160,-160,145,322.5,,,SBD,Wraps,F,Open,Yes
1,Milena Schaefer,GA,90+,119.6,,29,197.5,205,-215,205,105,110,112.5,112.5,195,200,210,210,527.5,,,SBD,Wraps,F,Open,Yes
1,Jillian Marrero,DE,82.5,77.2,,36,117.5,137.5,145,145,60,70,-75,70,130,140,-145,140,355,,,SBD,Wraps,F,Submasters 35-39,Yes
1,Charlie Cheryl Ritchie,OR,82.5,79.4,,49,137.5,-150,150,150,105,110,115,115,147.5,157.5,167.5,167.5,432.5,,,SBD,Wraps,F,Masters 45-49,Yes
1,Tanye Lacombe,TX,90+,103.9,,60,95,102.5,-110,102.5,62.5,67.5,70,70,120,127.5,-142.5,127.5,300,75.5,,SBD,Wraps,F,Masters 60-64,Yes
DQ,Aubrey Large,TX,67.5,66.3,,15,-165,-165,-165,,,,,,,,,,,,,SBD,Wraps,M,Juniors 13-15,Yes
1,Kaiden Brown,KS,75,74.5,,17,-200,200,207.5,207.5,102.5,107.5,-112.5,107.5,192.5,200,205,205,520,,,SBD,Wraps,M,Juniors 16-17,Yes
1,Darion Kelly,MO,75,74.8,,22,220,-230,230,230,107.5,112.5,117.5,117.5,255,272.5,-282.5,272.5,620,,,SBD,Wraps,M,Juniors 20-23,Yes
1,Sam Bishop,IN,82.5,81.7,,17,257.5,267.5,-272.5,267.5,142.5,147.5,150,150,222.5,237.5,245,245,662.5,,,SBD,Wraps,M,Juniors 16-17,Yes
1,Nolan Bishop,OH,82.5,80.7,,20,180,190,200,200,132.5,-140,-140,132.5,227.5,245,255,255,587.5,,,SBD,Wraps,M,Juniors 20-23,Yes
1,Terrance Wallette Jr,ND,90,87.9,,19,150,157.5,165,165,-127.5,130,-135,130,172.5,177.5,187.5,187.5,482.5,,,SBD,Wraps,M,Juniors 18-19,Yes
DQ,Adam Born,IL,90,88.4,,19,-267.5,-267.5,-267.5,,117.5,122.5,-127.5,122.5,267.5,-277.5,,267.5,,,,SBD,Wraps,M,Juniors 18-19,Yes
1,Photis Zographou,PA,90,89.9,,23,257.5,273,277.5,277.5,137.5,-147.5,147.5,147.5,255,270,-280,270,695,,,SBD,Wraps,M,Juniors 20-23,Yes
2,Bo Smith,AR,90,89.5,,22,240,265,275,275,152.5,162.5,-165,162.5,205,230,-235,230,667.5,,,SBD,Wraps,M,Juniors 20-23,Yes
3,Lucas Pagano,MO,90,89.7,,20,185,200,212.5,212.5,132.5,140,-142.5,140,212.5,227.5,237.5,237.5,590,,,SBD,Wraps,M,Juniors 20-23,Yes
1,Tyler Lindsay,VA,100,95.9,,23,232.5,240,247.5,247.5,160,165,-170,165,277.5,285,292.5,292.5,705,,297.5,SBD,Wraps,M,Juniors 20-23,Yes
1,Mason Cunningham,KY,125,111.1,,16,245,-257.5,-257.5,245,-155,-155,155,155,227.5,-245,245,245,645,,,SBD,Wraps,M,Juniors 16-17,Yes
1,Cody McClure,IN,125,116.6,,23,-240,250,265,265,145,155,-162.5,155,225,242.5,262.5,262.5,682.5,,,SBD,Wraps,M,Juniors 20-23,Yes
1,Christian Kearney,TX,67.5,65.6,,31,215,232.5,235,235,127.5,140,-145,140,285,300,303.5,303.5,678.5,,,SBD,Wraps,M,Open,Yes
2,Joe Morrow,MS,67.5,62.2,,37,197.5,212.5,217.5,217.5,117.5,130,-132.5,130,227.5,245,,245,592.5,,,SBD,Wraps,M,Open,Yes
DQ,Aubrey Large,TX,67.5,66.3,,15,-165,-165,-165,,,,,,,,,,,,,SBD,Wraps,M,Open,Yes
1,Eddie Saiz,NM,75,72.3,,26,-200,-215,215,215,140,150,155,155,225,240,250,250,620,,,SBD,Wraps,M,Open,Yes
1,Sam Bishop,IN,82.5,81.7,,17,257.5,267.5,-272.5,267.5,142.5,147.5,150,150,222.5,237.5,245,245,662.5,,,SBD,Wraps,M,Open,Yes
2,Nolan Bishop,OH,82.5,80.7,,20,180,190,200,200,132.5,-140,-140,132.5,227.5,245,255,255,587.5,,,SBD,Wraps,M,Open,Yes
3,Anthony Nielsen,IA,82.5,81.3,,28,-190,-190,200,200,115,125,-137.5,125,195,210,220,220,545,,,SBD,Wraps,M,Open,Yes
1,Parker Tims,KS,90,87.4,,24,275,-292.5,-292.5,275,170,-177.5,-177.5,170,272.5,285,-295,285,730,,,SBD,Wraps,M,Open,Yes
2,Photis Zographou,PA,90,89.9,,23,257.5,273,277.5,277.5,137.5,-147.5,147.5,147.5,255,270,-280,270,695,,,SBD,Wraps,M,Open,Yes
3,Eric Martin,AR,90,89,,28,215,-235,235,235,130,137.5,-142.5,137.5,220,245,-257.5,245,617.5,,,SBD,Wraps,M,Open,Yes
DQ,Adam Born,IL,90,88.4,,19,-267.5,-267.5,-267.5,,117.5,122.5,-127.5,122.5,267.5,-277.5,,267.5,,,,SBD,Wraps,M,Open,Yes
1,Raymond Saraiva,MA,100,99.1,,29,262.5,270,-275,270,157.5,165,-170,165,310,320,-325.5,320,755,,,SBD,Wraps,M,Open,Yes
2,Tyler Lindsay,VA,100,95.9,,23,232.5,240,247.5,247.5,160,165,-170,165,277.5,285,292.5,292.5,705,,297.5,SBD,Wraps,M,Open,Yes
3,Eddie Grizzle,VA,100,98.7,,32,-265,-265,265,265,150,165,-172.5,165,240,255,-270,255,685,,,SBD,Wraps,M,Open,Yes
4,Florideo Passarelli,MI,100,96.3,,26,225,237.5,-245,237.5,142.5,152.5,-157.5,152.5,225,237.5,-240,237.5,627.5,,,SBD,Wraps,M,Open,Yes
5,Mike Johnson #1,NY,100,98.5,,24,220,-230,-230,220,107.5,115,-125,115,230,240,-250,240,575,,,SBD,Wraps,M,Open,Yes
1,Tyler Sexton,OH,110,109,,26,272.5,285,,285,187.5,195,-202.5,195,282.5,295,-310,295,775,,,SBD,Wraps,M,Open,Yes
2,Evan Gambino,OH,110,106.7,,27,240,255,265,265,135,142.5,-145,142.5,265,282.5,-290,282.5,690,,,SBD,Wraps,M,Open,Yes
3,Kyle Meyers,NY,110,108.5,,33,247.5,-260,-260,247.5,157.5,-167.5,-167.5,157.5,272.5,282.5,-292.5,282.5,687.5,,,SBD,Wraps,M,Open,Yes
4,Victor Calamaro,NY,110,107.4,,30,260,-270,,260,145,152.5,-157.5,152.5,267.5,-285,-285,267.5,680,,,SBD,Wraps,M,Open,Yes
5,Landon Whitaker,IN,110,107.3,,31,230,240,247.5,247.5,145,150,-152.5,150,247.5,262.5,-277.5,262.5,660,,,SBD,Wraps,M,Open,Yes
6,Hogan Barnes,OH,110,105.3,,32,-195,210,-220,210,-155,170,-175,170,240,260,-272.5,260,640,,,SBD,Wraps,M,Open,Yes
1,Marc Masishin,PA,125,122.5,,32,265,-280,285,285,182.5,192.5,-197.5,192.5,275,295,-302.5,295,772.5,,,SBD,Wraps,M,Open,Yes
2,Marrius Garth,AL,125,121.5,,45,247.5,-255,270,270,150,167.5,-182.5,167.5,272.5,290,300,300,737.5,,307.5,SBD,Wraps,M,Open,Yes
3,Wyatt Joyner,NC,125,117.5,,25,240,260,-275,260,187.5,192.5,200,200,240,260,-272.5,260,720,,,SBD,Wraps,M,Open,Yes
1,Julius Walton,VA,140,138.2,,35,277.5,295,310,310,150,-160,160,160,272.5,-295,-295,272.5,742.5,,,SBD,Wraps,M,Open,Yes
2,Anthony Jacobson,IA,140,132.4,,34,225,255,282.5,282.5,155,-167.5,-167.5,155,265,-297.5,,265,702.5,,,SBD,Wraps,M,Open,Yes
1,Jeff Dean,MI,140+,151.3,,28,330,-342.5,342.5,342.5,190,-197.5,-197.5,190,280,305,-320,305,837.5,,,SBD,Wraps,M,Open,Yes
2,James Russell,WY,140+,158.4,,40,272.5,287.5,-295,287.5,192.5,200,205.5,205.5,242.5,255,-272.5,255,748,,,SBD,Wraps,M,Open,Yes
1,Joe Morrow,MS,67.5,62.2,,37,197.5,212.5,217.5,217.5,117.5,130,-132.5,130,227.5,245,,245,592.5,,,SBD,Wraps,M,Submasters 35-39,Yes
1,Dwaine Durrett,IN,110,108,,35,245,275,-287.5,275,-165,165,167.5,167.5,272.5,300,-305,300,742.5,,,SBD,Wraps,M,Submasters 35-39,Yes
1,Adam Miller #4,OH,125,123.9,,35,235,250,260,260,175,-182.5,-182.5,175,257.5,265,-275,265,700,,,SBD,Wraps,M,Submasters 35-39,Yes
1,Rob Engelman,NC,75,73.8,,47,150,162.5,167.5,167.5,115,120,-125,120,172.5,185,200,200,487.5,,,SBD,Wraps,M,Masters 45-49,Yes
2,Don McClure,NC,75,73.1,,46,140,147.5,-160,147.5,92.5,97.5,100,100,160,172.5,-182.5,172.5,420,,,SBD,Wraps,M,Masters 45-49,Yes
1,Tom Newell,NM,82.5,80.7,1963-08-22,,175,182.5,187.5,187.5,117.5,125,130,130,192.5,202.5,210,210,527.5,,,SBD,Wraps,M,Masters 55-59,Yes
2,Kevin Emery,CT,82.5,77.5,,55,132.5,140,145,145,95,100,105,105,147.5,155,160,160,410,,,SBD,Wraps,M,Masters 55-59,Yes
1,William Lyle,FL,90,85.6,,53,152.5,,,152.5,143,150,155,155,160,185,,185,492.5,,,SBD,Wraps,M,Masters 50-54,Yes
1,John Hare,TX,90,88.7,,59,200,225,235,235,147.5,167.5,-176,167.5,225,245,-260,245,647.5,,,SBD,Wraps,M,Masters 55-59,Yes
1,Paul Fulenwider,NY,90,88.1,,64,105,115,120,120,-87.5,87.5,-95,87.5,165,175,185,185,392.5,,,SBD,Wraps,M,Masters 60-64,Yes
DQ,Derek Sherlock,CO,100,99.9,,58,-165,-165,-165,,97.5,102.5,-107.5,102.5,210,215,-222.5,215,,,,SBD,Wraps,M,Masters 55-59,Yes
DQ,Ken Jones #1,AL,100,99.3,,64,-142.5,-142.5,-142.5,,,,,,142.5,,,142.5,,,,SBD,Wraps,M,Masters 60-64,Yes
1,Rudy Kadlub,OR,100,97.1,,71,-137.5,157.5,182.5,182.5,115,127.5,135,135,197.5,215,-227.5,215,532.5,,,SBD,Wraps,M,Masters 70-74,Yes
1,Marrius Garth,AL,125,121.5,,45,247.5,-255,270,270,150,167.5,-182.5,167.5,272.5,290,300,300,737.5,,307.5,SBD,Wraps,M,Masters 45-49,Yes
1,Joseph Gargiulo,NV,125,119.9,,50,182.5,190,-197.5,190,137.5,140,-145,140,197.5,205,-212.5,205,535,,,SBD,Wraps,M,Masters 50-54,Yes
1,James Russell,WY,140+,158.4,,40,272.5,287.5,-295,287.5,192.5,200,205.5,205.5,242.5,255,-272.5,255,748,,,SBD,Wraps,M,Masters 40-44,Yes
DQ,Dominick Tuzzo,TX,140+,153.1,,59,-150,-150,-150,,,,,,182.5,192.5,-202.5,192.5,,,,SBD,Wraps,M,Masters 55-59,Yes
1,Madeleine Pluss,CO,60,57.5,,27,142.5,155,162.5,162.5,75,-77.5,-77.5,75,150,-165,-175,150,387.5,,,SBD,Single-ply,F,Open,Yes
2,Bobbi Walden,NC,60,58.9,,28,117.5,125,130,130,72.5,-77.5,77.5,77.5,145,-150,-153,145,352.5,,,SBD,Single-ply,F,Open,Yes
1,April Hamon,TX,52,51.3,,37,135,-142.5,,135,60,-68,-68,60,140,147.5,-155,147.5,342.5,,,SBD,Single-ply,F,Submasters 35-39,Yes
1,April Hamon,TX,52,51.3,,37,135,-142.5,,135,60,-68,-68,60,140,147.5,-155,147.5,342.5,,,SBD,Single-ply,F,Open,Yes
1,Nick Hillman,CA,90,89.7,,31,195,205,-210,205,162.5,172.5,182.5,182.5,195,205,-215,205,592.5,,,SBD,Single-ply,M,Open,Yes
1,Sam Hatten,IL,100,96.6,,28,-215,215,-232.5,215,-160,165,-172.5,165,210,220,-230,220,600,,,SBD,Single-ply,M,Open,Yes
1,William Wenk,NC,110,108.9,,59,210,-225,-225,210,135,-142.5,,135,210,222.5,,222.5,567.5,,,SBD,Single-ply,M,Masters 55-59,Yes
DQ,Danielle Haley,MI,82.5,76.9,,15,,,,,-70,-70,-70,,,,,,,,,B,Raw,F,Juniors 13-15,Yes
1,Elle Bandy,IL,60,59.6,,32,,,,,67.5,70,-72.5,70,,,,,70,,,B,Raw,F,Open,Yes
1,Amanda Mowry,OH,67.5,65.5,,42,,,,,50,-55,57.5,57.5,,,,,57.5,,,B,Raw,F,Open,Yes
1,Charlie Cheryl Ritchie,OR,82.5,79.4,,49,,,,,105,110,115,115,,,,,115,,,B,Raw,F,Open,Yes
2,Kerrie Montalvan,SC,82.5,75.7,,38,,,,,77.5,-85,-87.5,77.5,,,,,77.5,,,B,Raw,F,Open,Yes
3,Rebeca Soto-Llamas,OH,82.5,82.2,,25,,,,,70,77.5,-82.5,77.5,,,,,77.5,,,B,Raw,F,Open,Yes
4,Christina Ullman,OH,82.5,79.5,,49,,,,,65,67.5,-70,67.5,,,,,67.5,,,B,Raw,F,Open,Yes
1,Jillian Clark #1,MI,90,88.2,,30,,,,,95,100,-102.5,100,,,,,100,,,B,Raw,F,Open,Yes
2,Chelsea Mathews,IN,90,83.5,,37,,,,,82.5,85,-87.5,85,,,,,85,,,B,Raw,F,Open,Yes
1,Kerrie Montalvan,SC,82.5,75.7,,38,,,,,77.5,-85,-87.5,77.5,,,,,77.5,,,B,Raw,F,Submasters 35-39,Yes
1,Chelsea Mathews,IN,90,83.5,,37,,,,,82.5,85,-87.5,85,,,,,85,,,B,Raw,F,Submasters 35-39,Yes
1,Margie Haddon,TX,52,50.5,,58,,,,,45,50.5,-53,50.5,,,,,50.5,,,B,Raw,F,Masters 55-59,Yes
1,Brenda Engle,OH,60,56.8,,55,,,,,42.5,47.5,-50,47.5,,,,,47.5,,,B,Raw,F,Masters 55-59,Yes
1,Amanda Mowry,OH,67.5,65.5,,42,,,,,50,-55,57.5,57.5,,,,,57.5,,,B,Raw,F,Masters 40-44,Yes
1,Tera Thornton,IN,67.5,63.7,,51,,,,,67.5,72.5,75,75,,,,,75,,,B,Raw,F,Masters 50-54,Yes
2,Monica Gillespie,MO,67.5,65.8,,53,,,,,55,57.5,-60,57.5,,,,,57.5,,,B,Raw,F,Masters 50-54,Yes
1,Charlie Cheryl Ritchie,OR,82.5,79.4,,49,,,,,105,110,115,115,,,,,115,,,B,Raw,F,Masters 45-49,Yes
2,Christina Ullman,OH,82.5,79.5,,49,,,,,65,67.5,-70,67.5,,,,,67.5,,,B,Raw,F,Masters 45-49,Yes
1,Jennifer Copus,PA,82.5,79.4,,50,,,,,62.5,65,-67.5,65,,,,,65,,,B,Raw,F,Masters 50-54,Yes
1,Deborah Wade,IN,90+,101.3,,49,,,,,97.5,107.5,-115.5,107.5,,,,,107.5,,,B,Raw,F,Masters 45-49,Yes
1,Tanye Lacombe,TX,90+,103.9,,60,,,,,62.5,67.5,70,70,,,,,70,75.5,,B,Raw,F,Masters 60-64,Yes
DQ,Joseph Fazio,PA,67.5,66.5,,14,,,,,-115,-120,-120,,,,,,,,,B,Raw,M,Juniors 13-15,Yes
1,Levi Lafountain,ND,90,88.7,,18,,,,,135,142.5,-153,142.5,,,,,142.5,,,B,Raw,M,Juniors 18-19,Yes
1,Mack Ramsey,KY,90,88.6,,23,,,,,182.5,187.5,192.5,192.5,,,,,192.5,,,B,Raw,M,Juniors 20-23,Yes
2,Lucas Pagano,MO,90,89.7,,20,,,,,132.5,140,-142.5,140,,,,,140,,,B,Raw,M,Juniors 20-23,Yes
1,Adam Zink,CO,100,96.1,,19,,,,,145,152.5,157.5,157.5,,,,,157.5,162.5,,B,Raw,M,Juniors 18-19,Yes
1,Thomas Moschner,FL,100,97,,23,,,,,147.5,162.5,172.5,172.5,,,,,172.5,184,,B,Raw,M,Juniors 20-23,Yes
1,Wayne Koberna,OH,67.5,65.9,,60,,,,,115,122.5,125,125,,,,,125,,,B,Raw,M,Open,Yes
2,John Wehrli,CA,67.5,66.4,,56,,,,,95,-100,-100,95,,,,,95,,,B,Raw,M,Open,Yes
1,Christopher Vashi,OH,75,72.2,,44,,,,,125,-130,130,130,,,,,130,,,B,Raw,M,Open,Yes
1,Don Burris,CO,82.5,80.6,,50,,,,,115,117.5,120,120,,,,,120,,,B,Raw,M,Open,Yes
1,Sun Park,OH,90,89.3,,56,,,,,142.5,158,165.5,165.5,,,,,165.5,,,B,Raw,M,Open,Yes
2,Anthony Cinardo,VA,90,89.6,,28,,,,,152.5,160,-165,160,,,,,160,,,B,Raw,M,Open,Yes
1,Emanuel Alston,VA,100,97.9,,29,,,,,182.5,195,-197.5,195,,,,,195,,,B,Raw,M,Open,Yes
2,William Schneider,PA,100,98.7,,35,,,,,160,170,177.5,177.5,,,,,177.5,,,B,Raw,M,Open,Yes
3,Thomas Moschner,FL,100,97,,23,,,,,147.5,162.5,172.5,172.5,,,,,172.5,184,,B,Raw,M,Open,Yes
4,Randy Elbert,MD,100,92.2,,50,,,,,140,155,-157.5,155,,,,,155,,,B,Raw,M,Open,Yes
1,Michael Gilfix,TX,110,108.6,,40,,,,,160,167.5,172.5,172.5,,,,,172.5,,,B,Raw,M,Open,Yes
2,Alejandro Wickham,PA,110,108.7,,35,,,,,155,170,172.5,172.5,,,,,172.5,,,B,Raw,M,Open,Yes
1,Daryl Funk,OH,125,122.1,,53,,,,,220,-227.5,-227.5,220,,,,,220,,,B,Raw,M,Open,Yes
2,Wyatt Joyner,NC,125,117.5,,25,,,,,187.5,192.5,200,200,,,,,200,,,B,Raw,M,Open,Yes
3,Robert Eckhart,PA,125,122.2,,46,,,,,185,197.5,-202.5,197.5,,,,,197.5,,,B,Raw,M,Open,Yes
4,Ryan Flynn,OH,125,121.8,,34,,,,,-190,190,-200,190,,,,,190,,,B,Raw,M,Open,Yes
5,Jacob Hendrix,IL,125,112.6,,29,,,,,150,155,-160,155,,,,,155,,,B,Raw,M,Open,Yes
6,Wesley French,NV,125,118.5,,28,,,,,145,-150,150,150,,,,,150,,,B,Raw,M,Open,Yes
1,Kermit Adkins,OH,140,137.8,,33,,,,,207.5,-215,,207.5,,,,,207.5,,,B,Raw,M,Open,Yes
2,Erick Nealy,KY,140,140,,38,,,,,167.5,185,-192.5,185,,,,,185,,,B,Raw,M,Open,Yes
3,Christopher Orndorff,NV,140,131.5,,44,,,,,-180,180,-187.5,180,,,,,180,,,B,Raw,M,Open,Yes
4,Cody Hanson #1,NM,140,132.7,,44,,,,,145,152.5,160,160,,,,,160,,,B,Raw,M,Open,Yes
1,Rudy Harbin,MI,140+,200,,33,,,,,212.5,220,222.5,222.5,,,,,222.5,,,B,Raw,M,Open,Yes
2,James Russell,WY,140+,158.4,,40,,,,,192.5,200,205.5,205.5,,,,,205.5,,,B,Raw,M,Open,Yes
3,Robert Gains,VA,140+,148,,57,,,,,180,192.5,200,200,,,,,200,,,B,Raw,M,Open,Yes
4,Terry Cox,IL,140+,143.8,,54,,,,,182.5,-190.5,,182.5,,,,,182.5,,,B,Raw,M,Open,Yes
5,Evan McGlone,OH,140+,149.3,,24,,,,,-160,160,172.5,172.5,,,,,172.5,,,B,Raw,M,Open,Yes
1,William Schneider,PA,100,98.7,,35,,,,,160,170,177.5,177.5,,,,,177.5,,,B,Raw,M,Submasters 35-39,Yes
1,Alejandro Wickham,PA,110,108.7,,35,,,,,155,170,172.5,172.5,,,,,172.5,,,B,Raw,M,Submasters 35-39,Yes
1,Erick Nealy,KY,140,140,,38,,,,,167.5,185,-192.5,185,,,,,185,,,B,Raw,M,Submasters 35-39,Yes
1,Jerrod Leffler,IA,67.5,66.6,,48,,,,,150,155,-157.5,155,,,,,155,,,B,Raw,M,Masters 45-49,Yes
1,Gary Teeter,PA,67.5,66.9,,55,,,,,90,102.5,105,105,,,,,105,107.5,,B,Raw,M,Masters 55-59,Yes
2,John Wehrli,CA,67.5,66.4,,56,,,,,95,-100,-100,95,,,,,95,,,B,Raw,M,Masters 55-59,Yes
1,Wayne Koberna,OH,67.5,65.9,,60,,,,,115,122.5,125,125,,,,,125,,,B,Raw,M,Masters 60-64,Yes
1,Christopher Vashi,OH,75,72.2,,44,,,,,125,-130,130,130,,,,,130,,,B,Raw,M,Masters 40-44,Yes
2,Aron Freeman,WI,75,74,,43,,,,,115,125,-127.5,125,,,,,125,,,B,Raw,M,Masters 40-44,Yes
1,Rob Engelman,NC,75,73.8,,47,,,,,115,120,-125,120,,,,,120,,,B,Raw,M,Masters 45-49,Yes
1,Don Burris,CO,82.5,80.6,,50,,,,,115,117.5,120,120,,,,,120,,,B,Raw,M,Masters 50-54,Yes
1,Michael Morgan,KY,82.5,80.1,,58,,,,,92.5,102.5,110,110,,,,,110,,,B,Raw,M,Masters 55-59,Yes
1,John Hare,TX,90,88.7,,59,,,,,147.5,167.5,-176,167.5,,,,,167.5,,,B,Raw,M,Masters 55-59,Yes
2,Sun Park,OH,90,89.3,,56,,,,,142.5,158,165.5,165.5,,,,,165.5,,,B,Raw,M,Masters 55-59,Yes
1,Larry Soderberg,IA,90,87.9,,70,,,,,147.5,-152.5,,147.5,,,,,147.5,,,B,Raw,M,Masters 70-74,Yes
1,Randy Elbert,MD,100,92.2,,50,,,,,140,155,-157.5,155,,,,,155,,,B,Raw,M,Masters 50-54,Yes
2,Scott Gorman,OH,100,99.5,,54,,,,,142.5,-155.5,-155.5,142.5,,,,,142.5,,,B,Raw,M,Masters 50-54,Yes
1,Derek Sherlock,CO,100,99.9,,58,,,,,97.5,102.5,-107.5,102.5,,,,,102.5,,,B,Raw,M,Masters 55-59,Yes
1,Michael Gilfix,TX,110,108.6,,40,,,,,160,167.5,172.5,172.5,,,,,172.5,,,B,Raw,M,Masters 40-44,Yes
1,Mike Desrosiers,AZ,110,110,,47,,,,,157.5,165,-172.5,165,,,,,165,,,B,Raw,M,Masters 45-49,Yes
1,Antonio Pagano,MO,110,108,,50,,,,,145,152.5,160,160,,,,,160,,,B,Raw,M,Masters 50-54,Yes
1,Tom Mullaney,OH,110,107.1,,60,,,,,170,182.5,-187.5,182.5,,,,,182.5,,,B,Raw,M,Masters 60-64,Yes
DQ,Anthony Turner,VA,125,122.5,,44,,,,,-160,-160,-160,,,,,,,,,B,Raw,M,Masters 40-44,Yes
1,Robert Eckhart,PA,125,122.2,,46,,,,,185,197.5,-202.5,197.5,,,,,197.5,,,B,Raw,M,Masters 45-49,Yes
1,Daryl Funk,OH,125,122.1,,53,,,,,220,-227.5,-227.5,220,,,,,220,,,B,Raw,M,Masters 50-54,Yes
1,Stephen Correa,TX,125,120.7,,65,,,,,115,122.5,127.5,127.5,,,,,127.5,,,B,Raw,M,Masters 65-69,Yes
1,Christopher Orndorff,NV,140,131.5,,44,,,,,-180,180,-187.5,180,,,,,180,,,B,Raw,M,Masters 40-44,Yes
2,Cody Hanson #1,NM,140,132.7,,44,,,,,145,152.5,160,160,,,,,160,,,B,Raw,M,Masters 40-44,Yes
1,James Russell,WY,140+,158.4,,40,,,,,192.5,200,205.5,205.5,,,,,205.5,,,B,Raw,M,Masters 40-44,Yes
1,Terry Cox,IL,140+,143.8,,54,,,,,182.5,-190.5,,182.5,,,,,182.5,,,B,Raw,M,Masters 50-54,Yes
1,Robert Gains,VA,140+,148,,57,,,,,180,192.5,200,200,,,,,200,,,B,Raw,M,Masters 55-59,Yes
1,John Cornell,TX,82.5,79.2,,56,,,,,-130,130,-137.5,130,,,,,130,,,B,Single-ply,M,Masters 55-59,Yes
1,Viola Simmons,AR,56,53.6,,22,,,,,,,,,120,137.5,142.5,142.5,142.5,,,D,Raw,F,Juniors 20-23,Yes
1,Aidan Barney,OR,90+,99.7,,23,,,,,,,,,150,162.5,-167.5,162.5,162.5,,,D,Raw,F,Juniors 20-23,Yes
1,Margie Haddon,TX,52,50.5,,58,,,,,,,,,102.5,108.5,-110.5,108.5,108.5,,,D,Raw,F,Open,Yes
1,Viola Simmons,AR,56,53.6,,22,,,,,,,,,120,137.5,142.5,142.5,142.5,,,D,Raw,F,Open,Yes
1,Stephanie Hanson,NJ,60,59.9,,28,,,,,,,,,167.5,180,185,185,185,,,D,Raw,F,Open,Yes
2,Elle Bandy,IL,60,59.6,,32,,,,,,,,,140,145,147.5,147.5,147.5,,,D,Raw,F,Open,Yes
1,Tricia Floyd,VA,67.5,66.3,,40,,,,,,,,,185,195,-202.5,195,195,,,D,Raw,F,Open,Yes
2,Natasha Beasley,VA,67.5,66.3,,38,,,,,,,,,167.5,175,183,183,183,,,D,Raw,F,Open,Yes
3,Amanda Mowry,OH,67.5,65.5,,42,,,,,,,,,120,130,135,135,135,,,D,Raw,F,Open,Yes
1,Emily McAtee,OH,75,73,,29,,,,,,,,,182.5,185,-190,185,185,,,D,Raw,F,Open,Yes
1,Kerrie Montalvan,SC,82.5,75.7,,38,,,,,,,,,175,190,-195,190,190,,,D,Raw,F,Open,Yes
2,Charlie Cheryl Ritchie,OR,82.5,79.4,,49,,,,,,,,,147.5,157.5,167.5,167.5,167.5,,,D,Raw,F,Open,Yes
3,Christina Ullman,OH,82.5,79.5,,49,,,,,,,,,140,145,-147.5,145,145,,,D,Raw,F,Open,Yes
4,Lauren Stewart,OH,82.5,81.1,,28,,,,,,,,,145,-160,-160,145,145,,,D,Raw,F,Open,Yes
1,Chelsea Mathews,IN,90,83.5,,37,,,,,,,,,152.5,170,185,185,185,,,D,Raw,F,Open,Yes
2,Liliana Correa,IL,90,87.9,,38,,,,,,,,,137.5,150,165,165,165,,,D,Raw,F,Open,Yes
1,Carly Blair,CO,90+,103.2,,25,,,,,,,,,155,170,182.5,182.5,182.5,,,D,Raw,F,Open,Yes
1,Natasha Beasley,VA,67.5,66.3,,38,,,,,,,,,167.5,175,183,183,183,,,D,Raw,F,Submasters 35-39,Yes
1,Kerrie Montalvan,SC,82.5,75.7,,38,,,,,,,,,175,190,-195,190,190,,,D,Raw,F,Submasters 35-39,Yes
1,Chelsea Mathews,IN,90,83.5,,37,,,,,,,,,152.5,170,185,185,185,,,D,Raw,F,Submasters 35-39,Yes
2,Liliana Correa,IL,90,87.9,,38,,,,,,,,,137.5,150,165,165,165,,,D,Raw,F,Submasters 35-39,Yes
1,Margie Haddon,TX,52,50.5,,58,,,,,,,,,102.5,108.5,-110.5,108.5,108.5,,,D,Raw,F,Masters 55-59,Yes
1,Brenda Engle,OH,60,56.8,,55,,,,,,,,,87.5,95,-100,95,95,,,D,Raw,F,Masters 55-59,Yes
1,Tricia Floyd,VA,67.5,66.3,,40,,,,,,,,,185,195,-202.5,195,195,,,D,Raw,F,Masters 40-44,Yes
2,Amanda Mowry,OH,67.5,65.5,,42,,,,,,,,,120,130,135,135,135,,,D,Raw,F,Masters 40-44,Yes
1,Monica Gillespie,MO,67.5,65.8,,53,,,,,,,,,130,135,-140,135,135,,,D,Raw,F,Masters 50-54,Yes
1,Charlie Cheryl Ritchie,OR,82.5,79.4,,49,,,,,,,,,147.5,157.5,167.5,167.5,167.5,,,D,Raw,F,Masters 45-49,Yes
2,Christina Ullman,OH,82.5,79.5,,49,,,,,,,,,140,145,-147.5,145,145,,,D,Raw,F,Masters 45-49,Yes
1,Chari Figurski,PA,90+,104.9,,55,,,,,,,,,120,130,137.5,137.5,137.5,,150,D,Raw,F,Masters 55-59,Yes
1,Tanye Lacombe,TX,90+,103.9,,60,,,,,,,,,120,127.5,-142.5,127.5,127.5,,,D,Raw,F,Masters 60-64,Yes
1,Brock Dunkelberger,PA,75,71.6,,17,,,,,,,,,150,160,165,165,165,,,D,Raw,M,Juniors 16-17,Yes
1,Ezra Hercyk,VA,75,74,,19,,,,,,,,,215,228,-232.5,228,228,,,D,Raw,M,Juniors 18-19,Yes
1,Levi Lafountain,ND,90,88.7,,18,,,,,,,,,240,252.5,-253,252.5,252.5,,,D,Raw,M,Juniors 18-19,Yes
1,Lucas Pagano,MO,90,89.7,,20,,,,,,,,,212.5,227.5,237.5,237.5,237.5,,,D,Raw,M,Juniors 20-23,Yes
1,Adam Zink,CO,100,96.1,,19,,,,,,,,,245,265,-277.5,265,265,,,D,Raw,M,Juniors 18-19,Yes
1,Mason Cunningham,KY,125,111.1,,16,,,,,,,,,227.5,-245,245,245,245,,,D,Raw,M,Juniors 16-17,Yes
1,Christian Kearney,TX,67.5,65.6,,31,,,,,,,,,285,300,303.5,303.5,303.5,,,D,Raw,M,Open,Yes
2,John Wehrli,CA,67.5,66.4,,56,,,,,,,,,172.5,183,-187.5,183,183,,,D,Raw,M,Open,Yes
1,Casmir Hughes,OH,75,73.8,,32,,,,,,,,,282.5,315,-327.5,315,315,,,D,Raw,M,Open,Yes
2,Christopher Vashi,OH,75,72.2,,44,,,,,,,,,200,215,227.5,227.5,227.5,,,D,Raw,M,Open,Yes
1,Abner Nazario,NJ,82.5,79.9,,27,,,,,,,,,295,325.5,,325.5,325.5,,,D,Raw,M,Open,Yes
1,Terry Smith #1,KY,90,88.4,,43,,,,,,,,,235,252.5,262.5,262.5,262.5,,265,D,Raw,M,Open,Yes
2,Mark Lombardo,OH,90,88.7,,28,,,,,,,,,212.5,-220,-220,212.5,212.5,,,D,Raw,M,Open,Yes
1,Zach Presto,PA,100,96.2,,26,,,,,,,,,260,275,-290,275,275,,,D,Raw,M,Open,Yes
1,Kyle Meyers,NY,110,108.5,,33,,,,,,,,,272.5,282.5,-292.5,282.5,282.5,,,D,Raw,M,Open,Yes
2,Alejandro Wickham,PA,110,108.7,,35,,,,,,,,,247.5,266,270,270,270,,277.5,D,Raw,M,Open,Yes
3,Michael Gilfix,TX,110,108.6,,40,,,,,,,,,240,250,-255,250,250,,,D,Raw,M,Open,Yes
1,Jacob Hendrix,IL,125,112.6,,29,,,,,,,,,257.5,267.5,-272.5,267.5,267.5,,,D,Raw,M,Open,Yes
2,Blake Stanley,NC,125,114.4,,28,,,,,,,,,225,242.5,250,250,250,,,D,Raw,M,Open,Yes
3,Wesley French,NV,125,118.5,,28,,,,,,,,,185,210,-215,210,210,,,D,Raw,M,Open,Yes
1,Anthony Jacobson,IA,140,132.4,,34,,,,,,,,,265,-297.5,,265,265,,,D,Raw,M,Open,Yes
2,Cody Hanson #1,NM,140,132.7,,44,,,,,,,,,227.5,242.5,252.5,252.5,252.5,,,D,Raw,M,Open,Yes
1,Robert Gains,VA,140+,148,,57,,,,,,,,,252.5,272.5,-277.5,272.5,272.5,,,D,Raw,M,Open,Yes
1,Alejandro Wickham,PA,110,108.7,,35,,,,,,,,,247.5,266,270,270,270,,277.5,D,Raw,M,Submasters 35-39,Yes
1,John Wehrli,CA,67.5,66.4,,56,,,,,,,,,172.5,183,-187.5,183,183,,,D,Raw,M,Masters 55-59,Yes
2,Gary Teeter,PA,67.5,66.9,,55,,,,,,,,,140,152.5,162.5,162.5,162.5,,165,D,Raw,M,Masters 55-59,Yes
1,Christopher Vashi,OH,75,72.2,,44,,,,,,,,,200,215,227.5,227.5,227.5,,,D,Raw,M,Masters 40-44,Yes
1,Richard James,TX,75,74.3,,47,,,,,,,,,202.5,-222.5,-222.5,202.5,202.5,,,D,Raw,M,Masters 45-49,Yes
2,Rob Engelman,NC,75,73.8,,47,,,,,,,,,172.5,185,200,200,200,,,D,Raw,M,Masters 45-49,Yes
1,Thomas Bussineau,GA,75,74.5,,56,,,,,,,,,185,195,200,200,200,,205,D,Raw,M,Masters 55-59,Yes
1,Michael Morgan,KY,82.5,80.1,,58,,,,,,,,,170,180,-190,180,180,,,D,Raw,M,Masters 55-59,Yes
1,Terry Smith #1,KY,90,88.4,,43,,,,,,,,,235,252.5,262.5,262.5,262.5,,265,D,Raw,M,Masters 40-44,Yes
1,Paul Fulenwider,NY,90,88.1,,64,,,,,,,,,165,175,185,185,185,,,D,Raw,M,Masters 60-64,Yes
1,Derek Sherlock,CO,100,99.9,,58,,,,,,,,,210,215,-222.5,215,215,,,D,Raw,M,Masters 55-59,Yes
1,Ken Jones #1,AL,100,99.3,,64,,,,,,,,,142.5,,,142.5,142.5,,,D,Raw,M,Masters 60-64,Yes
1,Michael Gilfix,TX,110,108.6,,40,,,,,,,,,240,250,-255,250,250,,,D,Raw,M,Masters 40-44,Yes
1,Mike Desrosiers,AZ,110,110,,47,,,,,,,,,255.5,272.5,-282.5,272.5,272.5,,,D,Raw,M,Masters 45-49,Yes
2,Joseph Young #1,OH,110,104.5,,47,,,,,,,,,205,227.5,-230,227.5,227.5,,,D,Raw,M,Masters 45-49,Yes
1,Peter Pauline,GA,110,109.5,,65,,,,,,,,,-215,225,235,235,235,,,D,Raw,M,Masters 65-69,Yes
1,Bobby Dodd,WA,110,100.2,,75,,,,,,,,,135.5,147.5,,147.5,147.5,,,D,Raw,M,Masters 75-79,Yes
1,Anthony Turner,VA,125,122.5,,44,,,,,,,,,-227.5,227.5,-242.5,227.5,227.5,,,D,Raw,M,Masters 40-44,Yes
1,Stephen Correa,TX,125,120.7,,65,,,,,,,,,185,195,205,205,205,,,D,Raw,M,Masters 65-69,Yes
1,Cody Hanson #1,NM,140,132.7,,44,,,,,,,,,227.5,242.5,252.5,252.5,252.5,,,D,Raw,M,Masters 40-44,Yes
1,Robert Gains,VA,140+,148,,57,,,,,,,,,252.5,272.5,-277.5,272.5,272.5,,,D,Raw,M,Masters 55-59,Yes
2,Dominick Tuzzo,TX,140+,153.1,,59,,,,,,,,,182.5,192.5,-202.5,192.5,192.5,,,D,Raw,M,Masters 55-59,Yes
1,April Hamon,TX,52,51.3,,37,,,,,,,,,140,147.5,-155,147.5,147.5,,,D,Single-ply,F,Open,Yes
1,Madeleine Pluss,CO,60,57.5,,27,,,,,,,,,150,-165,-175,150,150,,,D,Single-ply,F,Open,Yes
1,April Hamon,TX,52,51.3,,37,,,,,,,,,140,147.5,-155,147.5,147.5,,,D,Single-ply,F,Submasters 35-39,Yes
1,Joe Walden,KS,82.5,79.4,,63,,,,,,,,,165,193,200,200,200,,,D,Single-ply,M,Masters 60-64,Yes
1,Marty Kleis,OH,90,88.1,,67,,,,,,,,,147.5,160,170,170,170,,,D,Single-ply,M,Masters 65-69,Yes
