Place,Name,Sex,BirthDate,Age,Country,State,Equipment,Division,BodyweightKg,WeightClassKg,Squat1Kg,Squat2Kg,Squat3Kg,Best3SquatKg,Bench1Kg,Bench2Kg,Bench3Kg,Bench4Kg,Best3BenchKg,Deadlift1Kg,Deadlift2Kg,Deadlift3Kg,Best3DeadliftKg,TotalKg,Event
1,Victoria Osuna,F,1995-09-17,26,USA,CA,Raw,Open,74.9,75,105,112.5,-117.5,112.5,82.5,-87.5,-87.5,,82.5,152.5,157.5,162.5,162.5,357.5,SBD
1,Laura Cabrera,F,1988-10-28,33,USA,CA,Raw,Open,78.7,82.5,102.5,115,127.5,127.5,40,42.5,47.5,,47.5,125,137.5,145,145,320,SBD
1,Elizabeth Owens,F,1989-05-09,32,USA,CA,Raw,Open,88.5,90,125,130,135,135,42.5,47.5,-52.5,,47.5,127.5,137.5,142.5,142.5,325,SBD
1,Miguel Avalos,M,2001-02-28,21,USA,CA,Raw,J20-23,66.6,67.5,147.5,160,165,165,105,-115,-115,,105,182.5,197.5,202.5,202.5,472.5,SBD
1,Marco Espinoza,M,2001-02-19,21,USA,CA,Raw,J20-23,88.8,90,192.5,200,-217.5,200,-130,135,137.5,,137.5,200,220,235,235,572.5,SBD
1,Carlos Aguilar,M,1999-10-30,22,USA,CA,Raw,J20-23,109.4,110,165,170,180,180,110,117.5,-125,,117.5,187.5,195,202.5,202.5,500,SBD
1,Joshua Mata,M,2000-07-23,21,USA,CA,Raw,J20-23,112.4,125,155,167.5,175,175,80,90,-100,,90,-215,-227.5,227.5,227.5,492.5,SBD
1,Anthony Montano,M,1997-03-20,25,USA,CA,Raw,Open,95.7,100,192.5,215,225,225,-142.5,155,-157.5,,155,225,255,-265,255,635,SBD
1,Larry De La Cerda Jr,M,1987-10-31,34,USA,CA,Raw,Open,108.1,110,177.5,192.5,197.5,197.5,135,137.5,-140,,137.5,200,210,-227.5,210,545,SBD
1,Sam Quillen,M,1985-04-02,37,USA,CA,Raw,Open,114.7,125,170,200,230,230,150,165,175,,175,260,280,300,300,705,SBD
2,Donovan Powers,M,1996-12-10,25,USA,CA,Raw,Open,122.7,125,165,180,195,195,77.5,87.5,97.5,,97.5,200,215,227.5,227.5,520,SBD
DQ,Anthony Martinez #25,M,1987-08-28,34,USA,CA,Raw,Open,122.6,125,100,-150,150,150,-185,-185,-185,,,155,170,-182.5,170,,SBD
1,Jake Vela,M,1995-09-18,26,USA,CA,Raw,Open,136.4,140,272.5,282.5,290,290,192.5,205,-217.5,,205,272.5,287.5,-295,287.5,782.5,SBD
1,Jason Lozano,M,2002-09-08,19,USA,CA,Raw,J17-19,92.9,100,175,192.5,200,200,115,-125,-125,,115,215,237.5,245,245,560,SBD
1,Gabriel Salvatierra,M,1995-02-27,27,USA,CA,Wraps,Open,119.7,125,280,300,-310,300,162.5,175,-185,,175,282.5,300,-307.5,300,775,SBD
1,Rollan Romeo,M,1983-05-14,38,USA,CA,Raw,Open,71.3,75,,,,,160,170,173,175,173,,,,,173,B
1,Rollan Romeo,M,1983-05-14,38,USA,CA,Raw,S35-39,71.3,75,,,,,160,170,173,175,173,,,,,173,B
1,Rollan Romeo Jr,M,2006-05-29,15,USA,CA,Raw,J14-16,56,56,,,,,85,-92.5,-92.5,,85,,,,,85,B
