Division,WeightClassKg,Place,Name,Team,BodyweightKg,Best3SquatKg,Best3BenchKg,Best3DeadliftKg,TotalKg,Equipment,Event,Sex,BirthDate
Boys,51.71,1,Kevin Debes,Brownsville Rivera,49.8,120.2,68.04,129.27,317.51,Single-ply,SBD,M,
Boys,51.71,2,Daniel Gutierrez,Brownsville Hanna,48.99,115.67,58.97,124.74,299.37,Single-ply,SBD,M,
Boys,55.79,1,Matthew Mancias,Brownsville Hanna,54.61,147.42,92.99,183.7,424.11,Single-ply,SBD,M,
Boys,55.79,2,Andres Pelayo,Brownsville Rivera,55.07,129.27,70.31,151.95,351.53,Single-ply,SBD,M,
Boys,59.87,1,Gabriel Andrade,Brownsville Rivera,59.78,183.7,92.99,190.51,467.2,Single-ply,SBD,M,
Boys,67.13,1,Jesus Pardo,Brownsville Rivera,67.04,240.4,136.08,208.65,585.13,Single-ply,SBD,M,
Boys,67.13,2,Gilbert Garcia,Brownsville Hanna,65.14,208.65,113.4,206.38,528.44,Single-ply,SBD,M,
Boys,67.13,3,Carlos Vasquez,Brownsville Hanna,63.32,170.1,90.72,183.7,444.52,Single-ply,SBD,M,
Boys,67.13,4,Jose Medellin,Brownsville Rivera,66.59,154.22,102.06,156.49,412.77,Single-ply,SBD,M,
Boys,67.13,5,Devin Trevino,Brownsville Hanna,66.32,147.42,90.72,156.49,394.63,Single-ply,SBD,M,
Boys,67.13,6,Abraham Sandoval,Port Isabel,65.77,136.08,70.31,151.95,358.34,Single-ply,SBD,M,
Boys,67.13,7,Dylan Green,Port Isabel,65.41,140.61,68.04,140.61,349.27,Single-ply,SBD,M,
Boys,67.13,8,Edgar Martinez,Port Isabel,65.32,102.06,68.04,124.74,294.84,Single-ply,SBD,M,
Boys,74.84,1,Jose E Hernandez,Brownsville Rivera,74.21,224.53,133.81,235.87,594.21,Single-ply,SBD,M,
Boys,74.84,2,Jacob Broussard,Brownsville Hanna,74.66,235.87,147.42,199.58,582.87,Single-ply,SBD,M,
Boys,74.84,3,Rual Ramirez,Brownsville Hanna,74.66,195.04,106.59,195.04,496.68,Single-ply,SBD,M,
Boys,74.84,4,Juan Garcia,Brownsville Rivera,72.39,170.1,102.06,208.65,480.81,Single-ply,SBD,M,
Boys,74.84,5,Aaron Barrera,Port Isabel,74.21,181.44,122.47,165.56,469.47,Single-ply,SBD,M,
Boys,74.84,6,Steve Arteaga,Brownsville Rivera,74.3,183.7,102.06,154.22,439.98,Single-ply,SBD,M,
Boys,74.84,7,Daniel Galvan,Port Isabel,74.21,151.95,86.18,149.69,387.82,Single-ply,SBD,M,
Boys,74.84,8,Isaias Guillen,Port Isabel,70.22,129.27,81.65,154.22,365.14,Single-ply,SBD,M,
Boys,74.84,9,Dominic Arocho,Port Isabel,70.22,120.2,72.57,124.74,317.51,Single-ply,SBD,M,
Boys,82.1,1,Daniel Villanueva,Brownsville Rivera,81.74,210.92,133.81,213.19,557.92,Single-ply,SBD,M,
Boys,82.1,2,Joseph Arredondo,Brownsville Hanna,81.01,215.46,122.47,210.92,548.85,Single-ply,SBD,M,
Boys,82.1,3,Jesus Fernandez,Brownsville Rivera,81.56,210.92,131.54,206.38,548.85,Single-ply,SBD,M,
Boys,82.1,4,Noah Hernandez,Port Isabel,81.83,147.42,90.72,147.42,385.55,Single-ply,SBD,M,
Boys,89.81,1,Sebastian Lozano,Brownsville Hanna,89.81,265.35,161.03,208.65,635.03,Single-ply,SBD,M,
Boys,89.81,2,Mason Reyes,Port Isabel,88.54,136.08,92.99,154.22,383.29,Single-ply,SBD,M,
Boys,89.81,3,Sebastian Nelson,Port Isabel,87.82,129.27,72.57,142.88,344.73,Single-ply,SBD,M,
Boys,99.79,1,Santos Avalos,Brownsville Hanna,97.34,274.42,145.15,238.14,657.71,Single-ply,SBD,M,
Boys,99.79,2,Mario Nava,Port Isabel,96.62,176.9,111.13,163.29,451.32,Single-ply,SBD,M,
Boys,99.79,3,Michael Zaloski,Port Isabel,96.62,133.81,56.7,124.74,315.25,Single-ply,SBD,M,
Boys,109.77,1,Hector Guerrero,Brownsville Rivera,108.77,244.94,167.83,213.19,625.96,Single-ply,SBD,M,
Boys,109.77,2,Jesus Salas,Brownsville Rivera,108.95,249.48,142.88,208.65,601.01,Single-ply,SBD,M,
Boys,109.77,3,Aiden Villanueva,Brownsville Hanna,108.5,215.46,136.08,181.44,532.97,Single-ply,SBD,M,
Boys,109.77,4,Luis Varela,Port Isabel,102.87,136.08,77.11,133.81,347,Single-ply,SBD,M,
Boys,124.74,1,Abraham Lozano,Brownsville Rivera,123.38,294.84,136.08,231.33,662.24,Single-ply,SBD,M,
Boys,124.74,2,Ezekiel Torres,Brownsville Rivera,124.38,170.1,115.67,170.1,455.86,Single-ply,SBD,M,
Boys,139.71,1,Matthew Ybarbo,Brownsville Rivera,132.72,294.84,183.7,265.35,743.89,Single-ply,SBD,M,
Boys,139.71+,1,Sergio Hernandez,Brownsville Hanna,153.68,190.51,120.2,167.83,478.54,Single-ply,SBD,M,
