Division,WeightClassKg,Place,Name,Team,BodyweightKg,Best3SquatKg,Best3BenchKg,Best3DeadliftKg,TotalKg,Equipment,Event,Sex,BirthDate
Boys,51.71,1,Nick Papas,Redwater,47.36,92.99,47.63,102.06,242.67,Single-ply,SBD,M,
Boys,55.79,1,Avery Whitlow,Atlanta,54.88,156.49,83.91,174.63,415.04,Single-ply,SBD,M,
Boys,55.79,2,Landon Caudle,Maud,55.79,102.06,65.77,122.47,290.3,Single-ply,SBD,M,
Boys,55.79,3,Gavin Britt,Waskom,52.62,74.84,43.09,92.99,210.92,Single-ply,SBD,M,
Boys,59.87,1,Seth Hicks,Hughes Springs,58.51,149.69,68.04,136.08,353.8,Single-ply,SBD,M,
Boys,59.87,2,Josiah Hunt,Atlanta,58.51,133.81,74.84,140.61,349.27,Single-ply,SBD,M,
Boys,59.87,3,RJ Galloway,Texarkana Liberty-Eylau,59.42,115.67,72.57,136.08,324.32,Single-ply,SBD,M,
Boys,67.13,1,Markus Gonzalez,Waskom,67.13,181.44,113.4,204.12,498.95,Single-ply,SBD,M,
Boys,67.13,2,Carson Gonzalez,Waskom,67.13,154.22,90.72,181.44,426.38,Single-ply,SBD,M,
Boys,67.13,3,Mason Windham,Redwater,66.32,140.61,95.25,172.37,408.23,Single-ply,SBD,M,
Boys,67.13,4,Braden Wiley,Queen City,64.41,138.35,90.72,158.76,387.82,Single-ply,SBD,M,
Boys,67.13,5,Logan Brock,Redwater,67.13,131.54,102.06,154.22,387.82,Single-ply,SBD,M,
Boys,67.13,6,Lance Miller,Clarksville,67.13,124.74,72.57,172.37,369.68,Single-ply,SBD,M,
Boys,67.13,7,James Phillips,Hughes Springs,66.22,120.2,70.31,145.15,335.66,Single-ply,SBD,M,
Boys,67.13,8,Landon Thurston,Waskom,63.5,122.47,63.5,142.88,328.85,Single-ply,SBD,M,
Boys,67.13,9,Luke McEntire,Redwater,65.5,106.59,70.31,136.08,312.98,Single-ply,SBD,M,
Boys,67.13,10,Greer Early,Redwater,64.68,127.01,61.23,108.86,297.1,Single-ply,SBD,M,
Boys,67.13,11,Micah Whittington,Queen City,62.6,111.13,63.5,117.93,292.57,Single-ply,SBD,M,
Boys,67.13,12,Steven Hall,Maud,61.69,108.86,56.7,124.74,290.3,Single-ply,SBD,M,
Boys,74.84,1,Cruz Hernandez,De Kalb,74.84,195.04,133.81,197.31,526.17,Single-ply,SBD,M,
Boys,74.84,2,Delvon Federick,Queen City,74.39,188.24,97.52,206.38,492.15,Single-ply,SBD,M,
Boys,74.84,3,David McKeever,Redwater,74.48,183.7,117.93,188.24,489.88,Single-ply,SBD,M,
Boys,74.84,4,Tristian Lee,Maud,74.84,183.7,113.4,190.51,487.61,Single-ply,SBD,M,
Boys,74.84,5,Ethan Evans,Simms Bowie,73.94,170.1,115.67,181.44,467.2,Single-ply,SBD,M,
Boys,74.84,6,Christian Nard,Queen City,74.84,172.37,97.52,183.7,453.59,Single-ply,SBD,M,
Boys,74.84,7,Riley Owen,Redwater,74.03,158.76,108.86,163.29,430.91,Single-ply,SBD,M,
Boys,74.84,8,James Obenoskey,Queen City,73.03,151.95,88.45,165.56,405.97,Single-ply,SBD,M,
Boys,74.84,9,Grayson Smith,Maud,74.39,147.42,92.99,156.49,396.89,Single-ply,SBD,M,
Boys,74.84,10,Anthony Helms,Redwater,70.4,136.08,104.33,138.35,378.75,Single-ply,SBD,M,
Boys,74.84,11,Arthur Mcelroy,Texarkana Texas,68.49,142.88,83.91,142.88,369.68,Single-ply,SBD,M,
Boys,74.84,12,Tyce Pollen,Texarkana Liberty-Eylau,68.49,133.81,92.99,122.47,349.27,Single-ply,SBD,M,
Boys,74.84,13,Timothey Brady,Queen City,74.39,129.27,65.77,149.69,344.73,Single-ply,SBD,M,
Boys,82.1,1,Dalton Daniel,New Boston,81.19,272.16,124.74,217.72,614.62,Single-ply,SBD,M,
Boys,82.1,2,Kyle Gross,Atlanta,80.29,188.24,127.01,231.33,546.58,Single-ply,SBD,M,
Boys,82.1,3,Cj Betts,De Kalb,77.11,192.78,122.47,192.78,508.02,Single-ply,SBD,M,
Boys,82.1,4,Holden Miller,Hughes Springs,82.1,167.83,113.4,217.72,498.95,Single-ply,SBD,M,
Boys,82.1,5,Tykwon Williams,Texarkana Texas,82.1,190.51,115.67,183.7,489.88,Single-ply,SBD,M,
Boys,82.1,6,Xavier Nash,Atlanta,80.29,183.7,111.13,181.44,476.27,Single-ply,SBD,M,
Boys,82.1,7,Trey Stevenson,Waskom,81.19,167.83,108.86,192.78,469.47,Single-ply,SBD,M,
Boys,82.1,8,Andrew White,Redwater,82.1,170.1,108.86,190.51,469.47,Single-ply,SBD,M,
Boys,82.1,9,Christopher Gennings,Texarkana Texas,81.19,158.76,115.67,192.78,467.2,Single-ply,SBD,M,
Boys,82.1,10,Wyatt Clepper,Texarkana Liberty-Eylau,75.3,170.1,97.52,174.63,442.25,Single-ply,SBD,M,
Boys,82.1,11,Clint Wooding,Queen City,79.38,156.49,90.72,185.97,433.18,Single-ply,SBD,M,
Boys,82.1,12,Texan Lancaster,Hughes Springs,82.1,136.08,113.4,183.7,433.18,Single-ply,SBD,M,
Boys,82.1,13,Jaymari Howard,Atlanta,80.74,158.76,88.45,165.56,412.77,Single-ply,SBD,M,
Boys,82.1,14,Gavin Brooks,Redwater,80.2,142.88,83.91,158.76,385.55,Single-ply,SBD,M,
Boys,82.1,DQ,Jake Murray,Hughes Springs,78.02,199.58,117.93,172.37,,Single-ply,SBD,M,
Boys,89.81,1,Amar Love,De Kalb,86.64,249.48,142.88,258.55,650.91,Single-ply,SBD,M,
Boys,89.81,2,DeVon Hardiman,Redwater,89.81,158.76,111.13,172.37,442.25,Single-ply,SBD,M,
Boys,89.81,3,Wesley Kennedy,Atlanta,85.28,158.76,88.45,192.78,439.98,Single-ply,SBD,M,
Boys,89.81,4,Braxton Piffier,Hughes Springs,87.54,145.15,102.06,156.49,403.7,Single-ply,SBD,M,
Boys,89.81,5,Canden Green,Simms Bowie,88.45,158.76,92.99,145.15,396.89,Single-ply,SBD,M,
Boys,99.79,1,Cole Edwards,Hughes Springs,96.62,249.48,161.03,240.4,650.91,Single-ply,SBD,M,
Boys,99.79,2,Cade Pipes,Redwater,99.79,272.16,145.15,226.8,644.1,Single-ply,SBD,M,
Boys,99.79,3,Easton Minter,Redwater,99.43,254.01,158.76,226.8,639.57,Single-ply,SBD,M,
Boys,99.79,4,Clay Fant,Waskom,99.79,263.08,142.88,229.06,635.03,Single-ply,SBD,M,
Boys,99.79,5,Payton Yandle,De Kalb,95.71,226.8,149.69,226.8,603.28,Single-ply,SBD,M,
Boys,99.79,6,Courtlyn Crabtree,Texarkana Liberty-Eylau,94.8,226.8,136.08,215.46,578.33,Single-ply,SBD,M,
Boys,99.79,7,Johnathan Olguin,Clarksville,93.89,181.44,113.4,201.85,496.68,Single-ply,SBD,M,
Boys,99.79,8,Isaiah Harrison,Atlanta,98.88,195.04,113.4,188.24,496.68,Single-ply,SBD,M,
Boys,99.79,9,Dylan Braley,Simms Bowie,97.98,192.78,120.2,181.44,494.42,Single-ply,SBD,M,
Boys,99.79,10,Orlando Barnes,Texarkana Texas,99.79,183.7,138.35,158.76,480.81,Single-ply,SBD,M,
Boys,99.79,11,Zach Restelle,Queen City,93.89,181.44,102.06,192.78,476.27,Single-ply,SBD,M,
Boys,99.79,12,Gunner Robinson,Simms Bowie,95.25,163.29,102.06,174.63,439.98,Single-ply,SBD,M,
Boys,99.79,13,Rashad Ganter,Texarkana Liberty-Eylau,95.25,176.9,97.52,158.76,433.18,Single-ply,SBD,M,
Boys,99.79,14,Brandon Harwell,Queen City,96.16,151.95,90.72,151.95,394.63,Single-ply,SBD,M,
Boys,99.79,15,Seth Mullins,Redwater,95.07,124.74,68.04,145.15,337.93,Single-ply,SBD,M,
Boys,109.77,1,John Collier,Redwater,108.86,317.51,181.44,272.16,771.11,Single-ply,SBD,M,
Boys,109.77,2,Jaden Wells,Atlanta,108.86,238.14,149.69,240.4,628.23,Single-ply,SBD,M,
Boys,109.77,3,Kanye Federick,Texarkana Liberty-Eylau,103.87,197.31,113.4,222.26,532.97,Single-ply,SBD,M,
Boys,109.77,4,Oscar Rodríguez,Hughes Springs,105.69,188.24,136.08,195.04,519.36,Single-ply,SBD,M,
Boys,109.77,5,Krue Kirkendall,Texarkana Texas,102.06,163.29,104.33,188.24,455.86,Single-ply,SBD,M,
Boys,109.77,6,Dalton Dwight,Redwater,101.51,158.76,106.59,172.37,437.72,Single-ply,SBD,M,
Boys,109.77,7,Evan Holeman,Texarkana Texas,106.59,172.37,79.38,181.44,433.18,Single-ply,SBD,M,
Boys,109.77,8,Adrick Patterson,Atlanta,105.69,167.83,102.06,158.76,428.64,Single-ply,SBD,M,
Boys,109.77,9,Colton Tutor,Redwater,106.96,158.76,102.06,149.69,410.5,Single-ply,SBD,M,
Boys,109.77,DQ,Roger Clark,Texarkana Liberty-Eylau,100.7,188.24,,,,Single-ply,SBD,M,
Boys,124.74,1,Corey Ingram,De Kalb,112.49,242.67,136.08,233.6,612.35,Single-ply,SBD,M,
Boys,124.74,2,John Owens,Redwater,116.48,226.8,163.29,206.38,596.47,Single-ply,SBD,M,
Boys,124.74,3,Brandon Obenoskey,Simms Bowie,114.31,235.87,142.88,215.46,594.21,Single-ply,SBD,M,
Boys,124.74,4,Davonne Crocker,Atlanta,116.12,226.8,108.86,190.51,526.17,Single-ply,SBD,M,
Boys,124.74,5,Daniel Jones,Queen City,119.29,206.38,108.86,197.31,512.56,Single-ply,SBD,M,
Boys,124.74,6,Trevor Balk,Maud,113.4,195.04,142.88,158.76,496.68,Single-ply,SBD,M,
Boys,124.74,7,Jordan Henderson JR,Texarkana Texas,114.76,172.37,97.52,192.78,462.66,Single-ply,SBD,M,
Boys,124.74,8,Dedron Walker,Texarkana Texas,112.49,136.08,120.2,181.44,437.72,Single-ply,SBD,M,
Boys,124.74,9,Angel Hernandez #14,Waskom,110.68,163.29,90.72,181.44,435.45,Single-ply,SBD,M,
Boys,124.74,10,Caden Roe,De Kalb,111.13,149.69,120.2,147.42,417.3,Single-ply,SBD,M,
Boys,124.74,11,Tyson Bell,Queen City,111.58,154.22,86.18,176.9,417.3,Single-ply,SBD,M,
Boys,139.71,1,Laynce Welch,Waskom,135.62,263.08,147.42,240.4,650.91,Single-ply,SBD,M,
Boys,139.71,2,Brandon Childs,Texarkana Texas,127.01,238.14,151.95,251.74,641.83,Single-ply,SBD,M,
Boys,139.71,3,Rhyen Pope,Queen City,131.09,226.8,124.74,254.01,605.55,Single-ply,SBD,M,
Boys,139.71,4,Briley Barron,Maud,130.63,195.04,138.35,213.19,546.58,Single-ply,SBD,M,
Boys,139.71,5,Pedro Sánchez,Waskom,125.65,215.46,127.01,199.58,542.04,Single-ply,SBD,M,
Boys,139.71,6,Carlos Cortes,Atlanta,125.1,210.92,111.13,199.58,521.63,Single-ply,SBD,M,
Boys,139.71,7,John Jack,Texarkana Texas,132,226.8,127.01,158.76,512.56,Single-ply,SBD,M,
Boys,139.71,8,Avery Fisher,Hughes Springs,139.71,181.44,115.67,204.12,501.22,Single-ply,SBD,M,
Boys,139.71,9,Corbyn Wilson,Atlanta,134.72,174.63,92.99,156.49,424.11,Single-ply,SBD,M,
Boys,139.71,10,Matthew Lingle,Texarkana Texas,130.63,138.35,113.4,158.76,410.5,Single-ply,SBD,M,
Boys,139.71,DQ,Austin Allen,Simms Bowie,130.63,181.44,111.13,,,Single-ply,SBD,M,
Boys,139.71+,1,Cedric Davis,Queen City,181.89,292.57,165.56,283.5,741.62,Single-ply,SBD,M,
Boys,139.71+,2,Jason Murphy,Texarkana Liberty-Eylau,159.21,292.57,156.49,276.69,725.75,Single-ply,SBD,M,
Boys,139.71+,3,Rhett Tucker,Simms Bowie,154.22,219.99,131.54,208.65,560.19,Single-ply,SBD,M,
Boys,139.71+,4,Nicholas Batton,Texarkana Texas,156.04,219.99,149.69,174.63,544.31,Single-ply,SBD,M,
Boys,139.71+,5,Matthew Zamarrippa,Hughes Springs,156.04,181.44,120.2,188.24,489.88,Single-ply,SBD,M,
Boys,139.71+,6,Sylas Hollins,Redwater,151.41,181.44,115.67,172.37,469.47,Single-ply,SBD,M,
Boys,139.71+,7,Rylie Culpepper,Maud,142.43,163.29,97.52,185.97,446.79,Single-ply,SBD,M,
Boys,139.71+,8,Devon Weary,Texarkana Liberty-Eylau,140.61,136.08,97.52,147.42,381.02,Single-ply,SBD,M,
