Division,WeightClassKg,Place,Name,Team,BodyweightKg,Best3SquatKg,Best3BenchKg,Best3DeadliftKg,TotalKg,Equipment,Event,Sex,BirthDate
Boys,59.87,1,Logan Houghton,Saratoga West Hardin,58.51,95.25,72.57,115.67,283.5,Single-ply,SBD,M,
Boys,59.87,2,Garrett Bartlett,Beaumont Monsignor Kelly,58.51,81.65,54.43,117.93,254.01,Single-ply,SBD,M,
Boys,59.87,3,Remington Utton,Saratoga West Hardin,59.87,77.11,56.7,113.4,247.21,Single-ply,SBD,M,
Boys,59.87,DQ,Logan Smith,Hull-Daisetta,58.06,,,,,Single-ply,SBD,M,
Boys,67.13,1,Tyler Thibodeaux,Hull-Daisetta,65.32,145.15,92.99,165.56,403.7,Single-ply,SBD,M,
Boys,67.13,2,Steven Sooudi,Beaumont Monsignor Kelly,66.68,136.08,70.31,170.1,376.48,Single-ply,SBD,M,
Boys,67.13,3,Hau Pham,Anahuac,63.96,142.88,74.84,151.95,369.68,Single-ply,SBD,M,
Boys,67.13,4,James Hare,Colmesneil,65.77,120.2,70.31,122.47,312.98,Single-ply,SBD,M,
Boys,67.13,5,Xander Woods,Hull-Daisetta,62.14,106.59,65.77,111.13,283.5,Single-ply,SBD,M,
Boys,67.13,6,Clay Witherspoon,Anahuac,63.96,102.06,70.31,104.33,276.69,Single-ply,SBD,M,
Boys,67.13,7,Sterling Gallander,Saratoga West Hardin,63.87,95.25,63.5,92.99,251.74,Single-ply,SBD,M,
Boys,67.13,8,Fisher Landley,Colmesneil,63.96,95.25,54.43,102.06,251.74,Single-ply,SBD,M,
Boys,67.13,9,Drake Brightwell,Anahuac,63.5,68.04,65.77,86.18,219.99,Single-ply,SBD,M,
Boys,67.13,DQ,Baylor Lanferman,Anahuac,64.86,,,,,Single-ply,SBD,M,
Boys,74.84,1,Jermi Shamblin,Colmesneil,74.84,156.49,102.06,179.17,437.72,Single-ply,SBD,M,
Boys,74.84,2,Aiden Gray,Colmesneil,74.39,142.88,92.99,133.81,369.68,Single-ply,SBD,M,
Boys,74.84,3,Braden Lanferman,Anahuac,69.4,113.4,72.57,161.03,347,Single-ply,SBD,M,
Boys,74.84,4,Hayden Smith,Saratoga West Hardin,74.84,99.79,63.5,124.74,288.03,Single-ply,SBD,M,
Boys,74.84,DQ,Scott Eddins,Colmesneil,72.57,,,,,Single-ply,SBD,M,
Boys,82.1,1,Jayden Shamblin,Colmesneil,79.38,172.37,104.33,185.97,462.66,Single-ply,SBD,M,
Boys,82.1,2,Nhan Pham,Anahuac,79.83,197.31,115.67,142.88,455.86,Single-ply,SBD,M,
Boys,82.1,3,Adrian Manning,Anahuac,77.11,142.88,102.06,165.56,410.5,Single-ply,SBD,M,
Boys,82.1,4,Max Mahan,Beaumont Monsignor Kelly,79.83,124.74,95.25,151.95,371.95,Single-ply,SBD,M,
Boys,82.1,5,Blanton Johnson,Colmesneil,77.11,131.54,68.04,147.42,347,Single-ply,SBD,M,
Boys,82.1,6,Kopeland Heckman,Colmesneil,78.93,120.2,63.5,133.81,317.51,Single-ply,SBD,M,
Boys,82.1,7,Roberto Alvarez,Anahuac,75.75,79.38,47.63,102.06,229.06,Single-ply,SBD,M,
Boys,82.1,DQ,Aeden Solis,Anahuac,79.83,,,,,Single-ply,SBD,M,
Boys,89.81,1,Mason Totzer,Anahuac,83.91,124.74,86.18,183.7,394.63,Single-ply,SBD,M,
Boys,89.81,2,Presley Mouton,Anahuac,88.9,136.08,79.38,136.08,351.53,Single-ply,SBD,M,
Boys,89.81,3,Ethan Bourdonnay,Beaumont Monsignor Kelly,89.81,136.08,74.84,131.54,342.46,Single-ply,SBD,M,
Boys,89.81,DQ,Dalton Hendrix,Anahuac,83.91,,,,,Single-ply,SBD,M,
Boys,99.79,1,Ethan Pham,Beaumont Monsignor Kelly,97.07,167.83,122.47,185.97,476.27,Single-ply,SBD,M,
Boys,99.79,2,Mathew Abbot,Beaumont Monsignor Kelly,99.79,161.03,77.11,167.83,405.97,Single-ply,SBD,M,
Boys,99.79,3,Peyton Hall,Beaumont Monsignor Kelly,98.43,120.2,72.57,142.88,335.66,Single-ply,SBD,M,
Boys,99.79,4,Thaddeus Woods,Colmesneil,92.53,113.4,72.57,138.35,324.32,Single-ply,SBD,M,
Boys,99.79,DQ,Lanon Seale,Saratoga West Hardin,99.7,,,,,Single-ply,SBD,M,
Boys,109.77,1,Dylan Fowler,Colmesneil,109.77,197.31,127.01,210.92,535.24,Single-ply,SBD,M,
Boys,109.77,2,Holden Loper,Saratoga West Hardin,108.59,192.78,99.79,163.29,455.86,Single-ply,SBD,M,
Boys,109.77,3,Collin Alverson,Hull-Daisetta,100.7,149.69,102.06,158.76,410.5,Single-ply,SBD,M,
Boys,109.77,DQ,Conner Drake,Hull-Daisetta,100.24,,,,,Single-ply,SBD,M,
Boys,124.74,1,Kolyer Marshall,Colmesneil,122.47,206.38,102.06,197.31,505.76,Single-ply,SBD,M,
Boys,124.74,2,Lane Abshier,Hull-Daisetta,116.57,183.7,106.59,183.7,474,Single-ply,SBD,M,
Boys,124.74,3,Kayden Flowers,Hull-Daisetta,119.75,136.08,102.06,138.35,376.48,Single-ply,SBD,M,
Boys,124.74,4,Greyson Vanya,Saratoga West Hardin,122.65,158.76,61.23,124.74,344.73,Single-ply,SBD,M,
Boys,139.71,1,Dylan Scott,Hull-Daisetta,131.09,174.63,120.2,204.12,498.95,Single-ply,SBD,M,
Boys,139.71,2,David Sweet,Colmesneil,132.45,156.49,92.99,190.51,439.98,Single-ply,SBD,M,
Boys,139.71,3,Jason Ford,Hull-Daisetta,130.63,129.27,90.72,136.08,356.07,Single-ply,SBD,M,
Boys,139.71,4,Hogan Ueckert,Colmesneil,127.01,122.47,70.31,142.88,335.66,Single-ply,SBD,M,
