Division,WeightClassKg,Place,Name,Team,BodyweightKg,Best3SquatKg,Best3BenchKg,Best3DeadliftKg,TotalKg,Equipment,Event,Sex,BirthDate
Boys,51.71,1,Dillon Bobbit,Greenville,51.26,129.27,61.23,124.74,315.25,Single-ply,SBD,M,
Boys,51.71,2,Max Williamson,Sulphur Springs,51.71,106.59,72.57,120.2,299.37,Single-ply,SBD,M,
Boys,55.79,1,Juan Santacruz,Sulphur Springs,55.34,120.2,70.31,122.47,312.98,Single-ply,SBD,M,
Boys,59.87,1,Juan Hernandez,Sulphur Springs,59.87,215.46,111.13,226.8,553.38,Single-ply,SBD,M,
Boys,59.87,2,David Chavez,Mount Pleasant,59.24,124.74,81.65,142.88,349.27,Single-ply,SBD,M,
Boys,59.87,3,Abraham Banueloz,Sulphur Springs,57.15,113.4,68.04,122.47,303.91,Single-ply,SBD,M,
Boys,59.87,4,Cristobal Torres,Sulphur Springs,59.24,108.86,68.04,124.74,301.64,Single-ply,SBD,M,
Boys,59.87,5,Evan Patrick,Sulphur Springs,59.42,113.4,65.77,115.67,294.84,Single-ply,SBD,M,
Boys,67.13,1,Colt Silman,Sulphur Springs,64.41,181.44,113.4,170.1,464.93,Single-ply,SBD,M,
Boys,74.84,1,Oscar Otero,Mount Pleasant,74.48,115.67,74.84,142.88,333.39,Single-ply,SBD,M,
Boys,74.84,2,Zachary Clark,Sulphur Springs,70.31,117.93,63.5,142.88,324.32,Single-ply,SBD,M,
Boys,82.1,1,Isaiah Lowe,Greenville,80.74,210.92,117.93,226.8,555.65,Single-ply,SBD,M,
Boys,82.1,2,Elias Elizando,Mount Pleasant,82.1,195.04,104.33,208.65,508.02,Single-ply,SBD,M,
Boys,82.1,3,Juan Tapia,Greenville,80.29,165.56,111.13,170.1,446.79,Single-ply,SBD,M,
Boys,82.1,4,Nathan Andrews,Sulphur Springs,81.65,161.03,81.65,167.83,410.5,Single-ply,SBD,M,
Boys,82.1,5,Barrett Thesing,Sulphur Springs,79.38,120.2,86.18,142.88,349.27,Single-ply,SBD,M,
Boys,89.81,1,Ben Hatcher,Sulphur Springs,89.81,238.14,133.81,226.8,598.74,Single-ply,SBD,M,
Boys,89.81,2,Khaleel Parker,Greenville,89.81,206.38,117.93,199.58,523.9,Single-ply,SBD,M,
Boys,89.81,3,Ryder Marshall,Mount Pleasant,84.96,154.22,92.99,156.49,403.7,Single-ply,SBD,M,
Boys,89.81,4,Esteban Trejo,Mount Pleasant,82.64,149.69,79.38,149.69,378.75,Single-ply,SBD,M,
Boys,99.79,1,Emiliano Portillo,Greenville,98.88,256.28,149.69,226.8,632.76,Single-ply,SBD,M,
Boys,99.79,2,Chad Maynard,Sulphur Springs,99.79,272.16,142.88,210.92,625.96,Single-ply,SBD,M,
Boys,99.79,3,Astin Ledbetter,Mount Pleasant,99.56,188.24,104.33,217.72,510.29,Single-ply,SBD,M,
Boys,99.79,4,Brazos Brown,Mount Pleasant,94.62,192.78,115.67,195.04,503.49,Single-ply,SBD,M,
Boys,99.79,5,Karson Brown,Mount Pleasant,93.08,142.88,88.45,147.42,378.75,Single-ply,SBD,M,
Boys,109.77,1,Clayton Miller,Mount Pleasant,109,192.78,102.06,179.17,474,Single-ply,SBD,M,
Boys,109.77,2,Aiden Smith,Sulphur Springs,100.7,124.74,81.65,147.42,353.8,Single-ply,SBD,M,
Boys,124.74,1,Luis Venerjas,Greenville,118.84,260.82,156.49,226.8,644.1,Single-ply,SBD,M,
Boys,124.74,2,Sean Dial,Sulphur Springs,121.56,238.14,124.74,210.92,573.79,Single-ply,SBD,M,
Boys,124.74,3,Micah Shepherd,Mount Pleasant,110.13,215.46,124.74,183.7,523.9,Single-ply,SBD,M,
