Division,WeightClassKg,Place,Name,Team,BodyweightKg,Best3SquatKg,Best3BenchKg,Best3DeadliftKg,TotalKg,Equipment,Event,Sex,BirthDate
Boys,51.71,1,Jose Ruiz,Diboll,49.17,127.01,63.5,133.81,324.32,Single-ply,SBD,M,
Boys,55.79,1,Izaiah Compean,Diboll,51.94,102.06,54.43,124.74,281.23,Single-ply,SBD,M,
Boys,59.87,1,Jacoriance White,Lufkin,59.19,167.83,124.74,181.44,474,Single-ply,SBD,M,
Boys,59.87,2,Trace Haskins,Huntington,59.78,115.67,70.31,142.88,328.85,Single-ply,SBD,M,
Boys,59.87,3,Ty Davis,Huntington,59.69,102.06,61.23,102.06,265.35,Single-ply,SBD,M,
Boys,67.13,1,James Wisk,Elysian Fields,66.68,127.01,86.18,145.15,358.34,Single-ply,SBD,M,
Boys,67.13,2,Lajarian Leadon,Nacogdoches,63.5,142.88,77.11,124.74,344.73,Single-ply,SBD,M,
Boys,67.13,3,Caleb Brady,Huntington,61.14,129.27,52.16,129.27,310.71,Single-ply,SBD,M,
Boys,74.84,1,Bacquari Murphy,Lufkin,73.62,170.1,104.33,195.04,469.47,Single-ply,SBD,M,
Boys,74.84,2,Emmanuel Garcia,Nacogdoches,74.84,136.08,72.57,165.56,374.21,Single-ply,SBD,M,
Boys,82.1,1,Gracen Packard,Nacogdoches,77.11,181.44,113.4,190.51,485.34,Single-ply,SBD,M,
Boys,82.1,2,Hayden Futch,Lufkin,77.56,183.7,113.4,183.7,480.81,Single-ply,SBD,M,
Boys,82.1,3,Ladarius Jackson,Lufkin,81.19,181.44,115.67,179.17,476.27,Single-ply,SBD,M,
Boys,82.1,4,Cameron Fields,Nacogdoches,77.11,165.56,81.65,183.7,430.91,Single-ply,SBD,M,
Boys,82.1,5,Leo Sanchez,Diboll,77.25,170.1,92.99,163.29,426.38,Single-ply,SBD,M,
Boys,82.1,6,Jaiden Adams,Diboll,80.56,158.76,83.91,161.03,403.7,Single-ply,SBD,M,
Boys,82.1,7,Brandon Cofer,Huntington,78.29,136.08,68.04,145.15,349.27,Single-ply,SBD,M,
Boys,82.1,DQ,Daniel Meza,Diboll,77.75,133.81,,,,Single-ply,SBD,M,
Boys,89.81,1,Javorie Garrett,Lufkin,88,195.04,122.47,226.8,544.31,Single-ply,SBD,M,
Boys,89.81,2,James Paxon,Huntington,85.91,183.7,102.06,188.24,474,Single-ply,SBD,M,
Boys,89.81,3,Josue Rosales,Diboll,85.77,199.58,113.4,151.95,464.93,Single-ply,SBD,M,
Boys,89.81,4,Yahir Escarcega,Nacogdoches,88.45,167.83,102.06,147.42,417.3,Single-ply,SBD,M,
Boys,89.81,5,Jason Gee,Huntington,86.09,158.76,102.06,154.22,415.04,Single-ply,SBD,M,
Boys,99.79,1,Christian Crain,Lufkin,92.53,204.12,127.01,210.92,542.04,Single-ply,SBD,M,
Boys,99.79,2,Zane Reynolds,Huntington,98.7,208.65,113.4,204.12,526.17,Single-ply,SBD,M,
Boys,99.79,3,James White,Lufkin,97.52,201.85,138.35,183.7,523.9,Single-ply,SBD,M,
Boys,99.79,4,Karson Smith,Diboll,95.3,199.58,111.13,188.24,498.95,Single-ply,SBD,M,
Boys,99.79,5,Amari Tatum,Nacogdoches,99.79,181.44,117.93,188.24,487.61,Single-ply,SBD,M,
Boys,99.79,6,Sam McNeely,Nacogdoches,95.25,183.7,102.06,183.7,469.47,Single-ply,SBD,M,
Boys,99.79,7,Daniel Torres,Lufkin,99.79,167.83,113.4,172.37,453.59,Single-ply,SBD,M,
Boys,99.79,8,Cody Pyle,Carthage,92.9,145.15,83.91,195.04,424.11,Single-ply,SBD,M,
Boys,99.79,9,Reily Vanscoder,Nacogdoches,99.79,149.69,106.59,140.61,396.89,Single-ply,SBD,M,
Boys,109.77,1,Jermaine Simpson,Lufkin,108.41,226.8,122.47,242.67,591.94,Single-ply,SBD,M,
Boys,109.77,2,Bralyn Holman,Lufkin,102.51,179.17,122.47,210.92,512.56,Single-ply,SBD,M,
Boys,109.77,3,Alex Oliveros,Nacogdoches,104.33,181.44,117.93,204.12,503.49,Single-ply,SBD,M,
Boys,109.77,4,Jaxon Jordan,Diboll,104.87,208.65,108.86,179.17,496.68,Single-ply,SBD,M,
Boys,109.77,5,James Williams,Nacogdoches,102.06,167.83,97.52,158.76,424.11,Single-ply,SBD,M,
Boys,109.77,6,Jeremy Privett,Carthage,101.7,163.29,90.72,163.29,417.3,Single-ply,SBD,M,
Boys,124.74,1,Andrew Rodgers,Nacogdoches,113.4,226.8,142.88,226.8,596.47,Single-ply,SBD,M,
Boys,124.74,2,Damyan Rojas,Diboll,121.2,213.19,133.81,210.92,557.92,Single-ply,SBD,M,
Boys,124.74,3,James Morrow,Carthage,124.06,208.65,127.01,210.92,546.58,Single-ply,SBD,M,
Boys,124.74,4,Davion Wallace,Carthage,114.58,226.8,117.93,195.04,539.77,Single-ply,SBD,M,
Boys,124.74,5,Jairo Lascano,Diboll,120.25,208.65,104.33,204.12,517.1,Single-ply,SBD,M,
Boys,124.74,6,Alexis Juarez,Carthage,121.74,188.24,136.08,190.51,514.83,Single-ply,SBD,M,
Boys,124.74,7,Bryan Granados,Nacogdoches,113.4,204.12,106.59,188.24,498.95,Single-ply,SBD,M,
Boys,124.74,8,Kyle Suggs,Huntington,119.48,188.24,106.59,204.12,498.95,Single-ply,SBD,M,
Boys,124.74,9,Gael Salzar,Nacogdoches,115.67,192.78,86.18,183.7,462.66,Single-ply,SBD,M,
Boys,124.74,10,Shaun Monroe,Huntington,116.3,181.44,83.91,161.03,426.38,Single-ply,SBD,M,
Boys,139.71,1,Jordan Nichols,Lufkin,135.17,285.76,154.22,258.55,698.53,Single-ply,SBD,M,
Boys,139.71,2,Gage Parker,Elysian Fields,130.63,244.94,161.03,213.19,619.15,Single-ply,SBD,M,
Boys,139.71,3,Rogelio Luna,Carthage,139.39,217.72,142.88,217.72,578.33,Single-ply,SBD,M,
Boys,139.71,4,Ryan Larson,Nacogdoches,129.27,188.24,136.08,204.12,528.44,Single-ply,SBD,M,
Boys,139.71,5,Nick Smith,Huntington,131.36,183.7,115.67,183.7,483.08,Single-ply,SBD,M,
Boys,139.71,6,Christian Ochoa,Nacogdoches,129.27,183.7,102.06,156.49,442.25,Single-ply,SBD,M,
Boys,139.71,7,Jalen Wickware,Nacogdoches,129.27,140.61,102.06,142.88,385.55,Single-ply,SBD,M,
Boys,139.71+,1,Jason Payne,Huntington,173.54,170.1,129.27,208.65,508.02,Single-ply,SBD,M,
Boys,139.71+,2,Elijah Freeman,Diboll,139.98,195.04,111.13,199.58,505.76,Single-ply,SBD,M,
Boys,139.71+,3,Gabriel Barnes,Carthage,158.85,195.04,99.79,165.56,460.4,Single-ply,SBD,M,
