Division,WeightClassKg,Place,Name,Team,BodyweightKg,Best3SquatKg,Best3BenchKg,Best3DeadliftKg,TotalKg,Equipment,Event,Sex,BirthDate
Boys,51.71,1,Paul Nguyen,Abilene,50.35,124.74,72.57,131.54,328.85,Single-ply,SBD,M,
Boys,51.71,2,Sam O'Brien,Clyde,51.62,115.67,70.31,136.08,322.05,Single-ply,SBD,M,
Boys,51.71,3,Xavier Flores,Merkel,51.44,115.67,54.43,124.74,294.84,Single-ply,SBD,M,
Boys,51.71,4,Calib Hobbs,Hawley,51.71,61.23,40.82,90.72,192.78,Single-ply,SBD,M,
Boys,51.71,DQ,Jake Stone,Clyde,41.37,108.86,86.18,,,Single-ply,SBD,M,
Boys,51.71,DQ,Kevin Reyes,Abilene Cooper,47.63,,,,,Single-ply,SBD,M,
Boys,55.79,1,Marcus Rose,Abilene Wylie,53.98,124.74,70.31,142.88,337.93,Single-ply,SBD,M,
Boys,55.79,2,Warren Jackson,Abilene,52.89,115.67,65.77,115.67,297.1,Single-ply,SBD,M,
Boys,55.79,3,Braden Warren,Abilene Cooper,51.98,90.72,52.16,90.72,233.6,Single-ply,SBD,M,
Boys,59.87,1,Ethan Stalling,Hawley,58.51,136.08,79.38,127.01,342.46,Single-ply,SBD,M,
Boys,59.87,2,Kaden Gerhart,Clyde,58.6,120.2,74.84,138.35,333.39,Single-ply,SBD,M,
Boys,59.87,3,Reggie Pitts,Abilene Cooper,58.65,138.35,61.23,131.54,331.12,Single-ply,SBD,M,
Boys,59.87,DQ,Keegan Franklin,Midland,59.69,140.61,,,,Single-ply,SBD,M,
Boys,59.87,DQ,Michael Sanchez,Abilene,58.97,,,,,Single-ply,SBD,M,
Boys,67.13,1,Tristen Thompson,Merkel,63.78,195.04,122.47,188.24,505.76,Single-ply,SBD,M,
Boys,67.13,2,Fabian Gomez,Clyde,64.05,170.1,104.33,167.83,442.25,Single-ply,SBD,M,
Boys,67.13,3,Royce Knight,Midland,63.59,161.03,70.31,170.1,401.43,Single-ply,SBD,M,
Boys,67.13,4,Rowdy Hester,Abilene,64.95,136.08,86.18,156.49,378.75,Single-ply,SBD,M,
Boys,67.13,DQ,Joshua Robertson,Abilene Cooper,63.05,,,,,Single-ply,SBD,M,
Boys,74.84,1,Avdan Fish,Clyde,74.48,215.46,145.15,222.26,582.87,Single-ply,SBD,M,
Boys,74.84,2,Zion Ward,Midland,74.84,226.8,113.4,195.04,535.24,Single-ply,SBD,M,
Boys,74.84,3,Nimfasha Olivier,Abilene Cooper,74.75,204.12,102.06,224.53,530.7,Single-ply,SBD,M,
Boys,74.84,4,Oscar Montoya,Merkel,69.04,188.24,115.67,179.17,483.08,Single-ply,SBD,M,
Boys,74.84,5,Drayton McCoy,Midland,74.57,185.97,106.59,188.24,480.81,Single-ply,SBD,M,
Boys,74.84,6,Rhett Bingham,Clyde,70.4,179.17,97.52,197.31,474,Single-ply,SBD,M,
Boys,74.84,7,Harry Cooper,Hawley,74.21,192.78,122.47,142.88,458.13,Single-ply,SBD,M,
Boys,74.84,8,Jaxon Carpenter,Abilene Wylie,74.84,165.56,83.91,183.7,433.18,Single-ply,SBD,M,
Boys,74.84,9,Jace Ellison,Merkel,72.39,158.76,83.91,167.83,410.5,Single-ply,SBD,M,
Boys,74.84,10,Ryder Ellis,Abilene Cooper,73.94,161.03,92.99,154.22,408.23,Single-ply,SBD,M,
Boys,74.84,11,Stroman Bridges,Midland,72.48,142.88,95.25,151.95,390.09,Single-ply,SBD,M,
Boys,74.84,12,Coltyn Rogers,Merkel,74.84,147.42,79.38,147.42,374.21,Single-ply,SBD,M,
Boys,74.84,13,Kevin Rivera,Abilene,74.75,129.27,90.72,133.81,353.8,Single-ply,SBD,M,
Boys,74.84,14,Elijah Davila,Abilene,69.04,131.54,81.65,122.47,335.66,Single-ply,SBD,M,
Boys,74.84,DQ,Ethan Hill,Abilene Wylie,69.49,56.7,,,,Single-ply,SBD,M,
Boys,74.84,DQ,Caleb Gutierrez,Abilene Cooper,70.76,,,,,Single-ply,SBD,M,
Boys,82.1,1,Joel Scott,Abilene Wylie,82.01,272.16,136.08,272.16,680.39,Single-ply,SBD,M,
Boys,82.1,2,Kyle Nichols,Hawley,81.01,231.33,129.27,215.46,576.06,Single-ply,SBD,M,
Boys,82.1,3,Ben Turnbow,Abilene Wylie,76.29,170.1,111.13,183.7,464.93,Single-ply,SBD,M,
Boys,82.1,4,Damon Carillo,Abilene Cooper,77.11,158.76,106.59,158.76,424.11,Single-ply,SBD,M,
Boys,82.1,5,Martin Hernandez,Hawley,78.02,149.69,92.99,170.1,412.77,Single-ply,SBD,M,
Boys,82.1,6,Ruben Portillo,Midland,81.37,158.76,106.59,142.88,408.23,Single-ply,SBD,M,
Boys,82.1,7,Luke Fisher,Abilene,82.01,142.88,90.72,145.15,378.75,Single-ply,SBD,M,
Boys,89.81,1,Johnathan Vanwinkle,Abilene Cooper,84.82,183.7,111.13,201.85,496.68,Single-ply,SBD,M,
Boys,89.81,2,Andres Abril,Abilene,84.01,165.56,95.25,172.37,433.18,Single-ply,SBD,M,
Boys,89.81,3,Luke Burson,Clyde,86.91,156.49,111.13,165.56,433.18,Single-ply,SBD,M,
Boys,89.81,4,Kanyon Willeford,Hawley,85.73,170.1,97.52,145.15,412.77,Single-ply,SBD,M,
Boys,89.81,5,Blake Carr,Clyde,83.1,142.88,83.91,170.1,396.89,Single-ply,SBD,M,
Boys,89.81,6,Rylan Ortiz,Merkel,88.45,102.06,74.84,136.08,312.98,Single-ply,SBD,M,
Boys,89.81,DQ,Ryan Johnson,Abilene,87.09,,,,,Single-ply,SBD,M,
Boys,99.79,1,Jacob Deax,Abilene Cooper,96.16,272.16,142.88,256.28,671.32,Single-ply,SBD,M,
Boys,99.79,2,Dom Benton,Abilene Wylie,93.98,229.06,145.15,226.8,601.01,Single-ply,SBD,M,
Boys,99.79,3,Morgan Bryan,Clyde,98.43,231.33,138.35,204.12,573.79,Single-ply,SBD,M,
Boys,99.79,4,Alex Mehaffey,Abilene,99.65,219.99,111.13,210.92,542.04,Single-ply,SBD,M,
Boys,99.79,5,Jaime Davila,Midland,95.25,197.31,136.08,188.24,521.63,Single-ply,SBD,M,
Boys,99.79,6,Kade Kitchens,Abilene Wylie,91.81,165.56,122.47,181.44,469.47,Single-ply,SBD,M,
Boys,99.79,7,Lucas Moreno,Hawley,92.08,170.1,106.59,188.24,464.93,Single-ply,SBD,M,
Boys,99.79,8,Tristen Hall,Abilene,91.99,165.56,102.06,190.51,458.13,Single-ply,SBD,M,
Boys,99.79,9,Carson Cooper,Abilene Cooper,90.26,181.44,83.91,170.1,435.45,Single-ply,SBD,M,
Boys,99.79,10,Isiah Sebastian,Merkel,97.61,158.76,104.33,167.83,430.91,Single-ply,SBD,M,
Boys,99.79,11,Ben Bredemeyer,Abilene,96.07,167.83,92.99,167.83,428.64,Single-ply,SBD,M,
Boys,99.79,12,Conner Boyd,Abilene Cooper,95.71,172.37,83.91,167.83,424.11,Single-ply,SBD,M,
Boys,99.79,DQ,Weston Rose,Abilene Wylie,96.98,219.99,,,,Single-ply,SBD,M,
Boys,99.79,DQ,Boss Brake,Abilene,98.88,,,,,Single-ply,SBD,M,
Boys,109.77,1,Elijah Flores,Merkel,108.59,210.92,142.88,240.4,594.21,Single-ply,SBD,M,
Boys,109.77,2,Ethan Adkins,Clyde,99.97,197.31,99.79,217.72,514.83,Single-ply,SBD,M,
Boys,109.77,3,Marvin Ramos,Midland,108.41,190.51,127.01,195.04,512.56,Single-ply,SBD,M,
Boys,109.77,4,Jaydon Tatum,Hawley,109.77,183.7,113.4,192.78,489.88,Single-ply,SBD,M,
Boys,109.77,5,Joe Guevara,Abilene Cooper,108.41,190.51,106.59,174.63,471.74,Single-ply,SBD,M,
Boys,109.77,6,Caden Green,Abilene Wylie,102.15,147.42,133.81,172.37,453.59,Single-ply,SBD,M,
Boys,109.77,7,Micah Flores,Abilene Cooper,104.78,156.49,97.52,167.83,421.84,Single-ply,SBD,M,
Boys,109.77,8,Tre Simpson,Abilene,101.6,156.49,92.99,154.22,403.7,Single-ply,SBD,M,
Boys,109.77,DQ,Jose Huerta,Merkel,103.6,,,,,Single-ply,SBD,M,
Boys,124.74,1,Julian Garcia,Abilene,117.48,251.74,149.69,235.87,637.3,Single-ply,SBD,M,
Boys,124.74,2,Noel Herrera,Abilene Cooper,119.75,231.33,149.69,226.8,607.81,Single-ply,SBD,M,
Boys,124.74,3,Billy Deel,Clyde,110.22,208.65,129.27,190.51,528.44,Single-ply,SBD,M,
Boys,124.74,4,Cayden Rhodes,Merkel,115.12,183.7,124.74,197.31,505.76,Single-ply,SBD,M,
Boys,124.74,5,Amasyea Rollie,Midland,119.2,181.44,136.08,170.1,487.61,Single-ply,SBD,M,
Boys,124.74,6,Hayden Macke,Abilene Cooper,116.12,172.37,95.25,183.7,451.32,Single-ply,SBD,M,
Boys,139.71,1,Xzavier Collins,Abilene Wylie,137.98,328.85,215.46,322.05,866.36,Single-ply,SBD,M,
Boys,139.71,2,Brayden Flores,Abilene Cooper,131.54,256.28,167.83,217.72,641.83,Single-ply,SBD,M,
Boys,139.71,3,Jacob Vasquez,Midland,130.45,226.8,140.61,213.19,580.6,Single-ply,SBD,M,
Boys,139.71,4,Jaycob Parker,Abilene,133.36,244.94,104.33,226.8,576.06,Single-ply,SBD,M,
Boys,139.71,5,Goni Gjocaj,Abilene Wylie,134.54,206.38,170.1,174.63,551.11,Single-ply,SBD,M,
Boys,139.71,6,Miguel Hernandez,Abilene,136.62,181.44,115.67,165.56,462.66,Single-ply,SBD,M,
Boys,139.71,7,Justice McGuinness,Abilene Wylie,136.08,170.1,92.99,136.08,399.16,Single-ply,SBD,M,
Boys,139.71,8,Cameron Weathered,Abilene Cooper,132.9,158.76,77.11,161.03,396.89,Single-ply,SBD,M,
Boys,139.71+,1,Braxton Scott,Abilene,146.24,208.65,129.27,176.9,514.83,Single-ply,SBD,M,
Boys,139.71+,2,Hoss Lozano,Abilene,161.48,167.83,104.33,167.83,439.98,Single-ply,SBD,M,
Boys,,NS,Caleb Powell,Clyde,,,,,,Single-ply,SBD,M,
Boys,,NS,Jose Hernandez,Hawley,,,,,,Single-ply,SBD,M,
Boys,,NS,Hezakiah Parker,Hawley,,,,,,Single-ply,SBD,M,
Boys,,NS,Alex Carey,Hawley,,,,,,Single-ply,SBD,M,
Boys,,NS,John Guedry,Midland,,,,,,Single-ply,SBD,M,
Boys,,NS,Braxton Duden,Merkel,,,,,,Single-ply,SBD,M,
Boys,,NS,Jaden Taylor,Midland,,,,,,Single-ply,SBD,M,
