Name,Sex,Age,BodyweightKg,WeightClassKg,Division,Equipment,Event,Bench1Kg,Bench2Kg,Bench3Kg,Bench4Kg,Best3BenchKg,TotalKg,Place,Country
Ben Middledith,M,35,69.6,75,M-O,Raw,B,-112.5,117.5,122.5,,122.5,122.5,1,Scotland
John Dunsmore,M,32,78.2,82.5,M-O,Raw,B,-105,110,-112.5,,110,110,1,Scotland
Jamie Connor,M,24,94.2,100,M-O,Raw,B,170,175,-180,,175,175,1,Scotland
Michael Collins #7,M,34,98.4,100,M-O,Raw,B,130,135,-140,,135,135,1,Scotland
Euan Lyster,M,38,109.9,110,M-O,Raw,B,135,-142.5,142.5,,142.5,142.5,1,Scotland
Liam Perrie,M,17,117,125,M-T2,Raw,B,80,90,92.5,,92.5,92.5,1,Scotland
Wullie Brown,M,43,90,90,M-M1,Single-ply,B,140,-185,-185,,140,140,1,Scotland
Chris Martin,M,40,99.4,100,M-M1,Single-ply,B,195,205,-210,,205,205,1,Scotland
Liam Curran,M,30,104.8,110,M-O,Single-ply,B,-190,-190,-200,,,,DQ,Scotland
