Division,WeightClassKg,Place,Name,Team,BodyweightKg,Best3SquatKg,Best3BenchKg,Best3DeadliftKg,TotalKg,Equipment,Event,Sex,BirthDate
Boys,55.79,1,Devin Espinoza,Gilmer Union Hill,54.7,131.54,65.77,124.74,322.05,Single-ply,SBD,M,
Boys,55.79,2,Seth Hicks,Hughes Springs,53.89,113.4,74.84,120.2,308.44,Single-ply,SBD,M,
Boys,59.87,1,Jace Lindsay,Beckville,58.97,165.56,95.25,167.83,428.64,Single-ply,SBD,M,
Boys,59.87,2,Colby Plasterer,Ore City,58.42,142.88,83.91,147.42,374.21,Single-ply,SBD,M,
Boys,59.87,3,Kaden Barnwell,Hughes Springs,58.97,129.27,81.65,142.88,353.8,Single-ply,SBD,M,
Boys,59.87,4,Daniel Dunn,Gilmer Union Hill,59.87,92.99,65.77,124.74,283.5,Single-ply,SBD,M,
Boys,67.13,1,Kyle Ritter,Ore City,67.04,158.76,90.72,170.1,419.57,Single-ply,SBD,M,
Boys,67.13,2,James Wisk,Elysian Fields,63.68,90.72,61.23,106.59,258.55,Single-ply,SBD,M,
Boys,74.84,1,Jayke Bass,Gilmer Union Hill,73.57,158.76,122.47,172.37,453.59,Single-ply,SBD,M,
Boys,74.84,2,Carlos Campos,Beckville,72.57,158.76,79.38,165.56,403.7,Single-ply,SBD,M,
Boys,74.84,3,Cole Heard,Beckville,67.86,158.76,81.65,136.08,376.48,Single-ply,SBD,M,
Boys,74.84,4,Benji Rios,Beckville,71.12,120.2,74.84,136.08,331.12,Single-ply,SBD,M,
Boys,74.84,5,Caden Lovell,Elysian Fields,70.31,120.2,65.77,138.35,324.32,Single-ply,SBD,M,
Boys,82.1,1,Jaylin Wood,Ore City,76.57,204.12,102.06,249.48,555.65,Single-ply,SBD,M,
Boys,82.1,2,Alder Smithson,Ore City,78.29,188.24,111.13,195.04,494.42,Single-ply,SBD,M,
Boys,82.1,3,Jake Murray,Hughes Springs,78.38,174.63,102.06,192.78,469.47,Single-ply,SBD,M,
Boys,82.1,4,Texan Lancaster,Hughes Springs,79.83,147.42,111.13,156.49,415.04,Single-ply,SBD,M,
Boys,89.81,1,Cole Edwards #1,Hughes Springs,89.18,213.19,131.54,213.19,557.92,Single-ply,SBD,M,
Boys,89.81,2,Lynnquavious Baird,Hughes Springs,88.09,181.44,113.4,181.44,476.27,Single-ply,SBD,M,
Boys,89.81,3,Jonas Parish,Gilmer Union Hill,88.09,136.08,72.57,167.83,376.48,Single-ply,SBD,M,
Boys,99.79,1,Cody Hargett,Elysian Fields,95.16,208.65,115.67,174.63,498.95,Single-ply,SBD,M,
Boys,99.79,2,Elijah Sexton,Beckville,97.98,163.29,97.52,124.74,385.55,Single-ply,SBD,M,
Boys,99.79,NS,Dylan Campbell,Ore City,,,,,,Single-ply,SBD,M,
Boys,109.77,1,Oscar Rodríguez,Hughes Springs,101.6,192.78,136.08,190.51,519.36,Single-ply,SBD,M,
Boys,109.77,2,Mikey Lanier,Hughes Springs,109.68,174.63,120.2,172.37,467.2,Single-ply,SBD,M,
Boys,109.77,DQ,Noah Garcia,Ore City,107.32,190.51,,,,Single-ply,SBD,M,
Boys,124.74,1,Gage Parker,Elysian Fields,121.83,219.99,131.54,192.78,544.31,Single-ply,SBD,M,
Boys,124.74,2,Andrew Cormany,Beckville,116.12,208.65,111.13,219.99,539.77,Single-ply,SBD,M,
Boys,124.74,3,Randall Shivers,Beckville,118.84,195.04,106.59,181.44,483.08,Single-ply,SBD,M,
Boys,124.74,NS,Aj Gabaldon,Ore City,,,,,,Single-ply,SBD,M,
Boys,139.71+,1,Jon Tatum,Ore City,147.33,269.89,142.88,222.26,635.03,Single-ply,SBD,M,
