Division,WeightClassKg,Place,Name,Team,BodyweightKg,Best3SquatKg,Best3BenchKg,Best3DeadliftKg,TotalKg,Equipment,Event,Sex,BirthDate
Boys,51.71,1,Jose Ruiz,Diboll,49.35,115.67,61.23,120.2,297.1,Single-ply,SBD,M,
Boys,55.79,1,Izaiah Compean,Diboll,51.75,102.06,49.9,117.93,269.89,Single-ply,SBD,M,
Boys,59.87,1,Jacoriance White,Lufkin,59.06,142.88,115.67,161.03,419.57,Single-ply,SBD,M,
Boys,74.84,1,Bacquari Murphy,Lufkin,74.12,154.22,108.86,185.97,449.06,Single-ply,SBD,M,
Boys,82.1,1,Ladarius Jackson,Lufkin,81.42,170.1,104.33,174.63,449.06,Single-ply,SBD,M,
Boys,82.1,2,Hayden Futch,Lufkin,81.56,174.63,102.06,165.56,442.25,Single-ply,SBD,M,
Boys,82.1,3,Leo Sanchez,Diboll,77.66,154.22,83.91,158.76,396.89,Single-ply,SBD,M,
Boys,82.1,4,Daniel Meza,Diboll,77.75,106.59,106.59,142.88,356.07,Single-ply,SBD,M,
Boys,89.81,1,Javorie Garrett,Lufkin,86.73,185.97,122.47,204.12,512.56,Single-ply,SBD,M,
Boys,89.81,2,Josue Rosales,Diboll,85.18,192.78,106.59,133.81,433.18,Single-ply,SBD,M,
Boys,99.79,1,Christian Crain,Lufkin,94.62,197.31,124.74,215.46,537.51,Single-ply,SBD,M,
Boys,99.79,2,James White,Lufkin,99.11,181.44,124.74,181.44,487.61,Single-ply,SBD,M,
Boys,99.79,3,Karson Smith,Diboll,95.53,192.78,106.59,174.63,474,Single-ply,SBD,M,
Boys,99.79,4,Daniel Torres,Lufkin,98.34,163.29,111.13,170.1,444.52,Single-ply,SBD,M,
Boys,109.77,1,Jermaine Simpson,Lufkin,108.5,201.85,122.47,226.8,551.11,Single-ply,SBD,M,
Boys,109.77,2,Bralyn Holman,Lufkin,105.46,172.37,120.2,206.38,498.95,Single-ply,SBD,M,
Boys,109.77,3,Brendan Baker,Lufkin,103.92,170.1,104.33,190.51,464.93,Single-ply,SBD,M,
Boys,109.77,4,Jaxon Jordan,Diboll,105.6,204.12,102.06,156.49,462.66,Single-ply,SBD,M,
Boys,124.74,1,Damyan Rojas,Diboll,124.56,197.31,124.74,204.12,526.17,Single-ply,SBD,M,
Boys,124.74,2,Jairo Lascano,Diboll,122.38,183.7,92.99,204.12,480.81,Single-ply,SBD,M,
Boys,139.71,1,Jordan Nichols,Lufkin,135.26,272.16,147.42,251.74,671.32,Single-ply,SBD,M,
Boys,139.71,2,Zion Williams,Lufkin,129.77,192.78,111.13,197.31,501.22,Single-ply,SBD,M,
Boys,139.71+,1,Elijah Freeman,Diboll,141.57,183.7,113.4,183.7,480.81,Single-ply,SBD,M,
